AUC	tAI	0	0	0.221	0.08765304514344625375
AUC	TASEP	0	0	0.011	0.93251562897921169704
AUC	Diff	0	0	0.113	0.38586835703753563642
AUC+	tAI	0	0	0.221	0.08765304514344625375
AUC+	TASEP	0	0	0.011	0.93251562897921169704
AUC+	Diff	0	0	0.113	0.38586835703753563642
AUC-	tAI	0	0	nan	1.00000000000000000000
AUC-	TASEP	0	0	nan	1.00000000000000000000
AUC-	Diff	0	0	nan	1.00000000000000000000
Sum	tAI	0	0	0.221	0.08765304514344625375
Sum	TASEP	0	0	0.011	0.93251562897921169704
Sum	Diff	0	0	0.113	0.38586835703753563642
AUC	tAI	0	1	0.169	0.19235095629176951482
AUC	TASEP	0	1	-0.044	0.73733020330208831616
AUC	Diff	0	1	0.143	0.27162090334454402907
AUC+	tAI	0	1	0.169	0.19235095629176951482
AUC+	TASEP	0	1	-0.044	0.73733020330208831616
AUC+	Diff	0	1	0.143	0.27162090334454402907
AUC-	tAI	0	1	nan	1.00000000000000000000
AUC-	TASEP	0	1	nan	1.00000000000000000000
AUC-	Diff	0	1	nan	1.00000000000000000000
Sum	tAI	0	1	0.169	0.19235095629176951482
Sum	TASEP	0	1	-0.044	0.73733020330208831616
Sum	Diff	0	1	0.143	0.27162090334454402907
AUC	tAI	0	2	0.193	0.13709188606053659965
AUC	TASEP	0	2	0.001	0.99167775888709308596
AUC	Diff	0	2	0.108	0.40915911178598740605
AUC+	tAI	0	2	0.193	0.13709188606053659965
AUC+	TASEP	0	2	0.001	0.99167775888709308596
AUC+	Diff	0	2	0.108	0.40915911178598740605
AUC-	tAI	0	2	nan	1.00000000000000000000
AUC-	TASEP	0	2	nan	1.00000000000000000000
AUC-	Diff	0	2	nan	1.00000000000000000000
Sum	tAI	0	2	0.193	0.13709188606053659965
Sum	TASEP	0	2	0.001	0.99167775888709308596
Sum	Diff	0	2	0.108	0.40915911178598740605
AUC	tAI	0	3	0.215	0.09548907207525489382
AUC	TASEP	0	3	0.055	0.67373176006656887438
AUC	Diff	0	3	0.063	0.63045250981182654471
AUC+	tAI	0	3	0.218	0.09185646721992456187
AUC+	TASEP	0	3	0.048	0.71052401403922293976
AUC+	Diff	0	3	0.071	0.58575977342201823728
AUC-	tAI	0	3	0.167	0.19788157416924401222
AUC-	TASEP	0	3	-0.243	0.05909035080242314858
AUC-	Diff	0	3	0.356	0.00484747875986290405
Sum	tAI	0	3	0.220	0.08856664094750948957
Sum	TASEP	0	3	0.042	0.74748531287206299023
Sum	Diff	0	3	0.079	0.54348543612329858199
AUC	tAI	0	4	0.384	0.00222968700204310066
AUC	TASEP	0	4	0.169	0.19359948932233667085
AUC	Diff	0	4	0.036	0.78201412415514781618
AUC+	tAI	0	4	0.386	0.00210122314927205798
AUC+	TASEP	0	4	0.164	0.20698423893251408079
AUC+	Diff	0	4	0.043	0.74458724687074617776
AUC-	tAI	0	4	0.183	0.15892002908145796969
AUC-	TASEP	0	4	-0.053	0.68669889242848802802
AUC-	Diff	0	4	0.160	0.21767740040003313862
Sum	tAI	0	4	0.388	0.00201929117122543519
Sum	TASEP	0	4	0.159	0.22132817907869037355
Sum	Diff	0	4	0.049	0.70928820156034055877
AUC	tAI	0	5	0.193	0.13605511445813520122
AUC	TASEP	0	5	0.016	0.90253807547283715351
AUC	Diff	0	5	0.092	0.48009543353368833163
AUC+	tAI	0	5	0.202	0.11879540566589817663
AUC+	TASEP	0	5	0.023	0.86298790976029082778
AUC+	Diff	0	5	0.090	0.49006829753363745361
AUC-	tAI	0	5	0.106	0.41609909302090120065
AUC-	TASEP	0	5	0.065	0.61965335688421374627
AUC-	Diff	0	5	-0.010	0.94098411659423120135
Sum	tAI	0	5	0.208	0.10727133638957372930
Sum	TASEP	0	5	0.029	0.82643369293854118673
Sum	Diff	0	5	0.087	0.50434273040059651727
AUC	tAI	0	6	0.069	0.59505937553682008989
AUC	TASEP	0	6	-0.103	0.42980790075177977005
AUC	Diff	0	6	0.150	0.24839244622954367858
AUC+	tAI	0	6	-0.003	0.98377594007346913507
AUC+	TASEP	0	6	-0.143	0.27257491698483160558
AUC+	Diff	0	6	0.152	0.24223054460275897370
AUC-	tAI	0	6	-0.312	0.01426336168032387580
AUC-	TASEP	0	6	-0.176	0.17449001165002628322
AUC-	Diff	0	6	0.013	0.92342288351330614748
Sum	tAI	0	6	-0.070	0.59045191041516376096
Sum	TASEP	0	6	-0.173	0.18190764549466073574
Sum	Diff	0	6	0.147	0.25987261906569308900
AUC	tAI	0	7	0.041	0.75356851757119325264
AUC	TASEP	0	7	-0.029	0.82723357881811354630
AUC	Diff	0	7	0.054	0.67977742609069913282
AUC+	tAI	0	7	-0.030	0.81674750239903770588
AUC+	TASEP	0	7	-0.060	0.64842333298781751338
AUC+	Diff	0	7	0.047	0.71959594053870046260
AUC-	tAI	0	7	-0.292	0.02233259983744848368
AUC-	TASEP	0	7	-0.137	0.29409123236945527990
AUC-	Diff	0	7	-0.019	0.88675743120541516973
Sum	tAI	0	7	-0.091	0.48695923635422022624
Sum	TASEP	0	7	-0.084	0.52122307067092554789
Sum	Diff	0	7	0.039	0.76724946012089190184
AUC	tAI	0	8	0.131	0.31442465654258233698
AUC	TASEP	0	8	0.049	0.70640624728614787031
AUC	Diff	0	8	0.021	0.87098035632058612432
AUC+	tAI	0	8	0.056	0.66708425338458099407
AUC+	TASEP	0	8	0.026	0.84365512029698364049
AUC+	Diff	0	8	0.004	0.97499715821513377456
AUC-	tAI	0	8	-0.287	0.02507486804212081741
AUC-	TASEP	0	8	-0.087	0.50312610591084427902
AUC-	Diff	0	8	-0.068	0.60036101232971250674
Sum	tAI	0	8	-0.008	0.94877895941905776578
Sum	TASEP	0	8	0.005	0.96819617094036602989
Sum	Diff	0	8	-0.010	0.93681283247507096679
AUC	tAI	0	9	0.159	0.22243822652618172597
AUC	TASEP	0	9	0.115	0.37829236412124278566
AUC	Diff	0	9	-0.034	0.79642687577884774264
AUC+	tAI	0	9	0.088	0.50162396135851805568
AUC+	TASEP	0	9	0.089	0.49492520007380469416
AUC+	Diff	0	9	-0.046	0.72407606150399517198
AUC-	tAI	0	9	-0.275	0.03204277738237996248
AUC-	TASEP	0	9	-0.080	0.54046956396464951311
AUC-	Diff	0	9	-0.070	0.59326821220827408165
Sum	tAI	0	9	0.026	0.84307603454514457031
Sum	TASEP	0	9	0.065	0.62040652766065396140
Sum	Diff	0	9	-0.055	0.67418659561452787266
AUC	tAI	0	10	0.175	0.17771257633209169846
AUC	TASEP	0	10	0.132	0.31178316403636485710
AUC	Diff	0	10	-0.043	0.74449509602727026447
AUC+	tAI	0	10	0.101	0.43677894108411741136
AUC+	TASEP	0	10	0.104	0.42605624723312540691
AUC+	Diff	0	10	-0.054	0.67824658295595408042
AUC-	tAI	0	10	-0.275	0.03204277738237996248
AUC-	TASEP	0	10	-0.080	0.54046956396464951311
AUC-	Diff	0	10	-0.070	0.59326821220827408165
Sum	tAI	0	10	0.038	0.77315196504652239362
Sum	TASEP	0	10	0.077	0.55294533312575122608
Sum	Diff	0	10	-0.062	0.63511270893391169601
AUC	tAI	0	11	0.198	0.12578062621666444287
AUC	TASEP	0	11	0.136	0.29599237773749514924
AUC	Diff	0	11	-0.034	0.79450008593341714391
AUC+	tAI	0	11	0.121	0.35281221270480800367
AUC+	TASEP	0	11	0.107	0.41193147402276275582
AUC+	Diff	0	11	-0.047	0.72190893879382256326
AUC-	tAI	0	11	-0.275	0.03204277738237996248
AUC-	TASEP	0	11	-0.080	0.54046956396464951311
AUC-	Diff	0	11	-0.070	0.59326821220827408165
Sum	tAI	0	11	0.054	0.67920753475853745673
Sum	TASEP	0	11	0.080	0.54147793546091027572
Sum	Diff	0	11	-0.055	0.67302555941426378538
AUC	tAI	0	12	0.208	0.10844401470340558902
AUC	TASEP	0	12	0.135	0.29896936949034252917
AUC	Diff	0	12	-0.028	0.83143071589077388595
AUC+	tAI	0	12	0.129	0.32323075720306781999
AUC+	TASEP	0	12	0.106	0.41688752137717277613
AUC+	Diff	0	12	-0.041	0.75371030373304803707
AUC-	tAI	0	12	-0.275	0.03204277738237996248
AUC-	TASEP	0	12	-0.080	0.54046956396464951311
AUC-	Diff	0	12	-0.070	0.59326821220827408165
Sum	tAI	0	12	0.060	0.64638974683650118891
Sum	TASEP	0	12	0.078	0.54840402691597622820
Sum	Diff	0	12	-0.050	0.70009050635253666783
AUC	tAI	0	13	0.228	0.07663440566056237135
AUC	TASEP	0	13	0.148	0.25625313081509398794
AUC	Diff	0	13	-0.029	0.82198556200098138458
AUC+	tAI	0	13	0.148	0.25371336186760029552
AUC+	TASEP	0	13	0.118	0.36644025773121724487
AUC+	Diff	0	13	-0.043	0.74489626490298044281
AUC-	tAI	0	13	-0.275	0.03204277738237996248
AUC-	TASEP	0	13	-0.080	0.54046956396464951311
AUC-	Diff	0	13	-0.070	0.59326821220827408165
Sum	tAI	0	13	0.078	0.55140253358560986641
Sum	TASEP	0	13	0.089	0.49479054598066907200
Sum	Diff	0	13	-0.052	0.69188051185174415103
AUC	tAI	0	14	0.250	0.05230979637901700396
AUC	TASEP	0	14	0.164	0.20751820997067571550
AUC	Diff	0	14	-0.035	0.79098475400466328189
AUC+	tAI	0	14	0.169	0.19277595609490891237
AUC+	TASEP	0	14	0.133	0.30704639468765348997
AUC+	Diff	0	14	-0.047	0.71759297260734100643
AUC-	tAI	0	14	-0.275	0.03204277738237996248
AUC-	TASEP	0	14	-0.080	0.54046956396464951311
AUC-	Diff	0	14	-0.070	0.59326821220827408165
Sum	tAI	0	14	0.097	0.45747568778346681118
Sum	TASEP	0	14	0.103	0.42910712967538600093
Sum	Diff	0	14	-0.056	0.66808915393266643523
AUC	tAI	1	1	0.114	0.37998713602789768728
AUC	TASEP	1	1	-0.086	0.50962343110865226947
AUC	Diff	1	1	0.157	0.22581393612616809663
AUC+	tAI	1	1	0.114	0.37998713602789768728
AUC+	TASEP	1	1	-0.086	0.50962343110865226947
AUC+	Diff	1	1	0.157	0.22581393612616809663
AUC-	tAI	1	1	nan	1.00000000000000000000
AUC-	TASEP	1	1	nan	1.00000000000000000000
AUC-	Diff	1	1	nan	1.00000000000000000000
Sum	tAI	1	1	0.114	0.37998713602789768728
Sum	TASEP	1	1	-0.086	0.50962343110865226947
Sum	Diff	1	1	0.157	0.22581393612616809663
AUC	tAI	1	2	0.165	0.20482611333801542530
AUC	TASEP	1	2	-0.003	0.98267525906918629097
AUC	Diff	1	2	0.096	0.46030968605953570538
AUC+	tAI	1	2	0.165	0.20482611333801542530
AUC+	TASEP	1	2	-0.003	0.98267525906918629097
AUC+	Diff	1	2	0.096	0.46030968605953570538
AUC-	tAI	1	2	nan	1.00000000000000000000
AUC-	TASEP	1	2	nan	1.00000000000000000000
AUC-	Diff	1	2	nan	1.00000000000000000000
Sum	tAI	1	2	0.165	0.20482611333801542530
Sum	TASEP	1	2	-0.003	0.98267525906918629097
Sum	Diff	1	2	0.096	0.46030968605953570538
AUC	tAI	1	3	0.196	0.13016856412555058431
AUC	TASEP	1	3	0.065	0.62132483169758390140
AUC	Diff	1	3	0.042	0.75030728417431880040
AUC+	tAI	1	3	0.199	0.12428573806876069829
AUC+	TASEP	1	3	0.056	0.66620572052540372177
AUC+	Diff	1	3	0.052	0.69025935477657052175
AUC-	tAI	1	3	0.167	0.19788157416924401222
AUC-	TASEP	1	3	-0.243	0.05909035080242314858
AUC-	Diff	1	3	0.356	0.00484747875986290405
Sum	tAI	1	3	0.202	0.11903067291318389365
Sum	TASEP	1	3	0.048	0.71149905037739458180
Sum	Diff	1	3	0.062	0.63356177886698794577
AUC	tAI	1	4	0.388	0.00200850542803068409
AUC	TASEP	1	4	0.193	0.13666797754986542701
AUC	Diff	1	4	0.012	0.92456806133860158781
AUC+	tAI	1	4	0.390	0.00188423073897822429
AUC+	TASEP	1	4	0.187	0.14982843389246189303
AUC+	Diff	1	4	0.020	0.87715257798450796400
AUC-	tAI	1	4	0.183	0.15892002908145796969
AUC-	TASEP	1	4	-0.053	0.68669889242848802802
AUC-	Diff	1	4	0.160	0.21767740040003313862
Sum	tAI	1	4	0.391	0.00181484212053630782
Sum	TASEP	1	4	0.180	0.16430242797701344326
Sum	Diff	1	4	0.028	0.83217045586212934349
AUC	tAI	1	5	0.163	0.20901330348489208233
AUC	TASEP	1	5	0.015	0.90862807737266848562
AUC	Diff	1	5	0.076	0.55908266321795241360
AUC+	tAI	1	5	0.172	0.18522109892236168771
AUC+	TASEP	1	5	0.022	0.86671492800176408444
AUC+	Diff	1	5	0.074	0.57202381281779124400
AUC-	tAI	1	5	0.106	0.41609909302090120065
AUC-	TASEP	1	5	0.065	0.61965335688421374627
AUC-	Diff	1	5	-0.010	0.94098411659423120135
Sum	tAI	1	5	0.178	0.16914962112441733755
Sum	TASEP	1	5	0.028	0.82861571427811986368
Sum	Diff	1	5	0.071	0.58892698014610900259
AUC	tAI	1	6	0.037	0.77986225339409886992
AUC	TASEP	1	6	-0.108	0.40751287922956680454
AUC	Diff	1	6	0.137	0.29299493353016148323
AUC+	tAI	1	6	-0.037	0.77711038177509794700
AUC+	TASEP	1	6	-0.147	0.25961660730450064616
AUC+	Diff	1	6	0.137	0.29339287013672737947
AUC-	tAI	1	6	-0.312	0.01426336168032387580
AUC-	TASEP	1	6	-0.176	0.17449001165002628322
AUC-	Diff	1	6	0.013	0.92342288351330614748
Sum	tAI	1	6	-0.102	0.43315115076984533893
Sum	TASEP	1	6	-0.175	0.17795745628340739475
Sum	Diff	1	6	0.130	0.31764877890088238921
AUC	tAI	1	7	0.015	0.90646142749750879819
AUC	TASEP	1	7	-0.030	0.82006967580604339663
AUC	Diff	1	7	0.041	0.75557474256125711776
AUC+	tAI	1	7	-0.054	0.68029250907827454320
AUC+	TASEP	1	7	-0.060	0.64684279486540019466
AUC+	Diff	1	7	0.034	0.79545788847349019335
AUC-	tAI	1	7	-0.292	0.02233259983744848368
AUC-	TASEP	1	7	-0.137	0.29409123236945527990
AUC-	Diff	1	7	-0.019	0.88675743120541516973
Sum	tAI	1	7	-0.110	0.39751623479913145154
Sum	TASEP	1	7	-0.083	0.52550342813920392082
Sum	Diff	1	7	0.027	0.83832597162552446868
AUC	tAI	1	8	0.109	0.40463650930101946468
AUC	TASEP	1	8	0.048	0.71621310909298596670
AUC	Diff	1	8	0.010	0.93638036483851228020
AUC+	tAI	1	8	0.036	0.78270100761166894188
AUC+	TASEP	1	8	0.024	0.85281436661902310092
AUC+	Diff	1	8	-0.006	0.96540332928123817613
AUC-	tAI	1	8	-0.287	0.02507486804212081741
AUC-	TASEP	1	8	-0.087	0.50312610591084427902
AUC-	Diff	1	8	-0.068	0.60036101232971250674
Sum	tAI	1	8	-0.025	0.84795411896057226731
Sum	TASEP	1	8	0.004	0.97420798945117126344
Sum	Diff	1	8	-0.019	0.88599615366475736877
AUC	tAI	1	9	0.137	0.29304568389790347505
AUC	TASEP	1	9	0.111	0.39238919069762046021
AUC	Diff	1	9	-0.042	0.74552965032305484883
AUC+	tAI	1	9	0.068	0.60012023672507552874
AUC+	TASEP	1	9	0.086	0.51080598374079810853
AUC+	Diff	1	9	-0.054	0.68198373804270095988
AUC-	tAI	1	9	-0.275	0.03204277738237996248
AUC-	TASEP	1	9	-0.080	0.54046956396464951311
AUC-	Diff	1	9	-0.070	0.59326821220827408165
Sum	tAI	1	9	0.010	0.93907823699768377956
Sum	TASEP	1	9	0.062	0.63472535788795747536
Sum	Diff	1	9	-0.061	0.64000010908107429763
AUC	tAI	1	10	0.152	0.24298167095074238442
AUC	TASEP	1	10	0.127	0.32834923081069655737
AUC	Diff	1	10	-0.051	0.69660889965373318233
AUC+	tAI	1	10	0.081	0.53319181104259261161
AUC+	TASEP	1	10	0.100	0.44458789173659862826
AUC+	Diff	1	10	-0.061	0.63953916219920370345
AUC-	tAI	1	10	-0.275	0.03204277738237996248
AUC-	TASEP	1	10	-0.080	0.54046956396464951311
AUC-	Diff	1	10	-0.070	0.59326821220827408165
Sum	tAI	1	10	0.021	0.87032924631147201566
Sum	TASEP	1	10	0.074	0.56979741018521057327
Sum	Diff	1	10	-0.068	0.60399318670486956684
AUC	tAI	1	11	0.174	0.18005542949478642312
AUC	TASEP	1	11	0.131	0.31283609580614990531
AUC	Diff	1	11	-0.043	0.74322521937875640763
AUC+	tAI	1	11	0.100	0.44339367548435537625
AUC+	TASEP	1	11	0.103	0.43096314327890350437
AUC+	Diff	1	11	-0.054	0.68022869547682296432
AUC-	tAI	1	11	-0.275	0.03204277738237996248
AUC-	TASEP	1	11	-0.080	0.54046956396464951311
AUC-	Diff	1	11	-0.070	0.59326821220827408165
Sum	tAI	1	11	0.037	0.77754902173089912587
Sum	TASEP	1	11	0.076	0.55882397400927730224
Sum	Diff	1	11	-0.061	0.63950661397965169463
AUC	tAI	1	12	0.183	0.15816708605672627486
AUC	TASEP	1	12	0.131	0.31549648041627675887
AUC	Diff	1	12	-0.037	0.77749498906902547724
AUC+	tAI	1	12	0.107	0.41130951730907305830
AUC+	TASEP	1	12	0.102	0.43573363753711458202
AUC+	Diff	1	12	-0.049	0.70957088780570631847
AUC-	tAI	1	12	-0.275	0.03204277738237996248
AUC-	TASEP	1	12	-0.080	0.54046956396464951311
AUC-	Diff	1	12	-0.070	0.59326821220827408165
Sum	tAI	1	12	0.042	0.74529220295194298362
Sum	TASEP	1	12	0.075	0.56557239174169415818
Sum	Diff	1	12	-0.057	0.66455753679272855372
AUC	tAI	1	13	0.204	0.11527045472386600322
AUC	TASEP	1	13	0.143	0.27128327769848137319
AUC	Diff	1	13	-0.039	0.76822653817486408201
AUC+	tAI	1	13	0.126	0.33135661513867686878
AUC+	TASEP	1	13	0.113	0.38472331526695768833
AUC+	Diff	1	13	-0.050	0.70079508952790758869
AUC-	tAI	1	13	-0.275	0.03204277738237996248
AUC-	TASEP	1	13	-0.080	0.54046956396464951311
AUC-	Diff	1	13	-0.070	0.59326821220827408165
Sum	tAI	1	13	0.060	0.64734323785517933203
Sum	TASEP	1	13	0.086	0.51235723694189394539
Sum	Diff	1	13	-0.058	0.65634584056901390525
AUC	tAI	1	14	0.225	0.08108254649221358079
AUC	TASEP	1	14	0.159	0.22078132366152564137
AUC	Diff	1	14	-0.044	0.73873538500808311191
AUC+	tAI	1	14	0.147	0.25851541221508106405
AUC+	TASEP	1	14	0.128	0.32436023366770394549
AUC+	Diff	1	14	-0.055	0.67482499743556056959
AUC-	tAI	1	14	-0.275	0.03204277738237996248
AUC-	TASEP	1	14	-0.080	0.54046956396464951311
AUC-	Diff	1	14	-0.070	0.59326821220827408165
Sum	tAI	1	14	0.079	0.54754570204142627432
Sum	TASEP	1	14	0.099	0.44680791344496695316
Sum	Diff	1	14	-0.062	0.63362886401533358161
AUC	tAI	2	2	0.198	0.12627209877792772152
AUC	TASEP	2	2	0.076	0.55939476159166723335
AUC	Diff	2	2	0.030	0.81771316622347689496
AUC+	tAI	2	2	0.198	0.12627209877792772152
AUC+	TASEP	2	2	0.076	0.55939476159166723335
AUC+	Diff	2	2	0.030	0.81771316622347689496
AUC-	tAI	2	2	nan	1.00000000000000000000
AUC-	TASEP	2	2	nan	1.00000000000000000000
AUC-	Diff	2	2	nan	1.00000000000000000000
Sum	tAI	2	2	0.198	0.12627209877792772152
Sum	TASEP	2	2	0.076	0.55939476159166723335
Sum	Diff	2	2	0.030	0.81771316622347689496
AUC	tAI	2	3	0.221	0.08655167289809992393
AUC	TASEP	2	3	0.143	0.27275089676893116142
AUC	Diff	2	3	-0.028	0.82971946428317444600
AUC+	tAI	2	3	0.225	0.08134258368512206627
AUC+	TASEP	2	3	0.129	0.32023835082788371098
AUC+	Diff	2	3	-0.012	0.92816285331895909128
AUC-	tAI	2	3	0.167	0.19788157416924401222
AUC-	TASEP	2	3	-0.243	0.05909035080242314858
AUC-	Diff	2	3	0.356	0.00484747875986290405
Sum	tAI	2	3	0.228	0.07704072063028834239
Sum	TASEP	2	3	0.116	0.37162802573792919070
Sum	Diff	2	3	0.004	0.97569276248726144463
AUC	tAI	2	4	0.424	0.00066917796015978400
AUC	TASEP	2	4	0.265	0.03910208806957393007
AUC	Diff	2	4	-0.045	0.73060572186991712407
AUC+	tAI	2	4	0.426	0.00062937776186232082
AUC+	TASEP	2	4	0.256	0.04643904010016913775
AUC+	Diff	2	4	-0.034	0.79263877888004619088
AUC-	tAI	2	4	0.183	0.15892002908145796969
AUC-	TASEP	2	4	-0.053	0.68669889242848802802
AUC-	Diff	2	4	0.160	0.21767740040003313862
Sum	tAI	2	4	0.426	0.00061901946257261287
Sum	TASEP	2	4	0.247	0.05524893880535843710
Sum	Diff	2	4	-0.024	0.85372124053757025841
AUC	tAI	2	5	0.153	0.23870347736527344762
AUC	TASEP	2	5	0.041	0.75274651989966734345
AUC	Diff	2	5	0.042	0.74529132177127888070
AUC+	tAI	2	5	0.162	0.21323444279323200412
AUC+	TASEP	2	5	0.048	0.71339292461176229132
AUC+	Diff	2	5	0.040	0.75988678380947327629
AUC-	tAI	2	5	0.106	0.41609909302090120065
AUC-	TASEP	2	5	0.065	0.61965335688421374627
AUC-	Diff	2	5	-0.010	0.94098411659423120135
Sum	tAI	2	5	0.167	0.19722976090408367300
Sum	TASEP	2	5	0.054	0.68116827365488052948
Sum	Diff	2	5	0.037	0.77666359144636332168
AUC	tAI	2	6	0.016	0.90292689635674905357
AUC	TASEP	2	6	-0.100	0.44187854127781100999
AUC	Diff	2	6	0.117	0.36955820211232404127
AUC+	tAI	2	6	-0.063	0.62935366709238105276
AUC+	TASEP	2	6	-0.141	0.28008032006988614615
AUC+	Diff	2	6	0.115	0.37562858445814251152
AUC-	tAI	2	6	-0.312	0.01426336168032387580
AUC-	TASEP	2	6	-0.176	0.17449001165002628322
AUC-	Diff	2	6	0.013	0.92342288351330614748
Sum	tAI	2	6	-0.129	0.32216998185219669626
Sum	TASEP	2	6	-0.168	0.19457121669653457130
Sum	Diff	2	6	0.108	0.40688597552318983563
AUC	tAI	2	7	-0.001	0.99580165418387056597
AUC	TASEP	2	7	-0.018	0.88760274991777499132
AUC	Diff	2	7	0.019	0.88150923211225917786
AUC+	tAI	2	7	-0.071	0.58712567453826547403
AUC+	TASEP	2	7	-0.050	0.70230459616733398320
AUC+	Diff	2	7	0.014	0.91740180181067110254
AUC-	tAI	2	7	-0.292	0.02233259983744848368
AUC-	TASEP	2	7	-0.137	0.29409123236945527990
AUC-	Diff	2	7	-0.019	0.88675743120541516973
Sum	tAI	2	7	-0.126	0.33395906636090844088
Sum	TASEP	2	7	-0.074	0.57204702142421814948
Sum	Diff	2	7	0.008	0.95064242128048714875
AUC	tAI	2	8	0.098	0.45343066348322080827
AUC	TASEP	2	8	0.058	0.65507700173388139220
AUC	Diff	2	8	-0.007	0.95494866098560360346
AUC+	tAI	2	8	0.024	0.85166634705968857766
AUC+	TASEP	2	8	0.033	0.79781816905831792752
AUC+	Diff	2	8	-0.022	0.86532167177966423655
AUC-	tAI	2	8	-0.287	0.02507486804212081741
AUC-	TASEP	2	8	-0.087	0.50312610591084427902
AUC-	Diff	2	8	-0.068	0.60036101232971250674
Sum	tAI	2	8	-0.036	0.78467469568871572871
Sum	TASEP	2	8	0.012	0.92557964110114143708
Sum	Diff	2	8	-0.033	0.79852330066065912995
AUC	tAI	2	9	0.126	0.33432309488291600541
AUC	TASEP	2	9	0.121	0.35488761988158545879
AUC	Diff	2	9	-0.058	0.65469407116205902142
AUC+	tAI	2	9	0.058	0.65891777953677099777
AUC+	TASEP	2	9	0.093	0.47395239912322184583
AUC+	Diff	2	9	-0.068	0.60351101829977349400
AUC-	tAI	2	9	-0.275	0.03204277738237996248
AUC-	TASEP	2	9	-0.080	0.54046956396464951311
AUC-	Diff	2	9	-0.070	0.59326821220827408165
Sum	tAI	2	9	0.000	0.99696301174576107407
Sum	TASEP	2	9	0.069	0.59923778570017205425
Sum	Diff	2	9	-0.074	0.57329197991158054037
AUC	tAI	2	10	0.140	0.28333123951197530799
AUC	TASEP	2	10	0.135	0.29807040188121397550
AUC	Diff	2	10	-0.067	0.61003086234964798429
AUC+	tAI	2	10	0.070	0.59176228517494100512
AUC+	TASEP	2	10	0.107	0.41352954847323797338
AUC+	Diff	2	10	-0.075	0.56563014261714406050
AUC-	tAI	2	10	-0.275	0.03204277738237996248
AUC-	TASEP	2	10	-0.080	0.54046956396464951311
AUC-	Diff	2	10	-0.070	0.59326821220827408165
Sum	tAI	2	10	0.012	0.92865956524285442342
Sum	TASEP	2	10	0.080	0.53857142420861880971
Sum	Diff	2	10	-0.080	0.54138935819662059590
AUC	tAI	2	11	0.161	0.21443735921702627989
AUC	TASEP	2	11	0.140	0.28336979362759184831
AUC	Diff	2	11	-0.059	0.65261312229603141155
AUC+	tAI	2	11	0.088	0.49913439650851088025
AUC+	TASEP	2	11	0.110	0.40044703635911560458
AUC+	Diff	2	11	-0.068	0.60287762357128660273
AUC-	tAI	2	11	-0.275	0.03204277738237996248
AUC-	TASEP	2	11	-0.080	0.54046956396464951311
AUC-	Diff	2	11	-0.070	0.59326821220827408165
Sum	tAI	2	11	0.027	0.83677799777433614636
Sum	TASEP	2	11	0.082	0.52789349499796900389
Sum	Diff	2	11	-0.073	0.57416244246711856114
AUC	tAI	2	12	0.170	0.18957141861408358108
AUC	TASEP	2	12	0.139	0.28470968121910505966
AUC	Diff	2	12	-0.053	0.68339797730071838444
AUC+	tAI	2	12	0.095	0.46554691530366254515
AUC+	TASEP	2	12	0.109	0.40403375885811443347
AUC+	Diff	2	12	-0.063	0.62908946945808774664
AUC-	tAI	2	12	-0.275	0.03204277738237996248
AUC-	TASEP	2	12	-0.080	0.54046956396464951311
AUC-	Diff	2	12	-0.070	0.59326821220827408165
Sum	tAI	2	12	0.032	0.80492108412623375457
Sum	TASEP	2	12	0.081	0.53366253304290800497
Sum	Diff	2	12	-0.069	0.59666701804404231879
AUC	tAI	2	13	0.191	0.13948813066437451558
AUC	TASEP	2	13	0.152	0.24267106365620305652
AUC	Diff	2	13	-0.055	0.67408973900217139530
AUC+	tAI	2	13	0.115	0.37928555082590587055
AUC+	TASEP	2	13	0.121	0.35491447887535720884
AUC+	Diff	2	13	-0.065	0.62014532363330809872
AUC-	tAI	2	13	-0.275	0.03204277738237996248
AUC-	TASEP	2	13	-0.080	0.54046956396464951311
AUC-	Diff	2	13	-0.070	0.59326821220827408165
Sum	tAI	2	13	0.049	0.70539069377658969451
Sum	TASEP	2	13	0.092	0.48202262183244648508
Sum	Diff	2	13	-0.071	0.58827296757440827868
AUC	tAI	2	14	0.213	0.09895464267163699146
AUC	TASEP	2	14	0.168	0.19559628295068354209
AUC	Diff	2	14	-0.060	0.64632507632012070609
AUC+	tAI	2	14	0.135	0.29917673001932065802
AUC+	TASEP	2	14	0.136	0.29757218598253409869
AUC+	Diff	2	14	-0.069	0.59569890667191272016
AUC-	tAI	2	14	-0.275	0.03204277738237996248
AUC-	TASEP	2	14	-0.080	0.54046956396464951311
AUC-	Diff	2	14	-0.070	0.59326821220827408165
Sum	tAI	2	14	0.068	0.60223600489284612181
Sum	TASEP	2	14	0.105	0.41902767708390431523
Sum	Diff	2	14	-0.075	0.56679062590149387191
AUC	tAI	3	3	0.224	0.08237615624268511405
AUC	TASEP	3	3	0.211	0.10274398904165417401
AUC	Diff	3	3	-0.100	0.44369580397942254280
AUC+	tAI	3	3	0.232	0.07166185928819007733
AUC+	TASEP	3	3	0.181	0.16373436784822473222
AUC+	Diff	3	3	-0.063	0.63130765954504397541
AUC-	tAI	3	3	0.167	0.19788157416924401222
AUC-	TASEP	3	3	-0.243	0.05909035080242314858
AUC-	Diff	3	3	0.356	0.00484747875986290405
Sum	tAI	3	3	0.238	0.06466718857125225428
Sum	TASEP	3	3	0.151	0.24486906623337842404
Sum	Diff	3	3	-0.028	0.83181744712842919931
AUC	tAI	3	4	0.453	0.00024682689547462442
AUC	TASEP	3	4	0.308	0.01560135120028188944
AUC	Diff	3	4	-0.075	0.56473846601675514734
AUC+	tAI	3	4	0.457	0.00021575777371654021
AUC+	TASEP	3	4	0.297	0.02013815592840786581
AUC+	Diff	3	4	-0.061	0.64212461185202363012
AUC-	tAI	3	4	0.183	0.15892002908145796969
AUC-	TASEP	3	4	-0.053	0.68669889242848802802
AUC-	Diff	3	4	0.160	0.21767740040003313862
Sum	tAI	3	4	0.458	0.00020742326600964639
Sum	TASEP	3	4	0.284	0.02630783938245030706
Sum	Diff	3	4	-0.047	0.72111569410070897046
AUC	tAI	3	5	0.112	0.38884946526377595077
AUC	TASEP	3	5	0.022	0.86576232825769794399
AUC	Diff	3	5	0.040	0.76048539339744580801
AUC+	tAI	3	5	0.123	0.34591547562988633757
AUC+	TASEP	3	5	0.031	0.81502782164806475418
AUC+	Diff	3	5	0.037	0.77920877597989623986
AUC-	tAI	3	5	0.106	0.41609909302090120065
AUC-	TASEP	3	5	0.065	0.61965335688421374627
AUC-	Diff	3	5	-0.010	0.94098411659423120135
Sum	tAI	3	5	0.130	0.31784920707969654963
Sum	TASEP	3	5	0.038	0.77316522390541742027
Sum	Diff	3	5	0.033	0.79987661219685790570
AUC	tAI	3	6	-0.032	0.80793066951101932816
AUC	TASEP	3	6	-0.132	0.30885736689537568456
AUC	Diff	3	6	0.124	0.33913531104760252788
AUC+	tAI	3	6	-0.116	0.37167306009185141491
AUC+	TASEP	3	6	-0.173	0.18184264008088227293
AUC+	Diff	3	6	0.120	0.35530240353524622510
AUC-	tAI	3	6	-0.312	0.01426336168032387580
AUC-	TASEP	3	6	-0.176	0.17449001165002628322
AUC-	Diff	3	6	0.013	0.92342288351330614748
Sum	tAI	3	6	-0.180	0.16510230870084272037
Sum	TASEP	3	6	-0.197	0.12821206875571486417
Sum	Diff	3	6	0.110	0.39923026317306875566
AUC	tAI	3	7	-0.034	0.79649460947268702071
AUC	TASEP	3	7	-0.033	0.80298868648002996729
AUC	Diff	3	7	0.016	0.90268523922754828615
AUC+	tAI	3	7	-0.105	0.41986371134316924358
AUC+	TASEP	3	7	-0.064	0.62144330466649277955
AUC+	Diff	3	7	0.010	0.94022054215270400856
AUC-	tAI	3	7	-0.292	0.02233259983744848368
AUC-	TASEP	3	7	-0.137	0.29409123236945527990
AUC-	Diff	3	7	-0.019	0.88675743120541516973
Sum	tAI	3	7	-0.157	0.22545047972292300842
Sum	TASEP	3	7	-0.087	0.50471986068809715498
Sum	Diff	3	7	0.004	0.97294732912775139244
AUC	tAI	3	8	0.078	0.55021822068505576997
AUC	TASEP	3	8	0.052	0.69118250653946322615
AUC	Diff	3	8	-0.012	0.92896140233159196775
AUC+	tAI	3	8	0.003	0.98342813605949008782
AUC+	TASEP	3	8	0.026	0.84136976827516862798
AUC+	Diff	3	8	-0.027	0.83872583505434283868
AUC-	tAI	3	8	-0.287	0.02507486804212081741
AUC-	TASEP	3	8	-0.087	0.50312610591084427902
AUC-	Diff	3	8	-0.068	0.60036101232971250674
Sum	tAI	3	8	-0.057	0.66354938416664954737
Sum	TASEP	3	8	0.005	0.97009456377924596637
Sum	Diff	3	8	-0.037	0.77439585313022940571
AUC	tAI	3	9	0.109	0.40481979529687261987
AUC	TASEP	3	9	0.117	0.37066779412730077592
AUC	Diff	3	9	-0.064	0.62432124979073322368
AUC+	tAI	3	9	0.040	0.76232893791154476837
AUC+	TASEP	3	9	0.088	0.49768243502580911120
AUC+	Diff	3	9	-0.073	0.57715650926499084683
AUC-	tAI	3	9	-0.275	0.03204277738237996248
AUC-	TASEP	3	9	-0.080	0.54046956396464951311
AUC-	Diff	3	9	-0.070	0.59326821220827408165
Sum	tAI	3	9	-0.017	0.89623903833559748211
Sum	TASEP	3	9	0.063	0.62788566980347315649
Sum	Diff	3	9	-0.078	0.55142059054862779810
AUC	tAI	3	10	0.122	0.34916980930195484767
AUC	TASEP	3	10	0.131	0.31423319191066773071
AUC	Diff	3	10	-0.072	0.58212198548690929911
AUC+	tAI	3	10	0.052	0.69089658144021903752
AUC+	TASEP	3	10	0.101	0.43696326485009628904
AUC+	Diff	3	10	-0.080	0.54192844002750506505
AUC-	tAI	3	10	-0.275	0.03204277738237996248
AUC-	TASEP	3	10	-0.080	0.54046956396464951311
AUC-	Diff	3	10	-0.070	0.59326821220827408165
Sum	tAI	3	10	-0.005	0.96662600633060924427
Sum	TASEP	3	10	0.075	0.56657959116171197067
Sum	Diff	3	10	-0.084	0.52189492724852626360
AUC	tAI	3	11	0.144	0.26927716737030693572
AUC	TASEP	3	11	0.135	0.29955278316683431328
AUC	Diff	3	11	-0.064	0.62497949788008055894
AUC+	tAI	3	11	0.070	0.59129647688549580309
AUC+	TASEP	3	11	0.104	0.42412691313758332790
AUC+	Diff	3	11	-0.072	0.57931055883143167673
AUC-	tAI	3	11	-0.275	0.03204277738237996248
AUC-	TASEP	3	11	-0.080	0.54046956396464951311
AUC-	Diff	3	11	-0.070	0.59326821220827408165
Sum	tAI	3	11	0.010	0.94054608751364476849
Sum	TASEP	3	11	0.077	0.55624856229600583291
Sum	Diff	3	11	-0.077	0.55474985241519580992
AUC	tAI	3	12	0.153	0.23979641028679085646
AUC	TASEP	3	12	0.135	0.30083792576819246012
AUC	Diff	3	12	-0.058	0.65534887596215796179
AUC+	tAI	3	12	0.077	0.55515257645361026917
AUC+	TASEP	3	12	0.103	0.42799580375640311480
AUC+	Diff	3	12	-0.068	0.60501664415813638520
AUC-	tAI	3	12	-0.275	0.03204277738237996248
AUC-	TASEP	3	12	-0.080	0.54046956396464951311
AUC-	Diff	3	12	-0.070	0.59326821220827408165
Sum	tAI	3	12	0.015	0.90890418356294788715
Sum	TASEP	3	12	0.076	0.56246774733850868344
Sum	Diff	3	12	-0.073	0.57680413284880160951
AUC	tAI	3	13	0.175	0.17751214788489472207
AUC	TASEP	3	13	0.148	0.25491494984120749434
AUC	Diff	3	13	-0.060	0.64520543319308565344
AUC+	tAI	3	13	0.097	0.45723939932048229817
AUC+	TASEP	3	13	0.116	0.37525036178409487686
AUC+	Diff	3	13	-0.069	0.59531436624593836449
AUC-	tAI	3	13	-0.275	0.03204277738237996248
AUC-	TASEP	3	13	-0.080	0.54046956396464951311
AUC-	Diff	3	13	-0.070	0.59326821220827408165
Sum	tAI	3	13	0.032	0.80472658955970910455
Sum	TASEP	3	13	0.086	0.50813044774446103347
Sum	Diff	3	13	-0.075	0.56779596015784816743
AUC	tAI	3	14	0.198	0.12607049288277480392
AUC	TASEP	3	14	0.165	0.20362512781106129056
AUC	Diff	3	14	-0.065	0.61654457302717680101
AUC+	tAI	3	14	0.118	0.36379831686178187855
AUC+	TASEP	3	14	0.131	0.31346825003370448748
AUC+	Diff	3	14	-0.074	0.57019567418203631615
AUC-	tAI	3	14	-0.275	0.03204277738237996248
AUC-	TASEP	3	14	-0.080	0.54046956396464951311
AUC-	Diff	3	14	-0.070	0.59326821220827408165
Sum	tAI	3	14	0.051	0.69380074252845203020
Sum	TASEP	3	14	0.100	0.44142892104359077177
Sum	Diff	3	14	-0.079	0.54581790770456317663
AUC	tAI	4	4	0.479	0.00009477268979500422
AUC	TASEP	4	4	0.294	0.02129140592860015446
AUC	Diff	4	4	-0.045	0.72810320334340694615
AUC+	tAI	4	4	0.483	0.00007913989670061684
AUC+	TASEP	4	4	0.298	0.01971842012151150958
AUC+	Diff	4	4	-0.047	0.72144828143462413905
AUC-	tAI	4	4	0.155	0.23233034771576430155
AUC-	TASEP	4	4	0.105	0.41989131462085682589
AUC-	Diff	4	4	-0.025	0.84705876789608858246
Sum	tAI	4	4	0.486	0.00007204873921445087
Sum	TASEP	4	4	0.300	0.01882211403624740875
Sum	Diff	4	4	-0.048	0.71617362279958396432
AUC	tAI	4	5	0.054	0.67838473654401787449
AUC	TASEP	4	5	-0.037	0.77489783509103327130
AUC	Diff	4	5	0.071	0.58720056950318222366
AUC+	tAI	4	5	0.063	0.62850933000419650920
AUC+	TASEP	4	5	-0.019	0.88445211071725260421
AUC+	Diff	4	5	0.056	0.66688519927022160694
AUC-	tAI	4	5	0.079	0.54492493963080046449
AUC-	TASEP	4	5	0.110	0.39689077560775598563
AUC-	Diff	4	5	-0.074	0.57076007890004543111
Sum	tAI	4	5	0.070	0.59138320169150127015
Sum	TASEP	4	5	-0.002	0.98556152860282530970
Sum	Diff	4	5	0.042	0.74646229513934625466
AUC	tAI	4	6	-0.077	0.55495035523623714724
AUC	TASEP	4	6	-0.177	0.17162736891956081875
AUC	Diff	4	6	0.147	0.25803521068802531824
AUC+	tAI	4	6	-0.162	0.21335952699708016223
AUC+	TASEP	4	6	-0.209	0.10596503155905119542
AUC+	Diff	4	6	0.133	0.30580248561481498948
AUC-	tAI	4	6	-0.323	0.01111836497398355564
AUC-	TASEP	4	6	-0.160	0.21711942128729863621
AUC-	Diff	4	6	-0.010	0.93599280928402905921
Sum	tAI	4	6	-0.221	0.08690074324984134457
Sum	TASEP	4	6	-0.223	0.08442685952756374956
Sum	Diff	4	6	0.114	0.37995028435763378294
AUC	tAI	4	7	-0.064	0.62400530270412968292
AUC	TASEP	4	7	-0.061	0.63968656674549917440
AUC	Diff	4	7	0.030	0.82136963206680868588
AUC+	tAI	4	7	-0.135	0.29839136043769948214
AUC+	TASEP	4	7	-0.088	0.50156962805290605800
AUC+	Diff	4	7	0.018	0.89245002866246736506
AUC-	tAI	4	7	-0.299	0.01917337397414863379
AUC-	TASEP	4	7	-0.125	0.33587830303939014698
AUC-	Diff	4	7	-0.035	0.79094753142469809148
Sum	tAI	4	7	-0.185	0.15269293066034647643
Sum	TASEP	4	7	-0.105	0.42223181539506771109
Sum	Diff	4	7	0.008	0.95379792231803872671
AUC	tAI	4	8	0.057	0.66027407891026768105
AUC	TASEP	4	8	0.032	0.80703556839850631999
AUC	Diff	4	8	-0.002	0.98889603246761648148
AUC+	tAI	4	8	-0.019	0.88362667690537677334
AUC+	TASEP	4	8	0.010	0.94088090655106315641
AUC+	Diff	4	8	-0.021	0.87076011833138944329
AUC-	tAI	4	8	-0.292	0.02219227288442366178
AUC-	TASEP	4	8	-0.078	0.54907070920049116936
AUC-	Diff	4	8	-0.082	0.53230146315447390837
Sum	tAI	4	8	-0.078	0.54973274857278353611
Sum	TASEP	4	8	-0.008	0.95136244385995172301
Sum	Diff	4	8	-0.036	0.78503341857042341356
AUC	tAI	4	9	0.092	0.48173226200655105966
AUC	TASEP	4	9	0.101	0.43764382949562863345
AUC	Diff	4	9	-0.057	0.66320946629069688072
AUC+	tAI	4	9	0.021	0.87052099283452055722
AUC+	TASEP	4	9	0.075	0.56314570843431321912
AUC+	Diff	4	9	-0.069	0.59655094805226527299
AUC-	tAI	4	9	-0.280	0.02864957249240734916
AUC-	TASEP	4	9	-0.071	0.58591994231540533988
AUC-	Diff	4	9	-0.082	0.52847814323506403511
Sum	tAI	4	9	-0.035	0.78772763433222270368
Sum	TASEP	4	9	0.053	0.68585065597561256645
Sum	Diff	4	9	-0.077	0.55643879065589207933
AUC	tAI	4	10	0.105	0.42068865937022448254
AUC	TASEP	4	10	0.115	0.37589433498258684185
AUC	Diff	4	10	-0.065	0.62059663144505239352
AUC+	tAI	4	10	0.034	0.79474355947179653459
AUC+	TASEP	4	10	0.088	0.49860374384395689251
AUC+	Diff	4	10	-0.076	0.56191474337881597290
AUC-	tAI	4	10	-0.280	0.02864957249240734916
AUC-	TASEP	4	10	-0.071	0.58591994231540533988
AUC-	Diff	4	10	-0.082	0.52847814323506403511
Sum	tAI	4	10	-0.023	0.85950141953027214825
Sum	TASEP	4	10	0.064	0.62210154447372201236
Sum	Diff	4	10	-0.082	0.52807474703524537318
AUC	tAI	4	11	0.127	0.33089892635545892219
AUC	TASEP	4	11	0.119	0.36124533081059484463
AUC	Diff	4	11	-0.056	0.66687982877177964802
AUC+	tAI	4	11	0.052	0.69026205784170646673
AUC+	TASEP	4	11	0.091	0.48626864695027516294
AUC+	Diff	4	11	-0.068	0.60135880003843034114
AUC-	tAI	4	11	-0.280	0.02864957249240734916
AUC-	TASEP	4	11	-0.071	0.58591994231540533988
AUC-	Diff	4	11	-0.082	0.52847814323506403511
Sum	tAI	4	11	-0.008	0.95133906371072385344
Sum	TASEP	4	11	0.066	0.61234571427799333598
Sum	Diff	4	11	-0.076	0.56199538229903989173
AUC	tAI	4	12	0.136	0.29770985713333980582
AUC	TASEP	4	12	0.118	0.36410016404273592983
AUC	Diff	4	12	-0.050	0.69951888101282455601
AUC+	tAI	4	12	0.059	0.65286113572784598702
AUC+	TASEP	4	12	0.090	0.49169426019042949960
AUC+	Diff	4	12	-0.063	0.62831383122541795139
AUC-	tAI	4	12	-0.280	0.02864957249240734916
AUC-	TASEP	4	12	-0.071	0.58591994231540533988
AUC-	Diff	4	12	-0.082	0.52847814323506403511
Sum	tAI	4	12	-0.003	0.98186973351647488517
Sum	TASEP	4	12	0.065	0.61979116472917117342
Sum	Diff	4	12	-0.071	0.58458070421687213791
AUC	tAI	4	13	0.158	0.22329216417833083752
AUC	TASEP	4	13	0.132	0.31067805645175156082
AUC	Diff	4	13	-0.052	0.68872412470016208808
AUC+	tAI	4	13	0.079	0.54532149130574525397
AUC+	TASEP	4	13	0.102	0.43364120706948561246
AUC+	Diff	4	13	-0.065	0.61810644151358062892
AUC-	tAI	4	13	-0.280	0.02864957249240734916
AUC-	TASEP	4	13	-0.071	0.58591994231540533988
AUC-	Diff	4	13	-0.082	0.52847814323506403511
Sum	tAI	4	13	0.014	0.91196303690895785810
Sum	TASEP	4	13	0.076	0.56236775294072405273
Sum	Diff	4	13	-0.073	0.57519842815842825434
AUC	tAI	4	14	0.182	0.16004579393880560834
AUC	TASEP	4	14	0.150	0.24960282477743603313
AUC	Diff	4	14	-0.058	0.65795579192676356683
AUC+	tAI	4	14	0.101	0.43947525463334835560
AUC+	TASEP	4	14	0.118	0.36420676533409779285
AUC+	Diff	4	14	-0.070	0.59160104732344609424
AUC-	tAI	4	14	-0.280	0.02864957249240734916
AUC-	TASEP	4	14	-0.071	0.58591994231540533988
AUC-	Diff	4	14	-0.082	0.52847814323506403511
Sum	tAI	4	14	0.034	0.79566470741720429771
Sum	TASEP	4	14	0.090	0.49067571732437387233
Sum	Diff	4	14	-0.078	0.55240963911869933600
AUC	tAI	5	5	-0.209	0.10530036007700450951
AUC	TASEP	5	5	-0.203	0.11693316864792979715
AUC	Diff	5	5	0.100	0.44514143149759788365
AUC+	tAI	5	5	-0.193	0.13586909927200688242
AUC+	TASEP	5	5	-0.180	0.16487224292393068414
AUC+	Diff	5	5	0.084	0.51818739781153289048
AUC-	tAI	5	5	0.044	0.73880973501820212945
AUC-	TASEP	5	5	0.087	0.50253821341082927088
AUC-	Diff	5	5	-0.069	0.59490917288171640820
Sum	tAI	5	5	-0.175	0.17772470957039690487
Sum	TASEP	5	5	-0.156	0.22914138879606643640
Sum	Diff	5	5	0.069	0.59698472503075583617
AUC	tAI	5	6	-0.230	0.07495829685151132737
AUC	TASEP	5	6	-0.259	0.04350737665771762380
AUC	Diff	5	6	0.149	0.25196948532733032255
AUC+	tAI	5	6	-0.294	0.02123753644999249943
AUC+	TASEP	5	6	-0.280	0.02898436511155143974
AUC+	Diff	5	6	0.134	0.30267132961552584147
AUC-	tAI	5	6	-0.336	0.00820826725318892642
AUC-	TASEP	5	6	-0.169	0.19318968866867383682
AUC-	Diff	5	6	-0.008	0.94898564915863914404
Sum	tAI	5	6	-0.334	0.00860399225518784089
Sum	TASEP	5	6	-0.284	0.02667792990143899243
Sum	Diff	5	6	0.116	0.37216686495993700490
AUC	tAI	5	7	-0.170	0.19115523462027841917
AUC	TASEP	5	7	-0.125	0.33786843149534129260
AUC	Diff	5	7	0.038	0.77031156527201405382
AUC+	tAI	5	7	-0.228	0.07734210429780918883
AUC+	TASEP	5	7	-0.144	0.26668563256689670204
AUC+	Diff	5	7	0.026	0.84047610292933405685
AUC-	tAI	5	7	-0.308	0.01589375580134194665
AUC-	TASEP	5	7	-0.131	0.31354257948287578284
AUC-	Diff	5	7	-0.033	0.80010772280612962870
Sum	tAI	5	7	-0.265	0.03906982545033137882
Sum	TASEP	5	7	-0.154	0.23498407079964017674
Sum	Diff	5	7	0.016	0.90286619675519941275
AUC	tAI	5	8	-0.032	0.80525355430974210336
AUC	TASEP	5	8	-0.023	0.85932899558193287515
AUC	Diff	5	8	0.007	0.95932466912975655760
AUC+	tAI	5	8	-0.100	0.44178637549861810019
AUC+	TASEP	5	8	-0.041	0.75656086653899889960
AUC+	Diff	5	8	-0.013	0.91934826861321994329
AUC-	tAI	5	8	-0.300	0.01899236058490896828
AUC-	TASEP	5	8	-0.083	0.52385569365673845255
AUC-	Diff	5	8	-0.080	0.53889750403381397881
Sum	tAI	5	8	-0.150	0.25000392283665567872
Sum	TASEP	5	8	-0.053	0.68759090363178154703
Sum	Diff	5	8	-0.028	0.82923731335689954136
AUC	tAI	5	9	0.014	0.91187371161097285910
AUC	TASEP	5	9	0.054	0.67861557401264704925
AUC	Diff	5	9	-0.050	0.70176322943815683253
AUC+	tAI	5	9	-0.050	0.70122579702647624966
AUC+	TASEP	5	9	0.032	0.80812637097886352855
AUC+	Diff	5	9	-0.063	0.63207712673886418120
AUC-	tAI	5	9	-0.287	0.02484420438957448199
AUC-	TASEP	5	9	-0.076	0.56102420206009251391
AUC-	Diff	5	9	-0.081	0.53483313196230963804
Sum	tAI	5	9	-0.099	0.44592835506132599832
Sum	TASEP	5	9	0.013	0.91935555336894991818
Sum	Diff	5	9	-0.071	0.58903079576004346851
AUC	tAI	5	10	0.029	0.82491383532881079610
AUC	TASEP	5	10	0.069	0.59664709675857974247
AUC	Diff	5	10	-0.058	0.65726430872325258825
AUC+	tAI	5	10	-0.036	0.78168285791409697350
AUC+	TASEP	5	10	0.045	0.72882021929520490744
AUC+	Diff	5	10	-0.069	0.59590489813092362148
AUC-	tAI	5	10	-0.287	0.02484420438957448199
AUC-	TASEP	5	10	-0.076	0.56102420206009251391
AUC-	Diff	5	10	-0.081	0.53483313196230963804
Sum	tAI	5	10	-0.086	0.50840002703693554231
Sum	TASEP	5	10	0.025	0.84599268019116491413
Sum	Diff	5	10	-0.076	0.55946268422545175625
AUC	tAI	5	11	0.049	0.70583940430212943618
AUC	TASEP	5	11	0.072	0.58213853650978031329
AUC	Diff	5	11	-0.049	0.70564495659632631153
AUC+	tAI	5	11	-0.019	0.88359501577937848982
AUC+	TASEP	5	11	0.047	0.71778379375684631114
AUC+	Diff	5	11	-0.062	0.63697502411236528452
AUC-	tAI	5	11	-0.287	0.02484420438957448199
AUC-	TASEP	5	11	-0.076	0.56102420206009251391
AUC-	Diff	5	11	-0.081	0.53483313196230963804
Sum	tAI	5	11	-0.072	0.58205946531122321197
Sum	TASEP	5	11	0.027	0.83779664742117188059
Sum	Diff	5	11	-0.069	0.59462109667957419035
AUC	tAI	5	12	0.057	0.66383296726505891527
AUC	TASEP	5	12	0.070	0.59113438156937503365
AUC	Diff	5	12	-0.043	0.74040881476019104745
AUC+	tAI	5	12	-0.014	0.91731380388369843093
AUC+	TASEP	5	12	0.045	0.72869548549744567190
AUC+	Diff	5	12	-0.056	0.66569181580920511188
AUC-	tAI	5	12	-0.287	0.02484420438957448199
AUC-	TASEP	5	12	-0.076	0.56102420206009251391
AUC-	Diff	5	12	-0.081	0.53483313196230963804
Sum	tAI	5	12	-0.068	0.60437134645462831095
Sum	TASEP	5	12	0.025	0.84943895386182699525
Sum	Diff	5	12	-0.065	0.61859978002399440555
AUC	tAI	5	13	0.079	0.54258198196974105620
AUC	TASEP	5	13	0.084	0.52029165298228496894
AUC	Diff	5	13	-0.045	0.72922415100542803401
AUC+	tAI	5	13	0.006	0.96145810555459265689
AUC+	TASEP	5	13	0.058	0.65947586244969724767
AUC+	Diff	5	13	-0.058	0.65516173457683923864
AUC-	tAI	5	13	-0.287	0.02484420438957448199
AUC-	TASEP	5	13	-0.076	0.56102420206009251391
AUC-	Diff	5	13	-0.081	0.53483313196230963804
Sum	tAI	5	13	-0.051	0.69822785006226606441
Sum	TASEP	5	13	0.035	0.78632094418470388497
Sum	Diff	5	13	-0.067	0.60896183223417699182
AUC	tAI	5	14	0.104	0.42409795019202001232
AUC	TASEP	5	14	0.102	0.43314264175986305627
AUC	Diff	5	14	-0.051	0.69678002929940952015
AUC+	tAI	5	14	0.029	0.82712840930626185809
AUC+	TASEP	5	14	0.074	0.57086910383856670492
AUC+	Diff	5	14	-0.063	0.62721613410054133375
AUC-	tAI	5	14	-0.287	0.02484420438957448199
AUC-	TASEP	5	14	-0.076	0.56102420206009251391
AUC-	Diff	5	14	-0.081	0.53483313196230963804
Sum	tAI	5	14	-0.031	0.81140751925028098412
Sum	TASEP	5	14	0.050	0.70272342765919360019
Sum	Diff	5	14	-0.071	0.58500236462497401391
AUC	tAI	6	6	-0.158	0.22469407926219864269
AUC	TASEP	6	6	-0.209	0.10649579853305518595
AUC	Diff	6	6	0.135	0.29903102471700354625
AUC+	tAI	6	6	-0.275	0.03221847957371800492
AUC+	TASEP	6	6	-0.264	0.03994452129618505931
AUC+	Diff	6	6	0.128	0.32467215058822074258
AUC-	tAI	6	6	-0.398	0.00151128546873921629
AUC-	TASEP	6	6	-0.226	0.07946636811774034082
AUC-	Diff	6	6	0.018	0.88889601053261579899
Sum	tAI	6	6	-0.343	0.00676793793432082635
Sum	TASEP	6	6	-0.286	0.02539066159128918615
Sum	Diff	6	6	0.113	0.38435292337325011047
AUC	tAI	6	7	-0.102	0.43383357377025633106
AUC	TASEP	6	7	-0.051	0.69854245126669944899
AUC	Diff	6	7	-0.003	0.97940715646984466414
AUC+	tAI	6	7	-0.186	0.15113822254625838837
AUC+	TASEP	6	7	-0.091	0.48685837363187267623
AUC+	Diff	6	7	-0.008	0.95248034560382066616
AUC-	tAI	6	7	-0.342	0.00692941577217887853
AUC-	TASEP	6	7	-0.164	0.20606279325086659937
AUC-	Diff	6	7	-0.017	0.89495040159826699799
Sum	tAI	6	7	-0.242	0.06054412772136789911
Sum	TASEP	6	7	-0.117	0.36826500533178296859
Sum	Diff	6	7	-0.011	0.93404766611496015116
AUC	tAI	6	8	0.043	0.74222740799614306262
AUC	TASEP	6	8	0.051	0.69788077003052728653
AUC	Diff	6	8	-0.030	0.81720978753923201321
AUC+	tAI	6	8	-0.045	0.72988543341091027816
AUC+	TASEP	6	8	0.018	0.89054091601010043622
AUC+	Diff	6	8	-0.045	0.73109539583158511533
AUC-	tAI	6	8	-0.326	0.01035344054512458978
AUC-	TASEP	6	8	-0.107	0.41342114798551443666
AUC-	Diff	6	8	-0.070	0.59219917052874437857
Sum	tAI	6	8	-0.111	0.39268106689211912386
Sum	TASEP	6	8	-0.008	0.95073889172768111244
Sum	Diff	6	8	-0.054	0.67704485448498485933
AUC	tAI	6	9	0.084	0.51989255742585083198
AUC	TASEP	6	9	0.126	0.33449000682476814905
AUC	Diff	6	9	-0.088	0.50191925114255997453
AUC+	tAI	6	9	0.003	0.97932595128607902168
AUC+	TASEP	6	9	0.090	0.48905169929303538012
AUC+	Diff	6	9	-0.095	0.46561146474185610700
AUC-	tAI	6	9	-0.311	0.01466690324999207241
AUC-	TASEP	6	9	-0.098	0.45383489543820698664
AUC-	Diff	6	9	-0.071	0.58593291989924090046
Sum	tAI	6	9	-0.060	0.64483180402080941818
Sum	TASEP	6	9	0.059	0.64977781994181105230
Sum	Diff	6	9	-0.098	0.45285237351655671656
AUC	tAI	6	10	0.098	0.45332691028248905951
AUC	TASEP	6	10	0.140	0.28317988896233609042
AUC	Diff	6	10	-0.095	0.46742378850940236035
AUC+	tAI	6	10	0.018	0.89251662147573174177
AUC+	TASEP	6	10	0.103	0.42834705524596339288
AUC+	Diff	6	10	-0.101	0.43825308745023949797
AUC-	tAI	6	10	-0.311	0.01466690324999207241
AUC-	TASEP	6	10	-0.098	0.45383489543820698664
AUC-	Diff	6	10	-0.071	0.58593291989924090046
Sum	tAI	6	10	-0.046	0.72453165417322673569
Sum	TASEP	6	10	0.071	0.58466169458084493726
Sum	Diff	6	10	-0.103	0.43022531528240137710
AUC	tAI	6	11	0.121	0.35185233585708908244
AUC	TASEP	6	11	0.144	0.26908756191213811793
AUC	Diff	6	11	-0.086	0.51024315533804975864
AUC+	tAI	6	11	0.037	0.77553726139045786603
AUC+	TASEP	6	11	0.106	0.41557216552192544068
AUC+	Diff	6	11	-0.093	0.47561945022371920899
AUC-	tAI	6	11	-0.311	0.01466690324999207241
AUC-	TASEP	6	11	-0.098	0.45383489543820698664
AUC-	Diff	6	11	-0.071	0.58593291989924090046
Sum	tAI	6	11	-0.030	0.82066624870233573219
Sum	TASEP	6	11	0.073	0.57430197232958823950
Sum	Diff	6	11	-0.096	0.46326327530568378599
AUC	tAI	6	12	0.130	0.31619779523964658408
AUC	TASEP	6	12	0.143	0.27190059712339165188
AUC	Diff	6	12	-0.080	0.54089439212889889319
AUC+	tAI	6	12	0.044	0.73495758250439457981
AUC+	TASEP	6	12	0.105	0.42136379034889615003
AUC+	Diff	6	12	-0.088	0.50147969315604801199
AUC-	tAI	6	12	-0.311	0.01466690324999207241
AUC-	TASEP	6	12	-0.098	0.45383489543820698664
AUC-	Diff	6	12	-0.071	0.58593291989924090046
Sum	tAI	6	12	-0.024	0.85199224914973803457
Sum	TASEP	6	12	0.072	0.58267778207910492227
Sum	Diff	6	12	-0.091	0.48554248569288571691
AUC	tAI	6	13	0.155	0.23244039332007376819
AUC	TASEP	6	13	0.158	0.22445058028723102739
AUC	Diff	6	13	-0.082	0.53045210757385607980
AUC+	tAI	6	13	0.066	0.61161448858101519210
AUC+	TASEP	6	13	0.118	0.36335581381051618166
AUC+	Diff	6	13	-0.090	0.49117519961784106286
AUC-	tAI	6	13	-0.311	0.01466690324999207241
AUC-	TASEP	6	13	-0.098	0.45383489543820698664
AUC-	Diff	6	13	-0.071	0.58593291989924090046
Sum	tAI	6	13	-0.005	0.96698373111606317210
Sum	TASEP	6	13	0.084	0.52166503350645698767
Sum	Diff	6	13	-0.093	0.47580682153554199054
AUC	tAI	6	14	0.181	0.16242297279607426086
AUC	TASEP	6	14	0.177	0.17284464954830786043
AUC	Diff	6	14	-0.088	0.50203282785628744467
AUC+	tAI	6	14	0.090	0.48889001730617109853
AUC+	TASEP	6	14	0.136	0.29621279814997863999
AUC+	Diff	6	14	-0.095	0.46607741719096307254
AUC-	tAI	6	14	-0.311	0.01466690324999207241
AUC-	TASEP	6	14	-0.098	0.45383489543820698664
AUC-	Diff	6	14	-0.071	0.58593291989924090046
Sum	tAI	6	14	0.016	0.90335064695889699671
Sum	TASEP	6	14	0.099	0.44673711350223999084
Sum	Diff	6	14	-0.098	0.45358514907565761209
AUC	tAI	7	7	-0.023	0.85942393560358198989
AUC	TASEP	7	7	0.101	0.44000698591614861854
AUC	Diff	7	7	-0.121	0.35119730034457163903
AUC+	tAI	7	7	-0.057	0.66368804725280683421
AUC+	TASEP	7	7	0.087	0.50503193985280137035
AUC+	Diff	7	7	-0.126	0.33423540553052277779
AUC-	tAI	7	7	-0.139	0.28621368875565933454
AUC-	TASEP	7	7	-0.026	0.84516413634399245591
AUC-	Diff	7	7	-0.051	0.69553642448733477011
Sum	tAI	7	7	-0.082	0.53078450797032039610
Sum	TASEP	7	7	0.071	0.58404698944018285101
Sum	Diff	7	7	-0.123	0.34403749203296041248
AUC	tAI	7	8	0.137	0.29289060026604324394
AUC	TASEP	7	8	0.173	0.18153455567756390798
AUC	Diff	7	8	-0.109	0.40326772483686101900
AUC+	tAI	7	8	0.087	0.50429113391842561587
AUC+	TASEP	7	8	0.162	0.21196584203530802193
AUC+	Diff	7	8	-0.125	0.33704862879797414799
AUC-	tAI	7	8	-0.157	0.22772919500829691408
AUC-	TASEP	7	8	0.020	0.87902288653926130557
AUC-	Diff	7	8	-0.110	0.39795110292227575677
Sum	tAI	7	8	0.044	0.73596441291538061691
Sum	TASEP	7	8	0.147	0.25826784770483884879
Sum	Diff	7	8	-0.133	0.30626154348429268648
AUC	tAI	7	9	0.162	0.21147723873451468313
AUC	TASEP	7	9	0.232	0.07258775518181663500
AUC	Diff	7	9	-0.157	0.22648923607946874759
AUC+	tAI	7	9	0.119	0.36203272874158243244
AUC+	TASEP	7	9	0.216	0.09393422740963872086
AUC+	Diff	7	9	-0.166	0.20241172700941065243
AUC-	tAI	7	9	-0.145	0.26545348010663549765
AUC-	TASEP	7	9	0.024	0.85705490231306935556
AUC-	Diff	7	9	-0.107	0.41020067204001575689
Sum	tAI	7	9	0.080	0.54075723456352797758
Sum	TASEP	7	9	0.198	0.12613337566223142838
Sum	Diff	7	9	-0.168	0.19627698187397771279
AUC	tAI	7	10	0.176	0.17552793732782995262
AUC	TASEP	7	10	0.244	0.05781531834321625846
AUC	Diff	7	10	-0.163	0.20883166739643529985
AUC+	tAI	7	10	0.132	0.31152979739670738635
AUC+	TASEP	7	10	0.228	0.07784376049489470650
AUC+	Diff	7	10	-0.170	0.18996212776400009381
AUC-	tAI	7	10	-0.145	0.26545348010663549765
AUC-	TASEP	7	10	0.024	0.85705490231306935556
AUC-	Diff	7	10	-0.107	0.41020067204001575689
Sum	tAI	7	10	0.092	0.47871605399377292756
Sum	TASEP	7	10	0.208	0.10767528849868020224
Sum	Diff	7	10	-0.171	0.18652510965045437930
AUC	tAI	7	11	0.204	0.11567469858319542886
AUC	TASEP	7	11	0.250	0.05191438265204510738
AUC	Diff	7	11	-0.154	0.23683808791389734938
AUC+	tAI	7	11	0.156	0.22974401577924188911
AUC+	TASEP	7	11	0.232	0.07190216503255775216
AUC+	Diff	7	11	-0.161	0.21443272234062166204
AUC-	tAI	7	11	-0.145	0.26545348010663549765
AUC-	TASEP	7	11	0.024	0.85705490231306935556
AUC-	Diff	7	11	-0.107	0.41020067204001575689
Sum	tAI	7	11	0.114	0.38374070003960414343
Sum	TASEP	7	11	0.211	0.10179550840060905270
Sum	Diff	7	11	-0.163	0.20884178873963341050
AUC	tAI	7	12	0.217	0.09327169446230992866
AUC	TASEP	7	12	0.252	0.04965283168990807655
AUC	Diff	7	12	-0.149	0.25252936035445971985
AUC+	tAI	7	12	0.167	0.19824059225109050275
AUC+	TASEP	7	12	0.234	0.06978863469508789219
AUC+	Diff	7	12	-0.157	0.22732584576211245508
AUC-	tAI	7	12	-0.145	0.26545348010663549765
AUC-	TASEP	7	12	0.024	0.85705490231306935556
AUC-	Diff	7	12	-0.107	0.41020067204001575689
Sum	tAI	7	12	0.122	0.34747644591322202068
Sum	TASEP	7	12	0.212	0.10020812469859498306
Sum	Diff	7	12	-0.159	0.22030978341553378308
AUC	tAI	7	13	0.246	0.05641450050036313918
AUC	TASEP	7	13	0.270	0.03535274379413413937
AUC	Diff	7	13	-0.151	0.24440439567328672843
AUC+	tAI	7	13	0.193	0.13533040831122242209
AUC+	TASEP	7	13	0.250	0.05188372506519176725
AUC+	Diff	7	13	-0.160	0.21949824118781499638
AUC-	tAI	7	13	-0.145	0.26545348010663549765
AUC-	TASEP	7	13	0.024	0.85705490231306935556
AUC-	Diff	7	13	-0.107	0.41020067204001575689
Sum	tAI	7	13	0.146	0.26194262447218130685
Sum	TASEP	7	13	0.227	0.07821567636108775479
Sum	Diff	7	13	-0.162	0.21284497452506945248
AUC	tAI	7	14	0.274	0.03282519484019556788
AUC	TASEP	7	14	0.290	0.02350626628269322435
AUC	Diff	7	14	-0.157	0.22789325870655635642
AUC+	tAI	7	14	0.220	0.08848499175516001680
AUC+	TASEP	7	14	0.269	0.03615696030541337008
AUC+	Diff	7	14	-0.165	0.20489854919193090099
AUC-	tAI	7	14	-0.145	0.26545348010663549765
AUC-	TASEP	7	14	0.024	0.85705490231306935556
AUC-	Diff	7	14	-0.107	0.41020067204001575689
Sum	tAI	7	14	0.170	0.18953313079613429148
Sum	TASEP	7	14	0.245	0.05750756435688740564
Sum	Diff	7	14	-0.167	0.19936399975904267601
AUC	tAI	8	8	0.283	0.02724918288001004774
AUC	TASEP	8	8	0.209	0.10524257086200596023
AUC	Diff	8	8	-0.065	0.61796589451325600884
AUC+	tAI	8	8	0.230	0.07476286169649262736
AUC+	TASEP	8	8	0.209	0.10578840784731756430
AUC+	Diff	8	8	-0.095	0.46757824944804171619
AUC-	tAI	8	8	-0.140	0.28087740760584678501
AUC-	TASEP	8	8	0.075	0.56475550083481329544
AUC-	Diff	8	8	-0.160	0.21710386070149870208
Sum	tAI	8	8	0.179	0.16853317998657310617
Sum	TASEP	8	8	0.202	0.11867821092889138668
Sum	Diff	8	8	-0.116	0.37320510069833312539
AUC	tAI	8	9	0.256	0.04682830668090537385
AUC	TASEP	8	9	0.270	0.03544897215384930356
AUC	Diff	8	9	-0.146	0.26313627636875597249
AUC+	tAI	8	9	0.219	0.08990171457958395784
AUC+	TASEP	8	9	0.263	0.04018559677426819521
AUC+	Diff	8	9	-0.159	0.21985034890229740445
AUC-	tAI	8	9	-0.117	0.36797230314159656839
AUC-	TASEP	8	9	0.072	0.58120271740230844415
AUC-	Diff	8	9	-0.144	0.26848880982970413367
Sum	tAI	8	9	0.184	0.15686067612216714195
Sum	TASEP	8	9	0.253	0.04915547082572870041
Sum	Diff	8	9	-0.168	0.19505541714026933264
AUC	tAI	8	10	0.269	0.03630027014812440417
AUC	TASEP	8	10	0.284	0.02643167302381030023
AUC	Diff	8	10	-0.154	0.23742817395560242288
AUC+	tAI	8	10	0.233	0.07056096762632176056
AUC+	TASEP	8	10	0.277	0.03047688100490594104
AUC+	Diff	8	10	-0.166	0.20033609378922351274
AUC-	tAI	8	10	-0.117	0.36797230314159656839
AUC-	TASEP	8	10	0.072	0.58120271740230844415
AUC-	Diff	8	10	-0.144	0.26848880982970413367
Sum	tAI	8	10	0.198	0.12541307365003456775
Sum	TASEP	8	10	0.267	0.03787690825653152599
Sum	Diff	8	10	-0.174	0.17904000976241024601
AUC	tAI	8	11	0.307	0.01611521195605986750
AUC	TASEP	8	11	0.290	0.02358844871373014587
AUC	Diff	8	11	-0.138	0.29013424365861212317
AUC+	tAI	8	11	0.269	0.03627266488334399130
AUC+	TASEP	8	11	0.282	0.02747350754657959526
AUC+	Diff	8	11	-0.152	0.24371114681544986391
AUC-	tAI	8	11	-0.117	0.36797230314159656839
AUC-	TASEP	8	11	0.072	0.58120271740230844415
AUC-	Diff	8	11	-0.144	0.26848880982970413367
Sum	tAI	8	11	0.231	0.07346545903317647230
Sum	TASEP	8	11	0.271	0.03460758543739846094
Sum	Diff	8	11	-0.161	0.21568859515642435642
AUC	tAI	8	12	0.329	0.00960852425604319903
AUC	TASEP	8	12	0.294	0.02157664371286268853
AUC	Diff	8	12	-0.130	0.31956557140062680222
AUC+	tAI	8	12	0.288	0.02421579371368090539
AUC+	TASEP	8	12	0.286	0.02534884302200923756
AUC+	Diff	8	12	-0.145	0.26644204607990379374
AUC-	tAI	8	12	-0.117	0.36797230314159656839
AUC-	TASEP	8	12	0.072	0.58120271740230844415
AUC-	Diff	8	12	-0.144	0.26848880982970413367
Sum	tAI	8	12	0.248	0.05411787953020614356
Sum	TASEP	8	12	0.274	0.03244206568387528189
Sum	Diff	8	12	-0.155	0.23408895079048491761
AUC	tAI	8	13	0.371	0.00321514924048581577
AUC	TASEP	8	13	0.319	0.01208401067301697988
AUC	Diff	8	13	-0.133	0.30569646442961045940
AUC+	tAI	8	13	0.328	0.00979685279085294042
AUC+	TASEP	8	13	0.311	0.01478274229561397056
AUC+	Diff	8	13	-0.148	0.25387903786575910514
AUC-	tAI	8	13	-0.117	0.36797230314159656839
AUC-	TASEP	8	13	0.072	0.58120271740230844415
AUC-	Diff	8	13	-0.144	0.26848880982970413367
Sum	tAI	8	13	0.285	0.02613032524303264548
Sum	TASEP	8	13	0.297	0.02001458416374842647
Sum	Diff	8	13	-0.158	0.22270895704580212504
AUC	tAI	8	14	0.409	0.00105154265606395353
AUC	TASEP	8	14	0.347	0.00615132394215331998
AUC	Diff	8	14	-0.141	0.27724046087165382657
AUC+	tAI	8	14	0.365	0.00379653338049913821
AUC+	TASEP	8	14	0.337	0.00786723694242665028
AUC+	Diff	8	14	-0.156	0.23034978142223858089
AUC-	tAI	8	14	-0.117	0.36797230314159656839
AUC-	TASEP	8	14	0.072	0.58120271740230844415
AUC-	Diff	8	14	-0.144	0.26848880982970413367
Sum	tAI	8	14	0.320	0.01193566338052171223
Sum	TASEP	8	14	0.322	0.01130003088012555140
Sum	Diff	8	14	-0.165	0.20254501199104879561
AUC	tAI	9	9	0.152	0.24307103790637210605
AUC	TASEP	9	9	0.265	0.03936291236705683622
AUC	Diff	9	9	-0.199	0.12487600754608781106
AUC+	tAI	9	9	0.148	0.25650149358282048340
AUC+	TASEP	9	9	0.261	0.04215890131723648571
AUC+	Diff	9	9	-0.197	0.12763315593481608379
AUC-	tAI	9	9	-0.005	0.96989333255450527194
AUC-	TASEP	9	9	0.044	0.73773509046170127057
AUC-	Diff	9	9	-0.050	0.70272808875858228106
Sum	tAI	9	9	0.143	0.27184153161719337710
Sum	TASEP	9	9	0.257	0.04594256880404271742
Sum	Diff	9	9	-0.195	0.13201379521597647604
AUC	tAI	9	10	0.167	0.19809448683316888129
AUC	TASEP	9	10	0.262	0.04100398667565478134
AUC	Diff	9	10	-0.188	0.14747194816941622264
AUC+	tAI	9	10	0.162	0.21086363863867210733
AUC+	TASEP	9	10	0.258	0.04443406368792667677
AUC+	Diff	9	10	-0.186	0.15162976328235897028
AUC-	tAI	9	10	-0.005	0.96989333255450527194
AUC-	TASEP	9	10	0.044	0.73773509046170127057
AUC-	Diff	9	10	-0.050	0.70272808875858228106
Sum	tAI	9	10	0.158	0.22478237248444549179
Sum	TASEP	9	10	0.254	0.04853052898602955301
Sum	Diff	9	10	-0.184	0.15679245400551833356
AUC	tAI	9	11	0.220	0.08879502710588624281
AUC	TASEP	9	11	0.261	0.04220240711984105109
AUC	Diff	9	11	-0.156	0.22915076379528248607
AUC+	tAI	9	11	0.214	0.09811973014750643984
AUC+	TASEP	9	11	0.257	0.04581952674566448086
AUC+	Diff	9	11	-0.155	0.23276167199281139197
AUC-	tAI	9	11	-0.005	0.96989333255450527194
AUC-	TASEP	9	11	0.044	0.73773509046170127057
AUC-	Diff	9	11	-0.050	0.70272808875858228106
Sum	tAI	9	11	0.208	0.10857121740381824038
Sum	TASEP	9	11	0.252	0.05008212648442733617
Sum	Diff	9	11	-0.154	0.23742625747874673836
AUC	tAI	9	12	0.247	0.05533817195152546109
AUC	TASEP	9	12	0.262	0.04153007451434857084
AUC	Diff	9	12	-0.142	0.27525107058778147673
AUC+	tAI	9	12	0.240	0.06287574195691215950
AUC+	TASEP	9	12	0.257	0.04529910654346897686
AUC+	Diff	9	12	-0.141	0.27825923013024250752
AUC-	tAI	9	12	-0.005	0.96989333255450527194
AUC-	TASEP	9	12	0.044	0.73773509046170127057
AUC-	Diff	9	12	-0.050	0.70272808875858228106
Sum	tAI	9	12	0.232	0.07153784803966681261
Sum	TASEP	9	12	0.252	0.04975584563964498275
Sum	Diff	9	12	-0.140	0.28243577136893610602
AUC	tAI	9	13	0.317	0.01280179348632410827
AUC	TASEP	9	13	0.306	0.01641866454100582642
AUC	Diff	9	13	-0.150	0.24935758819016781707
AUC+	tAI	9	13	0.308	0.01571552304341137032
AUC+	TASEP	9	13	0.300	0.01862655430763360612
AUC+	Diff	9	13	-0.149	0.25266996500170096907
AUC-	tAI	9	13	-0.005	0.96989333255450527194
AUC-	TASEP	9	13	0.044	0.73773509046170127057
AUC-	Diff	9	13	-0.050	0.70272808875858228106
Sum	tAI	9	13	0.299	0.01933708954743700373
Sum	TASEP	9	13	0.294	0.02132682872899635887
Sum	Diff	9	13	-0.147	0.25719087927267469951
AUC	tAI	9	14	0.388	0.00200257008390755144
AUC	TASEP	9	14	0.359	0.00455369643853409476
AUC	Diff	9	14	-0.166	0.20144766911166647749
AUC+	tAI	9	14	0.378	0.00270192212909330749
AUC+	TASEP	9	14	0.352	0.00543404284813309071
AUC+	Diff	9	14	-0.165	0.20508102870538538753
AUC-	tAI	9	14	-0.005	0.96989333255450527194
AUC-	TASEP	9	14	0.044	0.73773509046170127057
AUC-	Diff	9	14	-0.050	0.70272808875858228106
Sum	tAI	9	14	0.367	0.00366166121957277758
Sum	TASEP	9	14	0.344	0.00656665547144909875
Sum	Diff	9	14	-0.163	0.20988591483969232243
AUC	tAI	10	10	0.097	0.45865837790864072421
AUC	TASEP	10	10	0.104	0.42516390295486006234
AUC	Diff	10	10	-0.057	0.66202584194778801852
AUC+	tAI	10	10	0.097	0.45865837790864072421
AUC+	TASEP	10	10	0.104	0.42516390295486006234
AUC+	Diff	10	10	-0.057	0.66202584194778801852
AUC-	tAI	10	10	nan	1.00000000000000000000
AUC-	TASEP	10	10	nan	1.00000000000000000000
AUC-	Diff	10	10	nan	1.00000000000000000000
Sum	tAI	10	10	0.097	0.45865837790864072421
Sum	TASEP	10	10	0.104	0.42516390295486006234
Sum	Diff	10	10	-0.057	0.66202584194778801852
AUC	tAI	10	11	0.177	0.17214161620787027385
AUC	TASEP	10	11	0.089	0.49551892013277043514
AUC	Diff	10	11	0.005	0.97164521758002142526
AUC+	tAI	10	11	0.177	0.17214161620787027385
AUC+	TASEP	10	11	0.089	0.49551892013277043514
AUC+	Diff	10	11	0.005	0.97164521758002142526
AUC-	tAI	10	11	nan	1.00000000000000000000
AUC-	TASEP	10	11	nan	1.00000000000000000000
AUC-	Diff	10	11	nan	1.00000000000000000000
Sum	tAI	10	11	0.177	0.17214161620787027385
Sum	TASEP	10	11	0.089	0.49551892013277043514
Sum	Diff	10	11	0.005	0.97164521758002142526
AUC	tAI	10	12	0.194	0.13310255577061430587
AUC	TASEP	10	12	0.069	0.59911601001854131177
AUC	Diff	10	12	0.036	0.78108863937112238407
AUC+	tAI	10	12	0.194	0.13310255577061430587
AUC+	TASEP	10	12	0.069	0.59911601001854131177
AUC+	Diff	10	12	0.036	0.78108863937112238407
AUC-	tAI	10	12	nan	1.00000000000000000000
AUC-	TASEP	10	12	nan	1.00000000000000000000
AUC-	Diff	10	12	nan	1.00000000000000000000
Sum	tAI	10	12	0.194	0.13310255577061430587
Sum	TASEP	10	12	0.069	0.59911601001854131177
Sum	Diff	10	12	0.036	0.78108863937112238407
AUC	tAI	10	13	0.290	0.02351934304198962516
AUC	TASEP	10	13	0.127	0.32905610626913384120
AUC	Diff	10	13	0.027	0.83395041013115256412
AUC+	tAI	10	13	0.290	0.02351934304198962516
AUC+	TASEP	10	13	0.127	0.32905610626913384120
AUC+	Diff	10	13	0.027	0.83395041013115256412
AUC-	tAI	10	13	nan	1.00000000000000000000
AUC-	TASEP	10	13	nan	1.00000000000000000000
AUC-	Diff	10	13	nan	1.00000000000000000000
Sum	tAI	10	13	0.290	0.02351934304198962516
Sum	TASEP	10	13	0.127	0.32905610626913384120
Sum	Diff	10	13	0.027	0.83395041013115256412
AUC	tAI	10	14	0.388	0.00199214790548711508
AUC	TASEP	10	14	0.203	0.11606963422106698902
AUC	Diff	10	14	0.001	0.99275651210187187967
AUC+	tAI	10	14	0.388	0.00199214790548711508
AUC+	TASEP	10	14	0.203	0.11606963422106698902
AUC+	Diff	10	14	0.001	0.99275651210187187967
AUC-	tAI	10	14	nan	1.00000000000000000000
AUC-	TASEP	10	14	nan	1.00000000000000000000
AUC-	Diff	10	14	nan	1.00000000000000000000
Sum	tAI	10	14	0.388	0.00199214790548711508
Sum	TASEP	10	14	0.203	0.11606963422106698902
Sum	Diff	10	14	0.001	0.99275651210187187967
AUC	tAI	11	11	0.308	0.01581934402753493521
AUC	TASEP	11	11	0.021	0.86938063933808829020
AUC	Diff	11	11	0.151	0.24472037213707734105
AUC+	tAI	11	11	0.308	0.01581934402753493521
AUC+	TASEP	11	11	0.021	0.86938063933808829020
AUC+	Diff	11	11	0.151	0.24472037213707734105
AUC-	tAI	11	11	nan	1.00000000000000000000
AUC-	TASEP	11	11	nan	1.00000000000000000000
AUC-	Diff	11	11	nan	1.00000000000000000000
Sum	tAI	11	11	0.308	0.01581934402753493521
Sum	TASEP	11	11	0.021	0.86938063933808829020
Sum	Diff	11	11	0.151	0.24472037213707734105
AUC	tAI	11	12	0.274	0.03261597166855761259
AUC	TASEP	11	12	-0.016	0.90407201553493321544
AUC	Diff	11	12	0.172	0.18464049106863003602
AUC+	tAI	11	12	0.274	0.03261597166855761259
AUC+	TASEP	11	12	-0.016	0.90407201553493321544
AUC+	Diff	11	12	0.172	0.18464049106863003602
AUC-	tAI	11	12	nan	1.00000000000000000000
AUC-	TASEP	11	12	nan	1.00000000000000000000
AUC-	Diff	11	12	nan	1.00000000000000000000
Sum	tAI	11	12	0.274	0.03261597166855761259
Sum	TASEP	11	12	-0.016	0.90407201553493321544
Sum	Diff	11	12	0.172	0.18464049106863003602
AUC	tAI	11	13	0.400	0.00139673551975049077
AUC	TASEP	11	13	0.097	0.45867306970413013190
AUC	Diff	11	13	0.123	0.34622720371601045652
AUC+	tAI	11	13	0.400	0.00139673551975049077
AUC+	TASEP	11	13	0.097	0.45867306970413013190
AUC+	Diff	11	13	0.123	0.34622720371601045652
AUC-	tAI	11	13	nan	1.00000000000000000000
AUC-	TASEP	11	13	nan	1.00000000000000000000
AUC-	Diff	11	13	nan	1.00000000000000000000
Sum	tAI	11	13	0.400	0.00139673551975049077
Sum	TASEP	11	13	0.097	0.45867306970413013190
Sum	Diff	11	13	0.123	0.34622720371601045652
AUC	tAI	11	14	0.488	0.00006606081149926878
AUC	TASEP	11	14	0.200	0.12162178673865167711
AUC	Diff	11	14	0.061	0.64073889654892135503
AUC+	tAI	11	14	0.488	0.00006606081149926878
AUC+	TASEP	11	14	0.200	0.12162178673865167711
AUC+	Diff	11	14	0.061	0.64073889654892135503
AUC-	tAI	11	14	nan	1.00000000000000000000
AUC-	TASEP	11	14	nan	1.00000000000000000000
AUC-	Diff	11	14	nan	1.00000000000000000000
Sum	tAI	11	14	0.488	0.00006606081149926878
Sum	TASEP	11	14	0.200	0.12162178673865167711
Sum	Diff	11	14	0.061	0.64073889654892135503
AUC	tAI	12	12	0.162	0.21170821642515458283
AUC	TASEP	12	12	-0.072	0.57902668281967950570
AUC	Diff	12	12	0.170	0.19079585879218569078
AUC+	tAI	12	12	0.162	0.21170821642515458283
AUC+	TASEP	12	12	-0.072	0.57902668281967950570
AUC+	Diff	12	12	0.170	0.19079585879218569078
AUC-	tAI	12	12	nan	1.00000000000000000000
AUC-	TASEP	12	12	nan	1.00000000000000000000
AUC-	Diff	12	12	nan	1.00000000000000000000
Sum	tAI	12	12	0.162	0.21170821642515458283
Sum	TASEP	12	12	-0.072	0.57902668281967950570
Sum	Diff	12	12	0.170	0.19079585879218569078
AUC	tAI	12	13	0.397	0.00155343983986363913
AUC	TASEP	12	13	0.143	0.27087184954467746767
AUC	Diff	12	13	0.071	0.58871413973481967474
AUC+	tAI	12	13	0.397	0.00155343983986363913
AUC+	TASEP	12	13	0.143	0.27087184954467746767
AUC+	Diff	12	13	0.071	0.58871413973481967474
AUC-	tAI	12	13	nan	1.00000000000000000000
AUC-	TASEP	12	13	nan	1.00000000000000000000
AUC-	Diff	12	13	nan	1.00000000000000000000
Sum	tAI	12	13	0.397	0.00155343983986363913
Sum	TASEP	12	13	0.143	0.27087184954467746767
Sum	Diff	12	13	0.071	0.58871413973481967474
AUC	tAI	12	14	0.493	0.00005484068853031545
AUC	TASEP	12	14	0.265	0.03900729617442558195
AUC	Diff	12	14	-0.006	0.96347821160042856903
AUC+	tAI	12	14	0.493	0.00005484068853031545
AUC+	TASEP	12	14	0.265	0.03900729617442558195
AUC+	Diff	12	14	-0.006	0.96347821160042856903
AUC-	tAI	12	14	nan	1.00000000000000000000
AUC-	TASEP	12	14	nan	1.00000000000000000000
AUC-	Diff	12	14	nan	1.00000000000000000000
Sum	tAI	12	14	0.493	0.00005484068853031545
Sum	TASEP	12	14	0.265	0.03900729617442558195
Sum	Diff	12	14	-0.006	0.96347821160042856903
AUC	tAI	13	13	0.552	0.00000394507828789112
AUC	TASEP	13	13	0.331	0.00916551518023719577
AUC	Diff	13	13	-0.043	0.74059472024475048180
AUC+	tAI	13	13	0.552	0.00000394507828789112
AUC+	TASEP	13	13	0.331	0.00916551518023719577
AUC+	Diff	13	13	-0.043	0.74059472024475048180
AUC-	tAI	13	13	nan	1.00000000000000000000
AUC-	TASEP	13	13	nan	1.00000000000000000000
AUC-	Diff	13	13	nan	1.00000000000000000000
Sum	tAI	13	13	0.552	0.00000394507828789112
Sum	TASEP	13	13	0.331	0.00916551518023719577
Sum	Diff	13	13	-0.043	0.74059472024475048180
AUC	tAI	13	14	0.566	0.00000202463163558149
AUC	TASEP	13	14	0.382	0.00238486811976322934
AUC	Diff	13	14	-0.090	0.48821202582173361950
AUC+	tAI	13	14	0.566	0.00000202463163558149
AUC+	TASEP	13	14	0.382	0.00238486811976322934
AUC+	Diff	13	14	-0.090	0.48821202582173361950
AUC-	tAI	13	14	nan	1.00000000000000000000
AUC-	TASEP	13	14	nan	1.00000000000000000000
AUC-	Diff	13	14	nan	1.00000000000000000000
Sum	tAI	13	14	0.566	0.00000202463163558149
Sum	TASEP	13	14	0.382	0.00238486811976322934
Sum	Diff	13	14	-0.090	0.48821202582173361950
AUC	tAI	14	14	0.544	0.00000586103275469521
AUC	TASEP	14	14	0.404	0.00123251166173934858
AUC	Diff	14	14	-0.127	0.33041894212358291494
AUC+	tAI	14	14	0.544	0.00000586103275469521
AUC+	TASEP	14	14	0.404	0.00123251166173934858
AUC+	Diff	14	14	-0.127	0.33041894212358291494
AUC-	tAI	14	14	nan	1.00000000000000000000
AUC-	TASEP	14	14	nan	1.00000000000000000000
AUC-	Diff	14	14	nan	1.00000000000000000000
Sum	tAI	14	14	0.544	0.00000586103275469521
Sum	TASEP	14	14	0.404	0.00123251166173934858
Sum	Diff	14	14	-0.127	0.33041894212358291494
