1998-09-02	1	6-1-1	Deletion	29254	29254	A	
1998-09-02	1	6-1-1	Deletion	29289	29289	A	
1998-09-02	1	6-1-1	Deletion	29290	29290	A	
1998-09-02	1	6-1-1	Deletion	29291	29291	T	
1998-09-02	1	6-1-1	Substitution	29301	29301	T	A
1998-09-02	1	6-1-1	Deletion	29307	29307	A	
1998-09-02	1	6-1-1	Substitution	203939	203939	T	G
1998-09-02	1	6-1-1	Deletion	210804	210804	T	
1998-09-02	1	6-1-1	Substitution	210810	210810	T	A
1998-09-02	1	6-1-1	Substitution	211011	211011	C	T
2002-12-17	1	21-1-1	Insertion	108137	108137		CC
2002-12-17	1	21-1-1	Insertion	108143	108143		G
2002-12-17	1	21-1-1	Insertion	128441	128441		T
2003-09-27	1	26-1-1	Insertion	193300	193300		G
2003-11-19	1	28-1-1	Insertion	130239	130239		C
2003-11-19	1	28-1-1	Substitution	130246	130247	CG	GC
2004-01-14	1	30-1-1	Insertion	143848	143848		C
2004-01-24	1	32-1-1	Insertion	41778	41778		G
2004-01-30	1	34-1-1	Deletion	166772	166772	G	
2004-07-20	1	42-1-1	Deletion	51688	51688	G	
2004-07-20	1	42-1-1	Deletion	51694	51694	G	
2006-01-19	1	52-1-1	Substitution	193355	193355	G	A
2007-04-05	1	56-1-1	Substitution	140169	140169	A	G
2007-04-05	1	56-1-1	Substitution	140182	140182	A	G
2007-04-05	1	56-1-1	Substitution	140811	140811	A	G
2008-03-05	1	58-1-1	Substitution	58196	58196	A	C
2008-03-05	1	58-1-1	Substitution	58247	58247	A	C
2008-03-05	1	58-1-1	Substitution	58424	58424	C	T
2011-02-03	1	64-1-1	Deletion	3836	3836	C	
2011-02-03	1	64-1-1	Substitution	3981	3982	AT	TA
2011-02-03	1	64-1-1	Substitution	5244	5244	G	A
2011-02-03	1	64-1-1	Insertion	5927	5927	 	G
2011-02-03	1	64-1-1	Deletion	6454	6454	C	
2011-02-03	1	64-1-1	Substitution	16457	16457	G	A
2011-02-03	1	64-1-1	Deletion	16470	16470	T	
2011-02-03	1	64-1-1	Deletion	16500	16500	G	
2011-02-03	1	64-1-1	Insertion	21531	21531	 	A
2011-02-03	1	64-1-1	Insertion	23253	23253	 	T
2011-02-03	1	64-1-1	Deletion	28069	28069	T	
2011-02-03	1	64-1-1	Insertion	28953	28953	 	T
2011-02-03	1	64-1-1	Substitution	36120	36120	C	A
2011-02-03	1	64-1-1	Substitution	36814	36814	A	C
2011-02-03	1	64-1-1	Substitution	40231	40231	C	G
2011-02-03	1	64-1-1	Substitution	41240	41240	A	G
2011-02-03	1	64-1-1	Substitution	41664	41664	T	G
2011-02-03	1	64-1-1	Substitution	41700	41700	C	A
2011-02-03	1	64-1-1	Substitution	41703	41703	C	A
2011-02-03	1	64-1-1	Substitution	46231	46231	C	G
2011-02-03	1	64-1-1	Substitution	46833	46833	G	A
2011-02-03	1	64-1-1	Substitution	47821	47821	T	A
2011-02-03	1	64-1-1	Substitution	47826	47826	C	T
2011-02-03	1	64-1-1	Substitution	48772	48772	T	A
2011-02-03	1	64-1-1	Substitution	49904	49904	C	A
2011-02-03	1	64-1-1	Substitution	50327	50327	C	A
2011-02-03	1	64-1-1	Substitution	55746	55746	A	G
2011-02-03	1	64-1-1	Substitution	55954	55954	A	T
2011-02-03	1	64-1-1	Substitution	62767	62767	A	G
2011-02-03	1	64-1-1	Substitution	70794	70794	C	G
2011-02-03	1	64-1-1	Substitution	70874	70874	A	G
2011-02-03	1	64-1-1	Substitution	96740	96740	G	C
2011-02-03	1	64-1-1	Deletion	96838	96838	C	
2011-02-03	1	64-1-1	Insertion	96841	96841	 	C
2011-02-03	1	64-1-1	Substitution	97025	97026	AT	TA
2011-02-03	1	64-1-1	Substitution	97678	97679	CC	GG
2011-02-03	1	64-1-1	Substitution	98350	98351	CG	GC
2011-02-03	1	64-1-1	Substitution	99563	99565	ATC	TCG
2011-02-03	1	64-1-1	Substitution	99841	99841	A	T
2011-02-03	1	64-1-1	Substitution	100399	100399	A	C
2011-02-03	1	64-1-1	Substitution	110470	110471	CG	GC
2011-02-03	1	64-1-1	Substitution	113702	113703	CG	GC
2011-02-03	1	64-1-1	Substitution	120442	120442	C	G
2011-02-03	1	64-1-1	Deletion	130485	130486	GT	
2011-02-03	1	64-1-1	Insertion	134125	134125	 	C
2011-02-03	1	64-1-1	Substitution	134852	134854	TTG	ATT
2011-02-03	1	64-1-1	Substitution	152189	152190	CA	AC
2011-02-03	1	64-1-1	Insertion	158934	158934	 	G
2011-02-03	1	64-1-1	Substitution	167048	167048	G	C
2011-02-03	1	64-1-1	Insertion	167084	167084	 	C
2011-02-03	1	64-1-1	Insertion	167113	167113	 	T
2011-02-03	1	64-1-1	Insertion	167133	167133	 	A
2011-02-03	1	64-1-1	Insertion	167138	167138	 	T
2011-02-03	1	64-1-1	Insertion	167142	167142	 	A
2011-02-03	1	64-1-1	Insertion	167149	167149	 	T
2011-02-03	1	64-1-1	Substitution	167551	167551	G	C
2011-02-03	1	64-1-1	Substitution	167802	167802	C	T
2011-02-03	1	64-1-1	Insertion	171882	171882	 	C
2011-02-03	1	64-1-1	Deletion	171968	171968	C	
2011-02-03	1	64-1-1	Substitution	171972	171972	C	T
2011-02-03	1	64-1-1	Deletion	171975	171977	CTA	
2011-02-03	1	64-1-1	Deletion	171983	171983	G	
2011-02-03	1	64-1-1	Deletion	172018	172018	A	
2011-02-03	1	64-1-1	Deletion	172020	172020	A	
2011-02-03	1	64-1-1	Insertion	172041	172041	 	T
2011-02-03	1	64-1-1	Insertion	172042	172042	 	T
2011-02-03	1	64-1-1	Insertion	172170	172170	 	T
2011-02-03	1	64-1-1	Insertion	172425	172425	 	G
2011-02-03	1	64-1-1	Deletion	172434	172434	G	
2011-02-03	1	64-1-1	Substitution	174173	174173	G	C
2011-02-03	1	64-1-1	Substitution	174187	174188	CG	GC
2011-02-03	1	64-1-1	Insertion	175305	175305	 	C
2011-02-03	1	64-1-1	Deletion	175371	175371	T	
2011-02-03	1	64-1-1	Substitution	175378	175378	T	C
2011-02-03	1	64-1-1	Insertion	177135	177135	 	T
2011-02-03	1	64-1-1	Substitution	178256	178256	G	C
2011-02-03	1	64-1-1	Deletion	178601	178601	A	
2011-02-03	1	64-1-1	Insertion	178618	178618	 	A
2011-02-03	1	64-1-1	Deletion	178638	178638	G	
2011-02-03	1	64-1-1	Substitution	178647	178647	T	C
2011-02-03	1	64-1-1	Substitution	179683	179683	T	A
2011-02-03	1	64-1-1	Substitution	179761	179761	C	A
2011-02-03	1	64-1-1	Insertion	180961	180961	 	CAAA
2011-02-03	1	64-1-1	Insertion	198900	198900	 	A
2011-02-03	1	64-1-1	Insertion	202933	202933	 	A
2011-02-03	1	64-1-1	Insertion	203327	203327	 	T
2011-02-03	1	64-1-1	Insertion	229568	229568	 	G
1997-07-27	2	2-1-1	Insertion	22603	22603		G
1997-07-27	2	2-1-1	Substitution	48615	48615	A	C
1998-09-13	2	6-1-1	Deletion	25394	25394	T	
1998-09-13	2	6-1-1	Insertion	25408	25408		C
1998-09-13	2	6-1-1	Insertion	28272	28272		G
1998-09-13	2	6-1-1	Insertion	28296	28296		C
1998-09-13	2	6-1-1	Insertion	28302	28302		GG
1998-09-13	2	6-1-1	Substitution	28306	28306	A	G
1999-04-22	2	11-1-1	Substitution	159114	159114	C	G
1999-04-23	2	12-1-1	Substitution	94040	94040	G	C
1999-04-23	2	12-1-1	Substitution	97484	97485	TG	GC
1999-04-23	2	12-1-1	Substitution	247262	247262	C	G
1999-04-23	2	12-1-1	Substitution	247367	247367	C	T
1999-04-23	2	12-1-1	Substitution	248278	248278	A	T
1999-04-23	2	12-1-1	Substitution	248539	248539	A	T
1999-04-26	2	12-1-1	Insertion	378810	378810		T
1999-04-26	2	12-1-1	Deletion	378815	378815	C	
1999-04-26	2	12-1-1	Insertion	378824	378824		C
1999-04-26	2	12-1-1	Deletion	623651	623651	A	
1999-04-26	2	12-1-1	Deletion	739866	739866	G	
1999-04-26	2	12-1-1	Deletion	739912	739912	A	
1999-04-26	2	12-1-1	Substitution	791709	791709	T	C
2001-05-29	2	17-1-1	Deletion	91711	91711	C	
2001-05-29	2	17-1-1	Substitution	234918	234918	C	A
2003-01-02	2	22-1-1	Substitution	422272	422273	TA	AT
2003-01-03	2	22-1-1	Deletion	442868	442868	C	
2003-09-29	2	26-1-1	Deletion	387430	387430	C	
2003-09-29	2	26-1-1	Deletion	387625	387625	G	
2004-01-09	2	29-1-1	Insertion	742165	742165		G
2004-01-09	2	29-1-1	Insertion	742175	742175		G
2004-01-20	2	31-1-1	Insertion	553996	553996		G
2004-01-21	2	31-1-1	Deletion	320081	320082	CC	
2004-01-26	2	33-1-1	Insertion	18364	18364		G
2004-01-26	2	33-1-1	Insertion	21279	21279		T
2004-01-26	2	33-1-1	Insertion	21288	21288		C
2004-01-26	2	33-1-1	Insertion	21345	21345		A
2004-01-26	2	33-1-1	Insertion	21347	21347		A
2004-01-28	2	34-1-1	Deletion	216785	216785	G	
2004-01-29	2	34-1-1	Deletion	40900	40901	GA	
2004-01-29	2	34-1-1	Insertion	203180	203180		C
2004-07-09	2	40-1-1	Insertion	457298	457298		G
2004-07-12	2	41-1-1	Deletion	366383	366383	T	
2004-07-13	2	41-1-1	Insertion	93899	93899		A
2004-07-16	2	41-1-1	Substitution	96812	96962	GTGGTTGGATAGAGAACAGTGTTAGTCCCGTAGAATCGTGGTCGTTGTTCTATGATATCAACTTTGGAACAACTCAGAGGTGGATATCCCGTCTTTTAGAGGACCGGGGTCGGACGCGGAATCCAACTGTCATATATTGACCGAAACAAAG	GATGGTTTGGAAGTTAGAAGAAGTTACAGTGTTAGTGCCCGTAGAAAATCGTTGGTTCGTTTTGTTGCTATTGATATCATTACTTTTGGAAAACAAGCTCAGAGGTGGATATGCCGTGCTTTTAGAGGAGCCGGGGTCGGAAACGACGGAATGCAAATCTGTCATATTATTTGACTTCGAAGCAATCG
2011-02-03	2	64-1-1	Substitution	11053	11053	T	C
2011-02-03	2	64-1-1	Substitution	11308	11309	AA	TT
2011-02-03	2	64-1-1	Substitution	11345	11345	A	G
2011-02-03	2	64-1-1	Substitution	11379	11379	A	C
2011-02-03	2	64-1-1	Substitution	13102	13102	C	A
2011-02-03	2	64-1-1	Substitution	13477	13477	G	A
2011-02-03	2	64-1-1	Substitution	13492	13492	A	T
2011-02-03	2	64-1-1	Substitution	13553	13553	G	A
2011-02-03	2	64-1-1	Substitution	13966	13966	C	A
2011-02-03	2	64-1-1	Substitution	13982	13982	G	A
2011-02-03	2	64-1-1	Substitution	15332	15332	G	C
2011-02-03	2	64-1-1	Substitution	15835	15835	T	C
2011-02-03	2	64-1-1	Substitution	17455	17455	A	C
2011-02-03	2	64-1-1	Insertion	21376	21376	 	A
2011-02-03	2	64-1-1	Deletion	23855	23856	CC	
2011-02-03	2	64-1-1	Insertion	23947	23947	 	A
2011-02-03	2	64-1-1	Insertion	28887	28887	 	AT
2011-02-03	2	64-1-1	Insertion	28909	28909	 	A
2011-02-03	2	64-1-1	Substitution	28913	28913	C	A
2011-02-03	2	64-1-1	Substitution	36312	36312	T	A
2011-02-03	2	64-1-1	Substitution	36673	36673	A	T
2011-02-03	2	64-1-1	Substitution	38067	38067	C	T
2011-02-03	2	64-1-1	Substitution	38210	38210	A	T
2011-02-03	2	64-1-1	Substitution	38728	38728	C	A
2011-02-03	2	64-1-1	Substitution	38800	38800	C	A
2011-02-03	2	64-1-1	Substitution	38917	38917	C	T
2011-02-03	2	64-1-1	Substitution	38920	38920	C	A
2011-02-03	2	64-1-1	Substitution	42377	42377	C	G
2011-02-03	2	64-1-1	Substitution	45495	45495	T	A
2011-02-03	2	64-1-1	Substitution	48369	48369	A	T
2011-02-03	2	64-1-1	Substitution	55145	55145	A	C
2011-02-03	2	64-1-1	Insertion	59406	59406	 	T
2011-02-03	2	64-1-1	Deletion	61056	61056	T	
2011-02-03	2	64-1-1	Substitution	68154	68155	TG	GA
2011-02-03	2	64-1-1	Substitution	73450	73450	C	G
2011-02-03	2	64-1-1	Substitution	75208	75208	A	G
2011-02-03	2	64-1-1	Deletion	80747	80747	T	
2011-02-03	2	64-1-1	Substitution	89277	89277	G	T
2011-02-03	2	64-1-1	Substitution	92679	92679	C	A
2011-02-03	2	64-1-1	Substitution	92916	92916	G	A
2011-02-03	2	64-1-1	Deletion	92918	92920	CCG	
2011-02-03	2	64-1-1	Deletion	93622	93622	C	
2011-02-03	2	64-1-1	Substitution	95345	95345	G	T
2011-02-03	2	64-1-1	Deletion	113437	113437	G	
2011-02-03	2	64-1-1	Substitution	114868	114868	G	A
2011-02-03	2	64-1-1	Substitution	114870	114870	A	G
2011-02-03	2	64-1-1	Substitution	201635	201635	G	C
2011-02-03	2	64-1-1	Substitution	210433	210433	A	G
2011-02-03	2	64-1-1	Substitution	220413	220414	AG	GA
2011-02-03	2	64-1-1	Insertion	237021	237021	 	G
2011-02-03	2	64-1-1	Substitution	237839	237839	G	A
2011-02-03	2	64-1-1	Substitution	237892	237892	G	A
2011-02-03	2	64-1-1	Substitution	238116	238116	G	A
2011-02-03	2	64-1-1	Substitution	238133	238133	G	A
2011-02-03	2	64-1-1	Substitution	241359	241359	G	A
2011-02-03	2	64-1-1	Substitution	241396	241396	G	A
2011-02-03	2	64-1-1	Substitution	245111	245111	T	A
2011-02-03	2	64-1-1	Insertion	248623	248623	 	T
2011-02-03	2	64-1-1	Substitution	250039	250039	T	G
2011-02-03	2	64-1-1	Substitution	250403	250403	C	G
2011-02-03	2	64-1-1	Substitution	254495	254495	G	T
2011-02-03	2	64-1-1	Substitution	254532	254532	C	A
2011-02-03	2	64-1-1	Insertion	254548	254548	 	A
2011-02-03	2	64-1-1	Substitution	254616	254616	T	A
2011-02-03	2	64-1-1	Insertion	254719	254719	 	T
2011-02-03	2	64-1-1	Insertion	254720	254720	 	T
2011-02-03	2	64-1-1	Deletion	265902	265902	C	
2011-02-03	2	64-1-1	Substitution	265905	265905	T	G
2011-02-03	2	64-1-1	Deletion	265922	265922	C	
2011-02-03	2	64-1-1	Insertion	310457	310457	 	T
2011-02-03	2	64-1-1	Deletion	315071	315071	G	
2011-02-03	2	64-1-1	Substitution	315270	315271	CG	GC
2011-02-03	2	64-1-1	Substitution	323835	323836	CG	GC
2011-02-03	2	64-1-1	Insertion	324366	324366	 	T
2011-02-03	2	64-1-1	Insertion	328382	328382	 	T
2011-02-03	2	64-1-1	Substitution	370774	370773	C	T
2011-02-03	2	64-1-1	Insertion	371424	371424	 	A
2011-02-03	2	64-1-1	Substitution	374011	374011	T	A
2011-02-03	2	64-1-1	Substitution	375081	375081	C	A
2011-02-03	2	64-1-1	Substitution	375272	375272	T	A
2011-02-03	2	64-1-1	Insertion	382729	382729	 	G
2011-02-03	2	64-1-1	Insertion	382742	382742	 	G
2011-02-03	2	64-1-1	Substitution	385360	385361	CG	GC
2011-02-03	2	64-1-1	Substitution	388774	388775	TT	AA
2011-02-03	2	64-1-1	Insertion	390033	390033	 	C
2011-02-03	2	64-1-1	Deletion	390442	390442	G	
2011-02-03	2	64-1-1	Insertion	391277	391277	 	A
2011-02-03	2	64-1-1	Deletion	392340	392340	TT	
2011-02-03	2	64-1-1	Substitution	392557	392558	CG	GC
2011-02-03	2	64-1-1	Substitution	392568	392569	CG	GC
2011-02-03	2	64-1-1	Insertion	392822	392822	 	T
2011-02-03	2	64-1-1	Insertion	394727	394727	 	C
2011-02-03	2	64-1-1	Substitution	426394	426396	CCG	GCC
2011-02-03	2	64-1-1	Substitution	432380	432380	T	C
2011-02-03	2	64-1-1	Substitution	433377	433378	CG	GC
2011-02-03	2	64-1-1	Substitution	437344	437344	A	G
2011-02-03	2	64-1-1	Substitution	439496	439496	T	G
2011-02-03	2	64-1-1	Substitution	447535	447536	CG	GC
2011-02-03	2	64-1-1	Substitution	456359	456359	C	T
2011-02-03	2	64-1-1	Substitution	481671	481675	TGATG	GTAGT
2011-02-03	2	64-1-1	Substitution	488600	488601	TC	AT
2011-02-03	2	64-1-1	Substitution	513365	513365	A	G
2011-02-03	2	64-1-1	Substitution	514965	514966	AC	CA
2011-02-03	2	64-1-1	Substitution	527099	527099	A	G
2011-02-03	2	64-1-1	Substitution	547442	547442	A	T
2011-02-03	2	64-1-1	Deletion	561435	561435	C	
2011-02-03	2	64-1-1	Deletion	623444	623444	C	
2011-02-03	2	64-1-1	Insertion	625435	625435	 	T
2011-02-03	2	64-1-1	Substitution	625500	625500	T	C
2011-02-03	2	64-1-1	Substitution	627421	627421	T	G
2011-02-03	2	64-1-1	Substitution	627433	627439	ATCCGGG	CTTTGAA
2011-02-03	2	64-1-1	Substitution	627486	627487	AT	TA
2011-02-03	2	64-1-1	Substitution	631342	631353	GCTGGCGAAACG	CGTTTCGCCAGC
2011-02-03	2	64-1-1	Substitution	631907	631907	G	A
2011-02-03	2	64-1-1	Substitution	631912	631912	G	A
2011-02-03	2	64-1-1	Substitution	631924	631924	G	A
2011-02-03	2	64-1-1	Substitution	631936	631936	G	A
2011-02-03	2	64-1-1	Substitution	631940	631940	C	A
2011-02-03	2	64-1-1	Substitution	631981	631981	A	G
2011-02-03	2	64-1-1	Substitution	633189	633189	T	A
2011-02-03	2	64-1-1	Substitution	634934	634934	C	T
2011-02-03	2	64-1-1	Substitution	635192	635192	A	G
2011-02-03	2	64-1-1	Substitution	635247	635247	A	G
2011-02-03	2	64-1-1	Substitution	635822	635822	C	G
2011-02-03	2	64-1-1	Insertion	635882	635882	 	T
2011-02-03	2	64-1-1	Deletion	635890	635890	A	
2011-02-03	2	64-1-1	Substitution	636141	636141	A	G
2011-02-03	2	64-1-1	Substitution	636306	636309	AATA	TATG
2011-02-03	2	64-1-1	Substitution	636319	636322	GCTT	ACTG
2011-02-03	2	64-1-1	Substitution	636336	636336	G	A
2011-02-03	2	64-1-1	Substitution	636342	636342	G	A
2011-02-03	2	64-1-1	Substitution	739341	739341	A	T
2011-02-03	2	64-1-1	Substitution	740291	740292	CG	GC
2011-02-03	2	64-1-1	Substitution	743936	743938	GCC	CCG
2011-02-03	2	64-1-1	Substitution	754908	754908	T	C
2011-02-03	2	64-1-1	Deletion	757291	757291	A	
2011-02-03	2	64-1-1	Substitution	774080	774080	C	G
2011-02-03	2	64-1-1	Substitution	774430	774430	C	G
2011-02-03	2	64-1-1	Substitution	779354	779356	TAC	ACT
2011-02-03	2	64-1-1	Substitution	780541	780541	C	A
2011-02-03	2	64-1-1	Substitution	781354	781354	G	C
2011-02-03	2	64-1-1	Substitution	786736	786737	CT	TC
2011-02-03	2	64-1-1	Insertion	786761	786761	 	A
2011-02-03	2	64-1-1	Insertion	792273	792273	 	T
2011-02-03	2	64-1-1	Substitution	793986	793987	AC	CA
2011-02-03	2	64-1-1	Substitution	796707	796707	A	G
1997-07-27	3	2-1-1	Substitution	6608	6608	G	A
1997-07-27	3	2-1-1	Substitution	6718	6718	G	A
1997-07-27	3	2-1-1	Substitution	6738	6738	C	T
1997-07-27	3	2-1-1	Substitution	6872	6872	T	C
1997-07-27	3	2-1-1	Substitution	6884	6884	C	T
1997-07-27	3	2-1-1	Substitution	6921	6921	G	A
1997-07-27	3	2-1-1	Substitution	7016	7016	A	G
1997-07-27	3	2-1-1	Substitution	7100	7100	T	C
1997-07-27	3	2-1-1	Deletion	17607	17607	C	
1997-07-27	3	2-1-1	Deletion	17833	17833	C	
1997-07-27	3	2-1-1	Deletion	19446	19446	T	
1997-07-27	3	2-1-1	Insertion	19496	19496		G
1997-07-27	3	2-1-1	Insertion	19501	19501		G
1997-07-27	3	2-1-1	Insertion	19507	19507		G
1997-07-27	3	2-1-1	Insertion	20325	20325		T
1997-07-27	3	2-1-1	Insertion	20419	20419		T
1997-07-27	3	2-1-1	Deletion	21561	21561	C	
1997-07-27	3	2-1-1	Deletion	33604	33604	A	
1997-07-27	3	2-1-1	Deletion	33666	33666	G	
1997-07-27	3	2-1-1	Deletion	33689	33689	A	
1997-07-27	3	2-1-1	Substitution	52537	52537	C	T
1997-07-27	3	2-1-1	Substitution	52564	52566	TGG	CC
1997-07-27	3	2-1-1	Substitution	52569	52569	G	C
1997-07-27	3	2-1-1	Substitution	52583	52583	A	G
1997-07-27	3	2-1-1	Substitution	52586	52587	CT	GC
1997-07-27	3	2-1-1	Deletion	52597	52597	G	
1997-07-27	3	2-1-1	Deletion	62138	62138	G	
1997-07-27	3	2-1-1	Deletion	62141	62141	G	
1997-07-27	3	2-1-1	Insertion	81532	81532		C
1997-07-27	3	2-1-1	Insertion	81750	81750		C
1997-07-27	3	2-1-1	Insertion	98842	98842		A
1997-07-27	3	2-1-1	Deletion	100475	100475	G	
1997-07-27	3	2-1-1	Insertion	100478	100478		G
1997-07-27	3	2-1-1	Deletion	100539	100539	G	
1997-07-27	3	2-1-1	Insertion	103074	103074		T
1997-07-27	3	2-1-1	Deletion	103519	103519	T	
1997-07-27	3	2-1-1	Deletion	103531	103531	C	
1997-07-27	3	2-1-1	Deletion	103543	103543	G	
1997-07-27	3	2-1-1	Substitution	104260	104260	G	C
1997-07-27	3	2-1-1	Substitution	105943	105943	G	CC
1997-07-27	3	2-1-1	Substitution	105986	105986	C	G
1997-07-27	3	2-1-1	Deletion	106349	106349	C	
1997-07-27	3	2-1-1	Insertion	106407	106407		A
1997-07-27	3	2-1-1	Substitution	106435	106435	C	G
1997-07-27	3	2-1-1	Substitution	108620	108620	C	T
1997-07-27	3	2-1-1	Insertion	108796	108796		G
1997-07-27	3	2-1-1	Substitution	108844	108844	G	C
1997-07-27	3	2-1-1	Deletion	109259	109259	A	
1997-07-27	3	2-1-1	Insertion	111515	111515		T
1997-07-27	3	2-1-1	Substitution	111845	111845	G	TT
1997-07-27	3	2-1-1	Insertion	111861	111861		C
1997-07-27	3	2-1-1	Insertion	111894	111894		T
1997-07-27	3	2-1-1	Substitution	111925	111925	C	G
1997-07-27	3	2-1-1	Substitution	111940	111941	GA	AG
1997-07-27	3	2-1-1	Insertion	111950	111950		T
1997-07-27	3	2-1-1	Substitution	111956	111956	G	T
1997-07-27	3	2-1-1	Insertion	111962	111962		T
1997-07-27	3	2-1-1	Insertion	111965	111965		T
1997-07-27	3	2-1-1	Insertion	111968	111968		T
1997-07-27	3	2-1-1	Insertion	111971	111971		T
1997-07-27	3	2-1-1	Insertion	111973	111973		T
1997-07-27	3	2-1-1	Insertion	111977	111977		T
1997-07-27	3	2-1-1	Insertion	111980	111980		T
1997-07-27	3	2-1-1	Insertion	112017	112017		G
1997-07-27	3	2-1-1	Insertion	112065	112065		C
1997-07-27	3	2-1-1	Deletion	112490	112490	C	
1997-07-27	3	2-1-1	Deletion	112497	112497	C	
1997-07-27	3	2-1-1	Deletion	112529	112529	T	
1997-07-27	3	2-1-1	Deletion	112531	112532	CA	
1997-07-27	3	2-1-1	Deletion	112872	112872	C	
1997-07-27	3	2-1-1	Substitution	163027	163027	G	A
1997-07-27	3	2-1-1	Substitution	163256	163256	A	G
1997-07-27	3	2-1-1	Deletion	173207	173207	G	
1997-07-27	3	2-1-1	Substitution	219173	219173	G	A
1997-07-27	3	2-1-1	Deletion	220245	220245	T	
1997-07-27	3	2-1-1	Deletion	221416	221416	G	
1997-07-27	3	2-1-1	Deletion	221663	221663	C	
1997-07-27	3	2-1-1	Insertion	237282	237282		C
1997-07-27	3	2-1-1	Insertion	253494	253494		A
1997-07-27	3	2-1-1	Insertion	253510	253510		A
1997-07-27	3	2-1-1	Substitution	253651	253651	C	G
1998-02-26	3	5-1-1	Substitution	6608	6608	A	G
1998-02-26	3	5-1-1	Substitution	6718	6718	A	G
1998-02-26	3	5-1-1	Substitution	6738	6738	T	C
1998-02-26	3	5-1-1	Substitution	6872	6872	C	T
1998-02-26	3	5-1-1	Substitution	6884	6884	T	C
1998-02-26	3	5-1-1	Substitution	6921	6921	A	G
1998-02-26	3	5-1-1	Substitution	7016	7016	G	A
1998-02-26	3	5-1-1	Substitution	7100	7100	C	T
1998-02-26	3	5-1-1	Insertion	17606	17606		C
1998-02-26	3	5-1-1	Insertion	17831	17831		C
1998-02-26	3	5-1-1	Insertion	19443	19443		T
1998-02-26	3	5-1-1	Deletion	19494	19494	G	
1998-02-26	3	5-1-1	Deletion	19500	19500	G	
1998-02-26	3	5-1-1	Deletion	19507	19507	G	
1998-02-26	3	5-1-1	Deletion	20326	20326	T	
1998-02-26	3	5-1-1	Deletion	20421	20421	T	
1998-02-26	3	5-1-1	Insertion	21562	21562		C
1998-02-26	3	5-1-1	Insertion	33604	33604		A
1998-02-26	3	5-1-1	Insertion	33665	33665		G
1998-02-26	3	5-1-1	Insertion	33687	33687		A
1998-02-26	3	5-1-1	Substitution	52435	52435	T	C
1998-02-26	3	5-1-1	Substitution	52562	52563	CC	TGG
1998-02-26	3	5-1-1	Substitution	52566	52566	C	G
1998-02-26	3	5-1-1	Substitution	52580	52580	G	A
1998-02-26	3	5-1-1	Substitution	52583	52584	GC	CT
1998-02-26	3	5-1-1	Insertion	52593	52593		G
1998-02-26	3	5-1-1	Insertion	62133	62133		G
1998-02-26	3	5-1-1	Insertion	62135	62135		G
1998-02-26	3	5-1-1	Deletion	81527	81527	C	
1998-02-26	3	5-1-1	Deletion	81746	81746	C	
1998-02-26	3	5-1-1	Deletion	98839	98839	A	
1998-02-26	3	5-1-1	Insertion	100471	100471		G
1998-02-26	3	5-1-1	Deletion	100475	100475	G	
1998-02-26	3	5-1-1	Insertion	100535	100535		G
1998-02-26	3	5-1-1	Deletion	103071	103071	T	
1998-02-26	3	5-1-1	Insertion	103515	103515		T
1998-02-26	3	5-1-1	Insertion	103526	103526		C
1998-02-26	3	5-1-1	Insertion	103537	103537		G
1998-02-26	3	5-1-1	Substitution	104254	104254	C	G
1998-02-26	3	5-1-1	Deletion	105580	105580	T	
1998-02-26	3	5-1-1	Substitution	105937	105938	CC	G
1998-02-26	3	5-1-1	Substitution	105981	105981	G	C
1998-02-26	3	5-1-1	Insertion	106343	106343		C
1998-02-26	3	5-1-1	Deletion	106402	106402	A	
1998-02-26	3	5-1-1	Insertion	106429	106429		C
1998-02-26	3	5-1-1	Substitution	108615	108615	T	C
1998-02-26	3	5-1-1	Deletion	108792	108792	G	
1998-02-26	3	5-1-1	Substitution	108840	108840	C	G
1998-02-26	3	5-1-1	Insertion	109254	109254		A
1998-02-26	3	5-1-1	Deletion	111511	111511	T	
1998-02-26	3	5-1-1	Substitution	111841	111842	TT	G
1998-02-26	3	5-1-1	Deletion	111859	111859	C	
1998-02-26	3	5-1-1	Deletion	111893	111893	T	
1998-02-26	3	5-1-1	Substitution	111924	111924	G	C
1998-02-26	3	5-1-1	Substitution	111939	111940	AG	GA
1998-02-26	3	5-1-1	Deletion	111950	111950	T	
1998-02-26	3	5-1-1	Substitution	111956	111956	T	G
1998-02-26	3	5-1-1	Deletion	111963	111963	T	
1998-02-26	3	5-1-1	Deletion	111967	111967	T	
1998-02-26	3	5-1-1	Deletion	111971	111971	T	
1998-02-26	3	5-1-1	Deletion	111975	111975	T	
1998-02-26	3	5-1-1	Deletion	111978	111978	T	
1998-02-26	3	5-1-1	Deletion	111983	111983	T	
1998-02-26	3	5-1-1	Deletion	111987	111987	T	
1998-02-26	3	5-1-1	Deletion	112025	112025	G	
1998-02-26	3	5-1-1	Deletion	112074	112074	C	
1998-02-26	3	5-1-1	Insertion	112498	112498		C
1998-02-26	3	5-1-1	Insertion	112504	112504		C
1998-02-26	3	5-1-1	Insertion	112535	112535		T
1998-02-26	3	5-1-1	Insertion	112536	112536		CA
1998-02-26	3	5-1-1	Insertion	112875	112875		C
1998-02-26	3	5-1-1	Substitution	163030	163030	A	G
1998-02-26	3	5-1-1	Substitution	163259	163259	G	A
1998-02-26	3	5-1-1	Insertion	173209	173209		G
1998-02-26	3	5-1-1	Substitution	219175	219175	A	G
1998-02-26	3	5-1-1	Insertion	220246	220246		T
1998-02-26	3	5-1-1	Insertion	221416	221416		G
1998-02-26	3	5-1-1	Insertion	221662	221662		C
1998-02-26	3	5-1-1	Deletion	237282	237282	C	
1998-02-26	3	5-1-1	Deletion	253495	253495	A	
1998-02-26	3	5-1-1	Deletion	253512	253512	A	
1998-02-26	3	5-1-1	Substitution	253653	253653	G	C
2000-09-13	3	16-1-1	Substitution	459	459	G	C
2000-09-13	3	16-1-1	Insertion	770	770		C
2000-09-13	3	16-1-1	Insertion	783	783		C
2000-09-13	3	16-1-1	Insertion	784	784		C
2000-09-13	3	16-1-1	Insertion	786	786		C
2000-09-13	3	16-1-1	Insertion	814	814		A
2000-09-13	3	16-1-1	Insertion	838	838		AC
2000-09-13	3	16-1-1	Insertion	1435	1435		C
2000-09-13	3	16-1-1	Substitution	3069	3069	G	C
2000-09-13	3	16-1-1	Substitution	3209	3209	A	T
2000-09-13	3	16-1-1	Substitution	3538	3538	C	T
2000-09-13	3	16-1-1	Substitution	3551	3551	G	T
2000-09-13	3	16-1-1	Substitution	3601	3601	C	A
2000-09-13	3	16-1-1	Substitution	3858	3858	C	A
2000-09-13	3	16-1-1	Substitution	5394	5394	A	G
2000-09-13	3	16-1-1	Deletion	5398	5398	A	
2000-09-13	3	16-1-1	Deletion	5401	5401	C	
2000-09-13	3	16-1-1	Deletion	5403	5406	AGGA	
2000-09-13	3	16-1-1	Deletion	5408	5408	T	
2000-09-13	3	16-1-1	Deletion	5432	5435	CATC	
2000-09-13	3	16-1-1	Deletion	5437	5437	C	
2000-09-13	3	16-1-1	Substitution	5443	5443	C	T
2000-09-13	3	16-1-1	Substitution	5468	5468	T	G
2000-09-13	3	16-1-1	Substitution	5475	5475	A	G
2000-09-13	3	16-1-1	Substitution	5478	5478	T	C
2000-09-13	3	16-1-1	Substitution	5486	5486	T	C
2000-09-13	3	16-1-1	Substitution	5492	5492	A	T
2000-09-13	3	16-1-1	Substitution	5524	5524	C	A
2000-09-13	3	16-1-1	Deletion	5615	5615	G	
2000-09-13	3	16-1-1	Substitution	5631	5631	T	C
2000-09-13	3	16-1-1	Substitution	5634	5634	C	T
2000-09-13	3	16-1-1	Substitution	5638	5638	T	C
2000-09-13	3	16-1-1	Substitution	5683	5683	C	T
2000-09-13	3	16-1-1	Substitution	5833	5833	C	T
2000-09-13	3	16-1-1	Substitution	5909	5909	T	C
2000-09-13	3	16-1-1	Substitution	5980	5980	G	A
2000-09-13	3	16-1-1	Substitution	5990	5990	G	A
2000-09-13	3	16-1-1	Substitution	6006	6006	C	T
2000-09-13	3	16-1-1	Substitution	6014	6014	T	C
2000-09-13	3	16-1-1	Substitution	6055	6055	C	G
2000-09-13	3	16-1-1	Substitution	6090	6090	T	C
2000-09-13	3	16-1-1	Substitution	6098	6098	C	T
2000-09-13	3	16-1-1	Substitution	6164	6164	T	A
2000-09-13	3	16-1-1	Substitution	6195	6195	T	C
2000-09-13	3	16-1-1	Substitution	6226	6226	A	G
2000-09-13	3	16-1-1	Substitution	6231	6231	T	G
2000-09-13	3	16-1-1	Insertion	6248	6248		TCTTTACCGACGCTGAG
2000-09-13	3	16-1-1	Substitution	6255	6256	GT	CC
2000-09-13	3	16-1-1	Substitution	6261	6261	T	C
2000-09-13	3	16-1-1	Substitution	6267	6267	T	C
2000-09-13	3	16-1-1	Substitution	6279	6279	C	T
2000-09-13	3	16-1-1	Substitution	6281	6281	T	G
2000-09-13	3	16-1-1	Substitution	6315	6315	A	C
2000-09-13	3	16-1-1	Substitution	6325	6325	A	G
2000-09-13	3	16-1-1	Substitution	6377	6377	A	G
2000-09-13	3	16-1-1	Substitution	6389	6389	A	G
2000-09-13	3	16-1-1	Substitution	6391	6391	A	G
2000-09-13	3	16-1-1	Substitution	6398	6398	C	T
2000-09-13	3	16-1-1	Substitution	6433	6433	T	A
2000-09-13	3	16-1-1	Substitution	6443	6443	T	G
2000-09-13	3	16-1-1	Deletion	6444	6446	TTT	
2000-09-13	3	16-1-1	Substitution	6466	6466	A	G
2000-09-13	3	16-1-1	Substitution	6480	6480	G	A
2000-09-13	3	16-1-1	Substitution	6484	6484	C	T
2000-09-13	3	16-1-1	Substitution	6490	6490	C	T
2000-09-13	3	16-1-1	Substitution	6504	6504	T	C
2000-09-13	3	16-1-1	Substitution	6533	6533	G	A
2000-09-13	3	16-1-1	Substitution	6968	6968	G	A
2000-09-13	3	16-1-1	Substitution	7415	7415	T	C
2000-09-13	3	16-1-1	Substitution	7445	7445	A	G
2000-09-13	3	16-1-1	Substitution	7451	7451	A	G
2000-09-13	3	16-1-1	Substitution	7778	7778	T	C
2000-09-13	3	16-1-1	Substitution	7943	7943	C	T
2000-09-13	3	16-1-1	Substitution	7997	7997	C	T
2000-09-13	3	16-1-1	Substitution	8344	8344	T	C
2000-09-13	3	16-1-1	Deletion	8365	8366	TT	
2000-09-13	3	16-1-1	Substitution	8521	8521	C	T
2000-09-13	3	16-1-1	Substitution	8535	8535	C	T
2000-09-13	3	16-1-1	Substitution	8577	8577	T	A
2000-09-13	3	16-1-1	Insertion	8585	8585		AAA
2000-09-13	3	16-1-1	Substitution	8675	8675	T	C
2000-09-13	3	16-1-1	Substitution	8686	8686	A	G
2000-09-13	3	16-1-1	Substitution	8733	8733	T	C
2000-09-13	3	16-1-1	Substitution	8764	8764	C	T
2000-09-13	3	16-1-1	Substitution	12049	12049	G	C
2000-09-13	3	16-1-1	Deletion	12268	12268	T	
2000-09-13	3	16-1-1	Insertion	12340	12340		AT
2000-09-13	3	16-1-1	Substitution	13811	13811	C	G
2000-09-13	3	16-1-1	Deletion	15918	15918	T	
2000-09-13	3	16-1-1	Insertion	15921	15921		C
2000-09-13	3	16-1-1	Substitution	16068	16068	G	T
2000-09-13	3	16-1-1	Substitution	16970	16970	A	T
2000-09-13	3	16-1-1	Substitution	16992	16992	A	T
2000-09-13	3	16-1-1	Insertion	17026	17026		T
2000-09-13	3	16-1-1	Insertion	17035	17035		TA
2000-09-13	3	16-1-1	Insertion	17045	17045		G
2000-09-13	3	16-1-1	Substitution	17067	17067	A	G
2000-09-13	3	16-1-1	Insertion	17079	17079		C
2000-09-13	3	16-1-1	Insertion	17185	17185		T
2000-09-13	3	16-1-1	Deletion	21801	21801	C	
2000-09-13	3	16-1-1	Insertion	21911	21911		T
2000-09-13	3	16-1-1	Substitution	21923	21923	T	G
2000-09-13	3	16-1-1	Substitution	30504	30505	GT	TG
2000-09-13	3	16-1-1	Insertion	35506	35506		A
2000-09-13	3	16-1-1	Insertion	35568	35568		A
2000-09-13	3	16-1-1	Insertion	35570	35570		T
2000-09-13	3	16-1-1	Insertion	35577	35577		T
2000-09-13	3	16-1-1	Substitution	37374	37374	A	G
2000-09-13	3	16-1-1	Substitution	37463	37463	T	C
2000-09-13	3	16-1-1	Substitution	37504	37504	G	A
2000-09-13	3	16-1-1	Insertion	37547	37547		A
2000-09-13	3	16-1-1	Insertion	37551	37551		A
2000-09-13	3	16-1-1	Insertion	37553	37553		C
2000-09-13	3	16-1-1	Insertion	37579	37579		TT
2000-09-13	3	16-1-1	Substitution	37638	37638	G	A
2000-09-13	3	16-1-1	Substitution	37705	37705	T	C
2000-09-13	3	16-1-1	Deletion	37772	37773	TA	
2000-09-13	3	16-1-1	Substitution	37998	37998	A	G
2000-09-13	3	16-1-1	Substitution	38154	38154	G	A
2000-09-13	3	16-1-1	Substitution	38294	38294	A	G
2000-09-13	3	16-1-1	Substitution	38479	38479	C	T
2000-09-13	3	16-1-1	Substitution	38640	38640	G	A
2000-09-13	3	16-1-1	Substitution	38790	38790	G	T
2000-09-13	3	16-1-1	Substitution	39099	39099	T	A
2000-09-13	3	16-1-1	Substitution	39241	39241	C	T
2000-09-13	3	16-1-1	Substitution	39302	39302	G	T
2000-09-13	3	16-1-1	Substitution	39488	39488	G	A
2000-09-13	3	16-1-1	Substitution	39500	39501	CC	GA
2000-09-13	3	16-1-1	Substitution	39515	39516	AA	TC
2000-09-13	3	16-1-1	Substitution	39528	39528	C	T
2000-09-13	3	16-1-1	Substitution	39583	39583	G	A
2000-09-13	3	16-1-1	Deletion	39622	39622	G	
2000-09-13	3	16-1-1	Substitution	39944	39944	G	A
2000-09-13	3	16-1-1	Substitution	39985	39985	A	G
2000-09-13	3	16-1-1	Substitution	40066	40066	A	G
2000-09-13	3	16-1-1	Substitution	40086	40086	A	C
2000-09-13	3	16-1-1	Substitution	40121	40121	T	C
2000-09-13	3	16-1-1	Substitution	40174	40174	A	T
2000-09-13	3	16-1-1	Insertion	50635	50635		C
2000-09-13	3	16-1-1	Insertion	50657	50657		GG
2000-09-13	3	16-1-1	Substitution	50700	50700	G	C
2000-09-13	3	16-1-1	Substitution	50702	50702	G	C
2000-09-13	3	16-1-1	Insertion	56612	56612		A
2000-09-13	3	16-1-1	Deletion	57043	57043	A	
2000-09-13	3	16-1-1	Insertion	57211	57211		A
2000-09-13	3	16-1-1	Insertion	61789	61789		G
2000-09-13	3	16-1-1	Substitution	67181	67181	C	G
2000-09-13	3	16-1-1	Substitution	69624	69624	C	T
2000-09-13	3	16-1-1	Substitution	69690	69690	G	A
2000-09-13	3	16-1-1	Substitution	69717	69717	T	C
2000-09-13	3	16-1-1	Substitution	70742	70742	A	G
2000-09-13	3	16-1-1	Substitution	70757	70757	T	C
2000-09-13	3	16-1-1	Substitution	70808	70808	T	C
2000-09-13	3	16-1-1	Substitution	71051	71051	C	T
2000-09-13	3	16-1-1	Substitution	71195	71195	A	G
2000-09-13	3	16-1-1	Substitution	71201	71201	C	G
2000-09-13	3	16-1-1	Substitution	71213	71213	A	G
2000-09-13	3	16-1-1	Substitution	71219	71219	T	C
2000-09-13	3	16-1-1	Substitution	71282	71282	T	C
2000-09-13	3	16-1-1	Deletion	71366	71366	C	
2000-09-13	3	16-1-1	Insertion	71408	71408		T
2000-09-13	3	16-1-1	Substitution	71608	71608	A	T
2000-09-13	3	16-1-1	Insertion	71729	71729		T
2000-09-13	3	16-1-1	Substitution	72161	72161	C	T
2000-09-13	3	16-1-1	Substitution	72757	72757	C	T
2000-09-13	3	16-1-1	Substitution	73066	73066	A	G
2000-09-13	3	16-1-1	Substitution	73204	73204	G	A
2000-09-13	3	16-1-1	Substitution	73218	73218	G	A
2000-09-13	3	16-1-1	Substitution	73226	73226	A	T
2000-09-13	3	16-1-1	Insertion	73729	73729		G
2000-09-13	3	16-1-1	Deletion	73948	73948	C	
2000-09-13	3	16-1-1	Substitution	73973	73973	C	T
2000-09-13	3	16-1-1	Substitution	74045	74045	C	T
2000-09-13	3	16-1-1	Substitution	74173	74173	T	C
2000-09-13	3	16-1-1	Substitution	74298	74298	A	C
2000-09-13	3	16-1-1	Substitution	74306	74306	C	G
2000-09-13	3	16-1-1	Substitution	74317	74317	G	A
2000-09-13	3	16-1-1	Substitution	74476	74476	T	C
2000-09-13	3	16-1-1	Substitution	74548	74548	C	T
2000-09-13	3	16-1-1	Insertion	74813	74813		C
2000-09-13	3	16-1-1	Insertion	74935	74935		T
2000-09-13	3	16-1-1	Insertion	74943	74943		T
2000-09-13	3	16-1-1	Substitution	75514	75514	A	G
2000-09-13	3	16-1-1	Substitution	75831	75831	T	C
2000-09-13	3	16-1-1	Insertion	75986	75986		T
2000-09-13	3	16-1-1	Substitution	76114	76115	GG	T
2000-09-13	3	16-1-1	Substitution	76165	76165	T	A
2000-09-13	3	16-1-1	Substitution	76940	76940	A	G
2000-09-13	3	16-1-1	Deletion	77297	77297	A	
2000-09-13	3	16-1-1	Insertion	77320	77320		G
2000-09-13	3	16-1-1	Substitution	77472	77472	G	A
2000-09-13	3	16-1-1	Insertion	78027	78027		A
2000-09-13	3	16-1-1	Insertion	78035	78035		A
2000-09-13	3	16-1-1	Substitution	78400	78400	C	G
2000-09-13	3	16-1-1	Insertion	78402	78402		CC
2000-09-13	3	16-1-1	Insertion	81861	81861		C
2000-09-13	3	16-1-1	Insertion	82662	82662		GTTGGAATAGAAATCAACTATCATCTACTAACTAGTATTTACATTACTAGTATATTATCATATACGGTGTTAGAAGATGACGCAAATGATGAGAAATAGTCATCTAAATTAGTGGAAGCTGAAACGCAAGGATTGATAATGTAATAGGATCAATGAATATAAACATATAAAACGGAATGAGGAATAATCGTAATATTAGTATGTAGAAATATAGATTCCATTTTGAGGATTCCTATATCCTCGAGGAGAACTTCTAGTATATTCTGTATACCTAATATTATAGCCTTTATCAACAATGGAATCCCAACAATTATCTCAACATTCACCCATTTCTCAAGTACT
2000-09-13	3	16-1-1	Substitution	83270	83271	GA	AG
2000-09-13	3	16-1-1	Insertion	83323	83323		A
2000-09-13	3	16-1-1	Insertion	83333	83333		T
2000-09-13	3	16-1-1	Insertion	83337	83337		T
2000-09-13	3	16-1-1	Insertion	83341	83341		T
2000-09-13	3	16-1-1	Substitution	83348	83348	T	AA
2000-09-13	3	16-1-1	Substitution	83352	83352	T	A
2000-09-13	3	16-1-1	Insertion	83354	83354		C
2000-09-13	3	16-1-1	Insertion	83361	83361		GC
2000-09-13	3	16-1-1	Deletion	83955	83955	C	
2000-09-13	3	16-1-1	Substitution	84108	84108	G	A
2000-09-13	3	16-1-1	Insertion	84337	84337		T
2000-09-13	3	16-1-1	Substitution	85235	85235	T	A
2000-09-13	3	16-1-1	Substitution	86092	86093	CG	GC
2000-09-13	3	16-1-1	Substitution	86316	86316	A	T
2000-09-13	3	16-1-1	Substitution	86598	86599	AT	TA
2000-09-13	3	16-1-1	Deletion	87159	87161	CGC	
2000-09-13	3	16-1-1	Insertion	89442	89442		C
2000-09-13	3	16-1-1	Deletion	89452	89452	C	
2000-09-13	3	16-1-1	Substitution	89727	89727	G	A
2000-09-13	3	16-1-1	Substitution	90740	90741	CG	GC
2000-09-13	3	16-1-1	Substitution	91106	91106	C	T
2000-09-13	3	16-1-1	Substitution	91144	91144	T	C
2000-09-13	3	16-1-1	Substitution	91985	91985	G	C
2000-09-13	3	16-1-1	Substitution	93438	93438	A	G
2000-09-13	3	16-1-1	Insertion	93964	93964		C
2000-09-13	3	16-1-1	Deletion	94104	94104	C	
2000-09-13	3	16-1-1	Substitution	94140	94141	AT	TA
2000-09-13	3	16-1-1	Deletion	94143	94143	A	
2000-09-13	3	16-1-1	Deletion	95200	95200	G	
2000-09-13	3	16-1-1	Substitution	96751	96751	C	A
2000-09-13	3	16-1-1	Substitution	97118	97118	C	G
2000-09-13	3	16-1-1	Insertion	99907	99907		C
2000-09-13	3	16-1-1	Deletion	100016	100016	C	
2000-09-13	3	16-1-1	Insertion	101485	101485		A
2000-09-13	3	16-1-1	Insertion	101506	101506		T
2000-09-13	3	16-1-1	Substitution	101542	101542	A	T
2000-09-13	3	16-1-1	Substitution	104419	104419	T	C
2000-09-13	3	16-1-1	Insertion	105585	105585		T
2000-09-13	3	16-1-1	Insertion	107522	107522		A
2000-09-13	3	16-1-1	Deletion	107595	107595	T	
2000-09-13	3	16-1-1	Insertion	107612	107612		G
2000-09-13	3	16-1-1	Deletion	107739	107739	A	
2000-09-13	3	16-1-1	Insertion	107745	107745		G
2000-09-13	3	16-1-1	Insertion	107767	107767		G
2000-09-13	3	16-1-1	Insertion	107769	107769		G
2000-09-13	3	16-1-1	Insertion	107780	107780		G
2000-09-13	3	16-1-1	Deletion	108385	108385	A	
2000-09-13	3	16-1-1	Substitution	108457	108457	G	C
2000-09-13	3	16-1-1	Deletion	109930	109930	C	
2000-09-13	3	16-1-1	Deletion	109996	109996	C	
2000-09-13	3	16-1-1	Insertion	110100	110100		G
2000-09-13	3	16-1-1	Insertion	110286	110286		TCTAT
2000-09-13	3	16-1-1	Substitution	110330	110331	GA	AG
2000-09-13	3	16-1-1	Deletion	110557	110557	A	
2000-09-13	3	16-1-1	Deletion	111325	111325	C	
2000-09-13	3	16-1-1	Insertion	113232	113232		AG
2000-09-13	3	16-1-1	Insertion	113920	113920		G
2000-09-13	3	16-1-1	Substitution	120772	120772	A	G
2000-09-13	3	16-1-1	Insertion	127750	127750		C
2000-09-13	3	16-1-1	Insertion	132954	132954		G
2000-09-13	3	16-1-1	Substitution	136317	136317	C	T
2000-09-13	3	16-1-1	Substitution	136388	136388	C	T
2000-09-13	3	16-1-1	Substitution	136620	136620	C	T
2000-09-13	3	16-1-1	Substitution	137641	137642	GC	CG
2000-09-13	3	16-1-1	Substitution	139087	139087	G	T
2000-09-13	3	16-1-1	Substitution	139180	139180	G	C
2000-09-13	3	16-1-1	Substitution	139624	139624	A	G
2000-09-13	3	16-1-1	Substitution	139720	139720	T	C
2000-09-13	3	16-1-1	Substitution	140021	140021	T	C
2000-09-13	3	16-1-1	Substitution	140029	140029	A	G
2000-09-13	3	16-1-1	Substitution	140065	140065	C	T
2000-09-13	3	16-1-1	Substitution	140388	140389	TA	CC
2000-09-13	3	16-1-1	Substitution	140577	140577	C	T
2000-09-13	3	16-1-1	Substitution	140692	140692	C	T
2000-09-13	3	16-1-1	Substitution	141089	141089	G	A
2000-09-13	3	16-1-1	Substitution	141398	141398	A	T
2000-09-13	3	16-1-1	Substitution	142098	142098	C	G
2000-09-13	3	16-1-1	Deletion	142154	142154	T	
2000-09-13	3	16-1-1	Insertion	142173	142173		A
2000-09-13	3	16-1-1	Substitution	142178	142178	G	A
2000-09-13	3	16-1-1	Substitution	142186	142186	C	T
2000-09-13	3	16-1-1	Substitution	142202	142202	T	C
2000-09-13	3	16-1-1	Deletion	142279	142281	AAC	
2000-09-13	3	16-1-1	Deletion	142301	142301	A	
2000-09-13	3	16-1-1	Substitution	142382	142382	A	C
2000-09-13	3	16-1-1	Substitution	142388	142388	G	A
2000-09-13	3	16-1-1	Deletion	142397	142498	AAGAAAAGCAAAAAACATATTAGCCGATAATTTCTATTTTATAAGTAAAAACATTGGTGAGATAGTGGTAAAGAGTTAGATAATTATTGGGATTCCATTGTT	
2000-09-13	3	16-1-1	Substitution	143021	143021	A	G
2000-09-13	3	16-1-1	Substitution	143280	143281	GG	CA
2000-09-13	3	16-1-1	Substitution	143330	143330	T	C
2000-09-13	3	16-1-1	Substitution	143548	143548	A	G
2000-09-13	3	16-1-1	Substitution	143830	143830	T	C
2000-09-13	3	16-1-1	Substitution	143973	143973	G	A
2000-09-13	3	16-1-1	Substitution	144137	144137	T	C
2000-09-13	3	16-1-1	Substitution	144253	144253	G	A
2000-09-13	3	16-1-1	Substitution	144420	144420	G	A
2000-09-13	3	16-1-1	Substitution	144722	144722	T	C
2000-09-13	3	16-1-1	Substitution	144760	144760	G	A
2000-09-13	3	16-1-1	Substitution	145378	145378	T	C
2000-09-13	3	16-1-1	Substitution	145440	145440	C	T
2000-09-13	3	16-1-1	Substitution	145693	145693	A	G
2000-09-13	3	16-1-1	Substitution	145975	145975	G	A
2000-09-13	3	16-1-1	Substitution	146125	146125	G	A
2000-09-13	3	16-1-1	Substitution	146175	146175	G	A
2000-09-13	3	16-1-1	Substitution	146354	146354	A	G
2000-09-13	3	16-1-1	Substitution	146473	146473	A	C
2000-09-13	3	16-1-1	Substitution	146654	146654	T	C
2000-09-13	3	16-1-1	Substitution	147292	147292	G	A
2000-09-13	3	16-1-1	Substitution	147587	147587	T	C
2000-09-13	3	16-1-1	Substitution	147746	147746	C	T
2000-09-13	3	16-1-1	Substitution	147840	147840	A	C
2000-09-13	3	16-1-1	Deletion	147959	147959	A	
2000-09-13	3	16-1-1	Substitution	147977	147977	C	T
2000-09-13	3	16-1-1	Substitution	148293	148293	A	G
2000-09-13	3	16-1-1	Substitution	148295	148295	A	T
2000-09-13	3	16-1-1	Insertion	151794	151794		A
2000-09-13	3	16-1-1	Substitution	151974	151974	C	T
2000-09-13	3	16-1-1	Substitution	152172	152172	A	G
2000-09-13	3	16-1-1	Substitution	152251	152251	G	A
2000-09-13	3	16-1-1	Substitution	155664	155664	A	G
2000-09-13	3	16-1-1	Deletion	155666	155668	TGA	
2000-09-13	3	16-1-1	Deletion	155675	155676	GT	
2000-09-13	3	16-1-1	Substitution	159255	159255	T	A
2000-09-13	3	16-1-1	Substitution	159397	159397	T	C
2000-09-13	3	16-1-1	Substitution	159753	159753	T	C
2000-09-13	3	16-1-1	Substitution	159827	159827	T	C
2000-09-13	3	16-1-1	Substitution	160129	160129	G	T
2000-09-13	3	16-1-1	Substitution	160135	160135	T	C
2000-09-13	3	16-1-1	Substitution	160291	160291	A	G
2000-09-13	3	16-1-1	Substitution	161457	161457	T	G
2000-09-13	3	16-1-1	Substitution	163407	163407	G	T
2000-09-13	3	16-1-1	Substitution	163465	163465	G	T
2000-09-13	3	16-1-1	Substitution	163524	163524	A	G
2000-09-13	3	16-1-1	Substitution	163801	163801	A	G
2000-09-13	3	16-1-1	Substitution	163957	163957	T	G
2000-09-13	3	16-1-1	Substitution	163985	163985	G	A
2000-09-13	3	16-1-1	Substitution	164308	164308	G	A
2000-09-13	3	16-1-1	Substitution	164991	164991	A	G
2000-09-13	3	16-1-1	Substitution	165115	165115	C	A
2000-09-13	3	16-1-1	Deletion	165146	165148	GTC	
2000-09-13	3	16-1-1	Substitution	165304	165304	T	C
2000-09-13	3	16-1-1	Substitution	165417	165417	T	C
2000-09-13	3	16-1-1	Substitution	165693	165693	G	A
2000-09-13	3	16-1-1	Substitution	165731	165731	C	T
2000-09-13	3	16-1-1	Substitution	165958	165958	G	A
2000-09-13	3	16-1-1	Substitution	166125	166125	A	G
2000-09-13	3	16-1-1	Substitution	166292	166292	G	A
2000-09-13	3	16-1-1	Substitution	166359	166359	G	A
2000-09-13	3	16-1-1	Substitution	166424	166424	G	A
2000-09-13	3	16-1-1	Substitution	166449	166449	C	T
2000-09-13	3	16-1-1	Deletion	166730	166730	A	
2000-09-13	3	16-1-1	Deletion	166754	166755	AG	
2000-09-13	3	16-1-1	Substitution	166780	166780	A	G
2000-09-13	3	16-1-1	Substitution	167438	167438	C	T
2000-09-13	3	16-1-1	Substitution	167813	167813	G	A
2000-09-13	3	16-1-1	Substitution	167958	167958	A	G
2000-09-13	3	16-1-1	Substitution	168100	168100	G	ATATTTTGTATCTCAAAATGAGGTATGTCAGTATGACAATACGTCATCCTAAACGTTCATAAAACACATATGAAACAACCTTATAACAAAACGAACAACATGAGATAAAACCCGGCCTTCCCTAGCTGAACTACCCAAAAGTATAAATGCCTGAACAATTAGTTTAGATCCGAGATTCCGCGCTTCCACCACTTAGTATGATTCATATTTTATATGAGAAATGGGTGAATGTTGAGATAATTGTTGGGATTCCATTGTTGATAAAGGCTATAATATTAGGTATACAGAATATACTAGAAGTTCTCCTCGAGGATTTAGGAATCCATAAAAGGGAATCTGCAATTCTACACAATTCTATAAATATTATTATCATCGTTTTATATGTTAATATTCATTGATCCTATTACATTATCAATCCTTGCGTTTCAGCTTCCACTAATTTAGATGACTATTTCTCATCATTTGCGTCATCTTCTAACACCGTATATGATAATATACTAGTAACGTAAATACTAGTTAGTAGATGATAGTTGATTTTTATTCCAACATTATATAATATATAAGATAAGTAACATTCCGTGAATTAATCTGATAAACTGTTTTGACAACTGGTTACTTCCCTAAGACTGTTTATATTAGGATTGTCAAGACACTCCGGTATTACTCGAGCCCGTAATACAACATAA
2000-09-13	3	16-1-1	Substitution	168105	168105	A	T
2000-09-13	3	16-1-1	Substitution	168108	168108	G	A
2000-09-13	3	16-1-1	Substitution	168120	168120	A	G
2000-09-13	3	16-1-1	Substitution	168152	168152	T	A
2000-09-13	3	16-1-1	Substitution	168191	168191	G	A
2000-09-13	3	16-1-1	Substitution	168225	168225	G	A
2000-09-13	3	16-1-1	Insertion	168230	168230		CTATTTGTTGGAATAAAAATCCACTATCGTCTATCAACTAATAGTTATATTATCAATATATTATCATATACGGTGTTAAGATGATGACATAAGTTATGAGAAGCTGTCATCGATGTTAGAGGAAGCTGAAACGCAAGGATTGATAATGTAATAGGATCAATGAATATAAACATATAAAACGGAATGAGGAATAATCGTAATATTAGTATGTAGAAATATAGATTCCATTTTGAGGATTCCTATATCCTCGAGGAGAACTTCTAGTATATTCTGTATACCTAATATTATAGCCTTTATCAACAATGGAATCCCAACAATTATCTAATTACCCACACATTTCTCA
2000-09-13	3	16-1-1	Substitution	168256	168256	C	T
2000-09-13	3	16-1-1	Deletion	168331	168335	AGGTG	
2000-09-13	3	16-1-1	Substitution	168368	168368	C	A
2000-09-13	3	16-1-1	Substitution	168442	168442	T	G
2000-09-13	3	16-1-1	Substitution	168465	168465	C	G
2000-09-13	3	16-1-1	Substitution	168541	168541	C	G
2000-09-13	3	16-1-1	Substitution	168682	168682	T	C
2000-09-13	3	16-1-1	Substitution	168685	168685	T	C
2000-09-13	3	16-1-1	Substitution	168787	168787	A	G
2000-09-13	3	16-1-1	Substitution	168881	168881	C	T
2000-09-13	3	16-1-1	Insertion	168933	168933		A
2000-09-13	3	16-1-1	Substitution	168967	168967	C	T
2000-09-13	3	16-1-1	Substitution	169071	169071	G	A
2000-09-13	3	16-1-1	Insertion	169110	169110		A
2000-09-13	3	16-1-1	Substitution	169250	169250	G	A
2000-09-13	3	16-1-1	Substitution	169259	169259	T	C
2000-09-13	3	16-1-1	Substitution	169337	169337	G	C
2000-09-13	3	16-1-1	Substitution	169454	169454	G	A
2000-09-13	3	16-1-1	Substitution	169575	169575	T	C
2000-09-13	3	16-1-1	Substitution	169686	169686	C	T
2000-09-13	3	16-1-1	Substitution	169896	169896	T	G
2000-09-13	3	16-1-1	Substitution	170253	170253	A	G
2000-09-13	3	16-1-1	Substitution	170309	170309	G	A
2000-09-13	3	16-1-1	Substitution	170781	170781	G	A
2000-09-13	3	16-1-1	Substitution	170811	170811	A	G
2000-09-13	3	16-1-1	Substitution	170814	170814	T	C
2000-09-13	3	16-1-1	Substitution	170931	170931	C	G
2000-09-13	3	16-1-1	Substitution	171051	171051	T	C
2000-09-13	3	16-1-1	Substitution	171315	171315	T	C
2000-09-13	3	16-1-1	Substitution	171364	171364	C	G
2000-09-13	3	16-1-1	Deletion	171513	171513	T	
2000-09-13	3	16-1-1	Deletion	171661	171696	TTCTTGGCCCTCAGCATTTTCTTGGCCCTCAGCATT	
2000-09-13	3	16-1-1	Substitution	171856	171856	T	G
2000-09-13	3	16-1-1	Substitution	172172	172172	A	T
2000-09-13	3	16-1-1	Insertion	172287	172287		T
2000-09-13	3	16-1-1	Substitution	172290	172290	C	T
2000-09-13	3	16-1-1	Substitution	172366	172366	A	T
2000-09-13	3	16-1-1	Substitution	172578	172578	A	G
2000-09-13	3	16-1-1	Insertion	172671	172671		G
2000-09-13	3	16-1-1	Deletion	172674	172674	G	
2000-09-13	3	16-1-1	Substitution	172693	172693	G	A
2000-09-13	3	16-1-1	Substitution	174084	174084	C	T
2000-09-13	3	16-1-1	Substitution	174294	174294	C	T
2000-09-13	3	16-1-1	Substitution	175572	175573	CG	GC
2000-09-13	3	16-1-1	Insertion	175724	175724		A
2000-09-13	3	16-1-1	Substitution	176015	176015	C	T
2000-09-13	3	16-1-1	Substitution	176049	176049	G	A
2000-09-13	3	16-1-1	Substitution	176123	176123	A	G
2000-09-13	3	16-1-1	Substitution	176423	176423	C	T
2000-09-13	3	16-1-1	Substitution	176452	176452	T	C
2000-09-13	3	16-1-1	Substitution	176781	176781	T	A
2000-09-13	3	16-1-1	Deletion	177003	177004	AA	
2000-09-13	3	16-1-1	Substitution	177093	177093	A	G
2000-09-13	3	16-1-1	Substitution	177166	177166	T	G
2000-09-13	3	16-1-1	Deletion	177189	177190	AA	
2000-09-13	3	16-1-1	Substitution	177328	177328	T	G
2000-09-13	3	16-1-1	Substitution	177800	177801	CA	AC
2000-09-13	3	16-1-1	Deletion	178236	178236	A	
2000-09-13	3	16-1-1	Substitution	178761	178761	C	T
2000-09-13	3	16-1-1	Substitution	178856	178856	A	G
2000-09-13	3	16-1-1	Substitution	179030	179030	A	G
2000-09-13	3	16-1-1	Substitution	179446	179446	G	A
2000-09-13	3	16-1-1	Substitution	179509	179509	A	G
2000-09-13	3	16-1-1	Substitution	179802	179802	C	T
2000-09-13	3	16-1-1	Substitution	180194	180194	A	G
2000-09-13	3	16-1-1	Substitution	180249	180249	C	T
2000-09-13	3	16-1-1	Substitution	180312	180312	A	G
2000-09-13	3	16-1-1	Substitution	180366	180366	C	T
2000-09-13	3	16-1-1	Substitution	180414	180414	G	A
2000-09-13	3	16-1-1	Substitution	181159	181159	A	G
2000-09-13	3	16-1-1	Substitution	181383	181383	A	C
2000-09-13	3	16-1-1	Substitution	181660	181660	G	C
2000-09-13	3	16-1-1	Substitution	182114	182114	T	C
2000-09-13	3	16-1-1	Substitution	182364	182364	T	C
2000-09-13	3	16-1-1	Substitution	182862	182862	C	T
2000-09-13	3	16-1-1	Substitution	183603	183603	A	C
2000-09-13	3	16-1-1	Substitution	183669	183669	T	C
2000-09-13	3	16-1-1	Substitution	183870	183870	T	C
2000-09-13	3	16-1-1	Substitution	184086	184086	T	C
2000-09-13	3	16-1-1	Substitution	184197	184197	A	G
2000-09-13	3	16-1-1	Substitution	184287	184287	G	A
2000-09-13	3	16-1-1	Substitution	184290	184290	A	G
2000-09-13	3	16-1-1	Substitution	184565	184565	C	A
2000-09-13	3	16-1-1	Substitution	184599	184599	A	G
2000-09-13	3	16-1-1	Substitution	184616	184616	G	A
2000-09-13	3	16-1-1	Substitution	184757	184757	G	C
2000-09-13	3	16-1-1	Substitution	184835	184835	C	T
2000-09-13	3	16-1-1	Substitution	184926	184926	A	G
2000-09-13	3	16-1-1	Substitution	184966	184966	A	T
2000-09-13	3	16-1-1	Substitution	186130	186130	A	G
2000-09-13	3	16-1-1	Substitution	186341	186341	A	G
2000-09-13	3	16-1-1	Substitution	186384	186384	A	G
2000-09-13	3	16-1-1	Substitution	186429	186429	T	A
2000-09-13	3	16-1-1	Substitution	186465	186465	T	C
2000-09-13	3	16-1-1	Substitution	186521	186521	C	T
2000-09-13	3	16-1-1	Substitution	186541	186541	G	A
2000-09-13	3	16-1-1	Substitution	186582	186582	A	G
2000-09-13	3	16-1-1	Substitution	186661	186661	A	G
2000-09-13	3	16-1-1	Substitution	186792	186792	G	A
2000-09-13	3	16-1-1	Substitution	186931	186931	T	C
2000-09-13	3	16-1-1	Substitution	186975	186975	A	G
2000-09-13	3	16-1-1	Substitution	187147	187147	T	C
2000-09-13	3	16-1-1	Substitution	187293	187293	C	T
2000-09-13	3	16-1-1	Substitution	187431	187431	G	C
2000-09-13	3	16-1-1	Substitution	187515	187515	T	G
2000-09-13	3	16-1-1	Substitution	187633	187633	A	C
2000-09-13	3	16-1-1	Substitution	187683	187683	T	C
2000-09-13	3	16-1-1	Substitution	187708	187708	A	G
2000-09-13	3	16-1-1	Substitution	187754	187754	A	G
2000-09-13	3	16-1-1	Substitution	187769	187769	C	A
2000-09-13	3	16-1-1	Substitution	187781	187781	G	C
2000-09-13	3	16-1-1	Substitution	187787	187787	G	A
2000-09-13	3	16-1-1	Substitution	190661	190661	T	C
2000-09-13	3	16-1-1	Substitution	191444	191444	A	C
2000-09-13	3	16-1-1	Substitution	191795	191795	G	A
2000-09-13	3	16-1-1	Substitution	191836	191836	A	C
2000-09-13	3	16-1-1	Substitution	192329	192329	T	C
2000-09-13	3	16-1-1	Substitution	192557	192557	A	G
2000-09-13	3	16-1-1	Substitution	192927	192927	T	C
2000-09-13	3	16-1-1	Substitution	195060	195060	T	C
2000-09-13	3	16-1-1	Substitution	195701	195701	G	A
2000-09-13	3	16-1-1	Substitution	196035	196035	C	T
2000-09-13	3	16-1-1	Substitution	196266	196266	C	T
2000-09-13	3	16-1-1	Substitution	196838	196839	CA	AC
2000-09-13	3	16-1-1	Substitution	197077	197077	G	A
2000-09-13	3	16-1-1	Substitution	197810	197810	A	G
2000-09-13	3	16-1-1	Substitution	197950	197950	G	C
2000-09-13	3	16-1-1	Deletion	198169	198169	T	
2000-09-13	3	16-1-1	Deletion	204348	204348	T	
2000-09-13	3	16-1-1	Insertion	212559	212559		C
2000-09-13	3	16-1-1	Substitution	219173	219173	G	A
2000-09-13	3	16-1-1	Insertion	222085	222085		T
2000-09-13	3	16-1-1	Substitution	223942	223942	C	T
2000-09-13	3	16-1-1	Substitution	225653	225673	AAATTCTCACCGGCCCCAAGG	CGCGTTTATGTTCATAGGAACCGGAT
2000-09-13	3	16-1-1	Insertion	227805	227805		C
2000-09-13	3	16-1-1	Deletion	229501	229501	A	
2000-09-13	3	16-1-1	Deletion	229749	229749	T	
2000-09-13	3	16-1-1	Deletion	230014	230014	T	
2000-09-13	3	16-1-1	Insertion	235421	235421		C
2000-09-13	3	16-1-1	Deletion	235515	235515	T	
2000-09-13	3	16-1-1	Insertion	236904	236904		C
2000-09-13	3	16-1-1	Insertion	238910	238910		A
2000-09-13	3	16-1-1	Insertion	239394	239394		C
2000-09-13	3	16-1-1	Substitution	239746	239746	T	C
2000-09-13	3	16-1-1	Deletion	241455	241455	G	
2000-09-13	3	16-1-1	Substitution	246199	246199	T	C
2000-09-13	3	16-1-1	Insertion	246726	246726		AT
2000-09-13	3	16-1-1	Deletion	249237	249237	G	
2000-09-13	3	16-1-1	Insertion	249242	249242		T
2000-09-13	3	16-1-1	Deletion	250109	250111	AAG	
2000-09-13	3	16-1-1	Insertion	252813	252813		G
2000-09-13	3	16-1-1	Insertion	252844	252844		C
2000-09-13	3	16-1-1	Insertion	252912	252912		G
2000-09-13	3	16-1-1	Substitution	265773	265773	A	G
2000-09-13	3	16-1-1	Substitution	268390	268390	A	T
2000-09-13	3	16-1-1	Substitution	269261	269262	TT	AA
2000-09-13	3	16-1-1	Substitution	274147	274147	G	A
2000-09-13	3	16-1-1	Insertion	275195	275195		C
2000-09-13	3	16-1-1	Substitution	282731	282731	C	T
2000-09-13	3	16-1-1	Insertion	304543	304543		A
2000-09-13	3	16-1-1	Insertion	304740	304740		A
2000-09-13	3	16-1-1	Insertion	305908	305908		C
2000-09-13	3	16-1-1	Insertion	305943	305943		G
2000-09-13	3	16-1-1	Substitution	306173	306173	G	T
2000-09-13	3	16-1-1	Deletion	307323	307323	T	
2000-09-13	3	16-1-1	Substitution	309312	309312	G	A
2000-09-13	3	16-1-1	Substitution	312725	312725	T	A
2004-02-18	3	38-1-1	Deletion	105970	105970	T	
2004-02-20	3	38-1-1	Insertion	101461	101461		T
2004-02-20	3	38-1-1	Insertion	101615	101615		G
2004-02-20	3	38-1-1	Insertion	101648	101648		A
2004-02-20	3	38-1-1	Insertion	101692	101692		A
2006-01-12	3	51-1-1	Insertion	76147	76147		G
2011-02-03	3	64-1-1	Substitution	101652	101652	A	T
2011-02-03	3	64-1-1	Substitution	101655	101655	T	A
2011-02-03	3	64-1-1	Insertion	110880	110880	 	A
2011-02-03	3	64-1-1	Insertion	111718	111718	 	C
2011-02-03	3	64-1-1	Substitution	152641	152641	G	A
2011-02-03	3	64-1-1	Insertion	155961	155961	 	TG
2011-02-03	3	64-1-1	Substitution	162275	162275	A	G
2011-02-03	3	64-1-1	Substitution	162392	162392	C	G
2011-02-03	3	64-1-1	Deletion	242444	242444	T	
2011-02-03	3	64-1-1	Substitution	250563	250563	A	T
2011-02-03	3	64-1-1	Substitution	275421	275421	A	G
1999-02-09	4	9-1-1	Deletion	368211	368255	CATTACTGAGTCAATGCTTGATGCAAAAGATGATGATACCAGCAT	
2000-04-06	4	15-1-1	Substitution	1400863	1400863	T	C
2002-12-17	4	21-1-1	Deletion	1117105	1117105	G	
2002-12-17	4	21-1-1	Deletion	1437732	1437747	GATCCTCCTTGATTTT	
2003-09-30	4	27-1-1	Insertion	1409510	1409510		G
2003-09-30	4	27-1-1	Insertion	1409656	1409656		C
2004-02-06	4	36-1-1	Deletion	1192051	1192051	A	
2004-02-11	4	37-1-1	Insertion	235713	235713		A
2004-02-11	4	37-1-1	Substitution	462037	462037	A	C
2004-07-21	4	42-1-1	Insertion	819479	819479		G
2004-07-22	4	42-1-1	Insertion	503841	503841		G
2006-01-19	4	52-1-1	Insertion	613206	613206		G
2006-04-13	4	53-1-1	Insertion	478023	478023		C
2008-06-05	4	61-1-1	Insertion	382381	382381		G
2011-02-03	4	64-1-1	Substitution	24415	24415	C	A
2011-02-03	4	64-1-1	Substitution	27070	27070	C	T
2011-02-03	4	64-1-1	Substitution	30786	30786	G	A
2011-02-03	4	64-1-1	Deletion	34008	34008	T	
2011-02-03	4	64-1-1	Substitution	108307	108307	T	A
2011-02-03	4	64-1-1	Substitution	119470	119470	G	A
2011-02-03	4	64-1-1	Substitution	119564	119564	T	A
2011-02-03	4	64-1-1	Substitution	121289	121289	G	A
2011-02-03	4	64-1-1	Substitution	130626	130626	T	A
2011-02-03	4	64-1-1	Substitution	132292	132292	T	A
2011-02-03	4	64-1-1	Insertion	215996	215996	 	C
2011-02-03	4	64-1-1	Substitution	277105	277106	CG	GC
2011-02-03	4	64-1-1	Deletion	330573	330573	T	
2011-02-03	4	64-1-1	Insertion	332995	332995	 	A
2011-02-03	4	64-1-1	Insertion	369163	369163	 	G
2011-02-03	4	64-1-1	Insertion	369180	369180	 	A
2011-02-03	4	64-1-1	Insertion	371114	371114	 	A
2011-02-03	4	64-1-1	Deletion	381865	381865	T	
2011-02-03	4	64-1-1	Substitution	392616	392616	A	G
2011-02-03	4	64-1-1	Insertion	396410	396410	 	T
2011-02-03	4	64-1-1	Deletion	396437	396437	G	
2011-02-03	4	64-1-1	Substitution	396451	396451	T	G
2011-02-03	4	64-1-1	Substitution	396504	396504	C	G
2011-02-03	4	64-1-1	Deletion	402651	402651	C	
2011-02-03	4	64-1-1	Insertion	402661	402661	 	T
2011-02-03	4	64-1-1	Deletion	542033	542033	A	
2011-02-03	4	64-1-1	Insertion	569994	569994	 	G
2011-02-03	4	64-1-1	Deletion	578232	578232	T	
2011-02-03	4	64-1-1	Insertion	592033	592033	 	G
2011-02-03	4	64-1-1	Insertion	894308	894308	 	G
2011-02-03	4	64-1-1	Substitution	1063029	1063029	C	A
2011-02-03	4	64-1-1	Deletion	1084534	1084534	A	
2011-02-03	4	64-1-1	Insertion	1117110	1117110	 	GG
2011-02-03	4	64-1-1	Insertion	1140697	1140697	 	G
2011-02-03	4	64-1-1	Insertion	1176395	1176395	 	C
2011-02-03	4	64-1-1	Insertion	1194955	1194955	 	C
2011-02-03	4	64-1-1	Substitution	1296177	1296177	C	G
2011-02-03	4	64-1-1	Substitution	1400867	1400867	C	T
2011-02-03	4	64-1-1	Substitution	1457020	1457020	C	T
2011-02-03	4	64-1-1	Substitution	1491661	1491661	G	A
2011-02-03	4	64-1-1	Substitution	1491667	1491667	G	C
2011-02-03	4	64-1-1	Insertion	1502725	1502725	 	T
2011-02-03	4	64-1-1	Insertion	1509885	1509885	 	G
2011-02-03	4	64-1-1	Substitution	1516809	1516812	GTGC	TGTTGCT
2011-02-03	4	64-1-1	Insertion	1516819	1516819	 	T
2011-02-03	4	64-1-1	Substitution	1516838	1516839	TT	ATTA
2011-02-03	4	64-1-1	Substitution	1519599	1519599	C	G
2011-02-03	4	64-1-1	Substitution	1519663	1519663	C	G
2011-02-03	4	64-1-1	Deletion	1522501	1522501	T	
2000-03-16	5	14-1-1	Deletion	406383	406383	G	
2011-02-03	5	64-1-1	Substitution	9168	9168	G	T
2011-02-03	5	64-1-1	Substitution	18079	18079	A	T
2011-02-03	5	64-1-1	Insertion	141112	141112	 	T
2011-02-03	5	64-1-1	Substitution	232634	232634	C	G
2011-02-03	5	64-1-1	Insertion	268857	268857	 	T
2011-02-03	5	64-1-1	Substitution	278525	278526	CG	GC
2011-02-03	5	64-1-1	Insertion	303532	303532	 	T
2011-02-03	5	64-1-1	Substitution	305258	305258	G	A
2011-02-03	5	64-1-1	Insertion	305710	305710	 	A
2011-02-03	5	64-1-1	Substitution	305828	305828	A	G
2011-02-03	5	64-1-1	Substitution	305880	305880	T	G
2011-02-03	5	64-1-1	Substitution	305885	305886	CA	TC
2011-02-03	5	64-1-1	Substitution	305968	305968	T	A
2011-02-03	5	64-1-1	Substitution	308627	308627	C	G
2011-02-03	5	64-1-1	Substitution	308984	308984	G	T
2011-02-03	5	64-1-1	Substitution	309047	309047	G	C
2011-02-03	5	64-1-1	Substitution	434284	434284	C	T
2011-02-03	5	64-1-1	Insertion	449959	449959	 	A
2011-02-03	5	64-1-1	Substitution	502222	502222	T	A
2001-05-29	6	17-1-1	Deletion	46151	46151	C	
2001-05-29	6	17-1-1	Insertion	75751	75751		C
2003-09-26	6	25-1-1	Insertion	128870	128870		G
2003-09-26	6	25-1-1	Deletion	234451	234451	G	
2003-09-26	6	25-1-1	Deletion	250082	250082	G	
2003-09-26	6	25-1-1	Insertion	270023	270023		G
2004-02-05	6	36-1-1	Deletion	231670	231670	G	
2004-02-05	6	36-1-1	Insertion	242181	242181		G
2011-02-03	6	64-1-1	Substitution	4827	4827	T	A
2011-02-03	6	64-1-1	Insertion	54494	54494	 	T
2011-02-03	6	64-1-1	Substitution	58032	58032	G	A
2011-02-03	6	64-1-1	Substitution	58035	58035	G	A
2011-02-03	6	64-1-1	Insertion	65112	65112	 	A
2011-02-03	6	64-1-1	Substitution	66443	66443	C	A
2011-02-03	6	64-1-1	Substitution	83382	83382	G	A
2011-02-03	6	64-1-1	Substitution	95000	95000	A	G
2011-02-03	6	64-1-1	Substitution	95385	95385	C	G
2011-02-03	6	64-1-1	Substitution	95410	95410	T	C
2011-02-03	6	64-1-1	Insertion	97503	97503	 	A
2011-02-03	6	64-1-1	Insertion	98796	98796	 	TGA
2011-02-03	6	64-1-1	Substitution	118584	118584	G	A
2011-02-03	6	64-1-1	Substitution	118606	118614	CTGGATGTG	TTGTATGT
2011-02-03	6	64-1-1	Insertion	155980	155980	 	T
2011-02-03	6	64-1-1	Insertion	164814	164814	 	T
2011-02-03	6	64-1-1	Insertion	168869	168869	 	A
2011-02-03	6	64-1-1	Substitution	173057	173057	C	T
2011-02-03	6	64-1-1	Insertion	181039	181039	 	TTTC
2011-02-03	6	64-1-1	Substitution	191312	191312	T	A
2011-02-03	6	64-1-1	Substitution	191388	191388	G	T
2011-02-03	6	64-1-1	Deletion	192393	192393	C	
2011-02-03	6	64-1-1	Insertion	194785	194785	 	T
2011-02-03	6	64-1-1	Substitution	219387	219387	A	G
2011-02-03	6	64-1-1	Insertion	226684	226684	 	G
2011-02-03	6	64-1-1	Substitution	236216	236216	C	A
2011-02-03	6	64-1-1	Substitution	241576	241576	A	T
2011-02-03	6	64-1-1	Substitution	248160	248160	A	T
2001-05-31	7	18-1-1	Insertion	719761	719761		C
2003-01-02	7	22-1-1	Insertion	393525	393525		A
2003-01-06	7	23-1-1	Insertion	273049	273049		A
2003-01-06	7	23-1-1	Insertion	273061	273061		CG
2003-01-06	7	23-1-1	Substitution	273111	273112	AC	CA
2003-01-06	7	23-1-1	Substitution	273208	273209	AT	GC
2003-01-09	7	23-1-1	Insertion	414883	414883		A
2003-01-09	7	23-1-1	Insertion	414910	414910		C
2003-01-09	7	23-1-1	Insertion	414983	414983		CC
2003-01-09	7	23-1-1	Deletion	415042	415042	G	
2004-01-22	7	31-1-1	Insertion	506672	506672		G
2004-01-23	7	31-1-1	Substitution	120375	120375	C	G
2004-01-23	7	31-1-1	Insertion	124251	124251		C
2004-01-23	7	31-1-1	Deletion	124271	124271	T	
2004-01-23	7	31-1-1	Insertion	124279	124279		C
2004-01-23	7	31-1-1	Deletion	124331	124331	T	
2004-07-15	7	41-1-1	Insertion	53811	53811		C
2004-07-15	7	41-1-1	Deletion	952555	952555	A	
2004-07-19	7	42-1-1	Insertion	130106	130106		C
2004-07-19	7	42-1-1	Substitution	130260	130260	A	C
2004-07-19	7	42-1-1	Deletion	130298	130298	C	
2004-07-19	7	42-1-1	Deletion	130416	130416	G	
2004-07-19	7	42-1-1	Insertion	131047	131047		A
2004-07-20	7	42-1-1	Insertion	93037	93037		C
2004-07-20	7	42-1-1	Insertion	93254	93254		C
2004-07-20	7	42-1-1	Deletion	93425	93425	A	
2005-11-22	7	47-1-1	Deletion	962549	962549	G	
2005-11-29	7	48-1-1	Insertion	946899	946899		T
2007-12-11	7	57-1-1	Insertion	1038054	1038054		C
2011-02-03	7	64-1-1	Insertion	72712	72712	 	T
2011-02-03	7	64-1-1	Deletion	89587	89590	GTTA	
2011-02-03	7	64-1-1	Insertion	89601	89601	 	A
2011-02-03	7	64-1-1	Deletion	89610	89610	G	
2011-02-03	7	64-1-1	Substitution	89735	89735	G	C
2011-02-03	7	64-1-1	Deletion	89749	89749	G	
2011-02-03	7	64-1-1	Deletion	89751	89751	T	
2011-02-03	7	64-1-1	Insertion	90019	90019	 	T
2011-02-03	7	64-1-1	Deletion	93660	93660	C	
2011-02-03	7	64-1-1	Insertion	94596	94596	 	T
2011-02-03	7	64-1-1	Deletion	95082	95082	G	
2011-02-03	7	64-1-1	Deletion	95084	95084	A	
2011-02-03	7	64-1-1	Deletion	95444	95444	A	
2011-02-03	7	64-1-1	Substitution	95447	95448	TA	AT
2011-02-03	7	64-1-1	Insertion	95471	95471	 	A
2011-02-03	7	64-1-1	Insertion	95484	95484	 	AA
2011-02-03	7	64-1-1	Substitution	98172	98172	G	A
2011-02-03	7	64-1-1	Deletion	122568	122658	G	
2011-02-03	7	64-1-1	Insertion	125487	125487	 	A
2011-02-03	7	64-1-1	Deletion	125495	125495	A	
2011-02-03	7	64-1-1	Substitution	125909	125910	CG	GC
2011-02-03	7	64-1-1	Deletion	131262	131262	G	
2011-02-03	7	64-1-1	Deletion	152961	152961	C	
2011-02-03	7	64-1-1	Insertion	153012	153012	 	G
2011-02-03	7	64-1-1	Substitution	203957	203957	C	A
2011-02-03	7	64-1-1	Insertion	206467	206467	 	G
2011-02-03	7	64-1-1	Substitution	230256	230256	C	T
2011-02-03	7	64-1-1	Deletion	269097	269097	A	
2011-02-03	7	64-1-1	Substitution	275965	275965	C	G
2011-02-03	7	64-1-1	Substitution	276384	276384	A	T
2011-02-03	7	64-1-1	Insertion	286355	286355	 	C
2011-02-03	7	64-1-1	Deletion	286729	286729	T	
2011-02-03	7	64-1-1	Insertion	289525	289525	 	G
2011-02-03	7	64-1-1	Insertion	289527	289527	 	G
2011-02-03	7	64-1-1	Insertion	289567	289567	 	G
2011-02-03	7	64-1-1	Substitution	303591	303591	A	C
2011-02-03	7	64-1-1	Substitution	384063	384064	CG	GC
2011-02-03	7	64-1-1	Substitution	384846	384847	CG	GC
2011-02-03	7	64-1-1	Deletion	389965	389965	G	
2011-02-03	7	64-1-1	Deletion	390008	390008	G	
2011-02-03	7	64-1-1	Insertion	392896	392896	 	A
2011-02-03	7	64-1-1	Deletion	392901	392901	A	
2011-02-03	7	64-1-1	Deletion	393814	393814	G	
2011-02-03	7	64-1-1	Substitution	397085	397086	CG	GC
2011-02-03	7	64-1-1	Substitution	397241	397241	A	C
2011-02-03	7	64-1-1	Deletion	397868	397868	A	
2011-02-03	7	64-1-1	Insertion	398014	398014	 	A
2011-02-03	7	64-1-1	Deletion	398027	398027	G	
2011-02-03	7	64-1-1	Insertion	398033	398033	 	G
2011-02-03	7	64-1-1	Insertion	398035	398035	 	GC
2011-02-03	7	64-1-1	Insertion	398069	398069	 	G
2011-02-03	7	64-1-1	Insertion	401422	401422	 	A
2011-02-03	7	64-1-1	Deletion	401427	401427	T	
2011-02-03	7	64-1-1	Insertion	412393	412393	 	G
2011-02-03	7	64-1-1	Deletion	413089	413089	G	
2011-02-03	7	64-1-1	Substitution	413366	413367	GC	CG
2011-02-03	7	64-1-1	Substitution	413409	413410	CG	GGC
2011-02-03	7	64-1-1	Deletion	413784	413784	A	
2011-02-03	7	64-1-1	Deletion	413970	413970	G	
2011-02-03	7	64-1-1	Deletion	418633	418633	C	
2011-02-03	7	64-1-1	Deletion	419056	419056	G	
2011-02-03	7	64-1-1	Insertion	428252	428252	 	G
2011-02-03	7	64-1-1	Insertion	485901	485901	 	A
2011-02-03	7	64-1-1	Substitution	598535	598535	C	T
2011-02-03	7	64-1-1	Substitution	607109	607109	T	G
2011-02-03	7	64-1-1	Substitution	610095	610095	A	G
2011-02-03	7	64-1-1	Substitution	622408	622408	A	T
2011-02-03	7	64-1-1	Substitution	630688	630688	C	T
2011-02-03	7	64-1-1	Deletion	727144	727144	A	
2011-02-03	7	64-1-1	Substitution	783805	783805	A	C
2011-02-03	7	64-1-1	Substitution	795986	795989	AAAA	GGGG
2011-02-03	7	64-1-1	Substitution	796569	796570	AC	CA
2011-02-03	7	64-1-1	Insertion	924482	924482	 	A
2011-02-03	7	64-1-1	Insertion	924488	924488	 	C
2011-02-03	7	64-1-1	Deletion	938725	938725	T	
2011-02-03	7	64-1-1	Insertion	938792	938792	 	T
2011-02-03	7	64-1-1	Substitution	948219	948219	A	T
2011-02-03	7	64-1-1	Deletion	958923	958923	C	
2011-02-03	7	64-1-1	Deletion	962981	962981	T	
2011-02-03	7	64-1-1	Substitution	999271	999271	C	T
2011-02-03	7	64-1-1	Insertion	999335	999335	 	C
2011-02-03	7	64-1-1	Substitution	999367	999367	A	C
2011-02-03	7	64-1-1	Deletion	999676	999676	T	
2011-02-03	7	64-1-1	Deletion	1004035	1004035	C	
2011-02-03	7	64-1-1	Deletion	1004338	1004338	T	
2011-02-03	7	64-1-1	Insertion	1004546	1004546	 	T
2011-02-03	7	64-1-1	Substitution	1031948	1031948	C	A
2011-02-03	7	64-1-1	Substitution	1032373	1032373	G	A
2011-02-03	7	64-1-1	Substitution	1033108	1033108	C	T
2011-02-03	7	64-1-1	Deletion	1039741	1039741	A	
2011-02-03	7	64-1-1	Substitution	1041870	1041870	C	T
2011-02-03	7	64-1-1	Substitution	1042083	1042083	A	G
2011-02-03	7	64-1-1	Substitution	1042185	1042185	A	G
2011-02-03	7	64-1-1	Substitution	1042308	1042308	A	G
2011-02-03	7	64-1-1	Substitution	1042313	1042313	A	G
2011-02-03	7	64-1-1	Substitution	1042563	1042563	G	A
2000-01-21	8	13-1-1	Insertion	370332	370332		C
2004-02-01	8	35-1-1	Insertion	98461	98461		C
2004-02-01	8	35-1-1	Deletion	217751	217751	T	
2004-02-01	8	35-1-1	Insertion	455307	455307		G
2004-02-01	8	35-1-1	Insertion	455503	455503		C
2004-07-26	8	43-1-1	Insertion	367891	367891		C
2005-11-08	8	46-1-1	Insertion	54135	54135		G
2011-02-03	8	64-1-1	Insertion	2251	2251	 	C
2011-02-03	8	64-1-1	Insertion	8358	8358	 	G
2011-02-03	8	64-1-1	Insertion	18567	18567	 	G
2011-02-03	8	64-1-1	Deletion	25813	25813	G	
2011-02-03	8	64-1-1	Substitution	62687	62687	G	A
2011-02-03	8	64-1-1	Insertion	64392	64392	 	A
2011-02-03	8	64-1-1	Insertion	78734	78734	 	G
2011-02-03	8	64-1-1	Insertion	102564	102564	 	C
2011-02-03	8	64-1-1	Insertion	126326	126326	 	C
2011-02-03	8	64-1-1	Insertion	131454	131454	 	T
2011-02-03	8	64-1-1	Deletion	207353	207353	A	
2011-02-03	8	64-1-1	Deletion	212258	212258	A	
2011-02-03	8	64-1-1	Deletion	212270	212276	TTTTTTT	
2011-02-03	8	64-1-1	Substitution	217753	217753	G	T
2011-02-03	8	64-1-1	Substitution	240687	240687	G	A
2011-02-03	8	64-1-1	Deletion	287116	287116	G	
2011-02-03	8	64-1-1	Deletion	287123	287123	C	
2011-02-03	8	64-1-1	Insertion	287178	287178	 	C
2011-02-03	8	64-1-1	Insertion	293374	293374	 	C
2011-02-03	8	64-1-1	Deletion	294437	294437	A	
2011-02-03	8	64-1-1	Insertion	369889	369889	 	A
2011-02-03	8	64-1-1	Deletion	369987	369987	T	
2011-02-03	8	64-1-1	Insertion	423723	423723	 	C
2011-02-03	8	64-1-1	Insertion	441869	441869	 	G
2011-02-03	8	64-1-1	Insertion	445615	445615	 	G
2011-02-03	8	64-1-1	Substitution	496180	496180	G	A
2011-02-03	9	64-1-1	Insertion	128403	128403	 	C
2011-02-03	9	64-1-1	Insertion	128409	128409	 	CT
2011-02-03	9	64-1-1	Substitution	203638	203638	A	C
2011-02-03	9	64-1-1	Deletion	249623	249623	T	
2011-02-03	9	64-1-1	Deletion	257479	257479	A	
2011-02-03	9	64-1-1	Insertion	300235	300235	 	G
2011-02-03	9	64-1-1	Insertion	333321	333321	 	C
2011-02-03	9	64-1-1	Insertion	427189	427189	 	A
2011-02-03	9	64-1-1	Deletion	435029	435029	G	
1997-07-27	10	2-1-1	Substitution	275144	275145	CC	GG
1997-07-27	10	2-1-1	Deletion	598510	598510	T	
1997-07-27	10	2-1-1	Deletion	598678	598678	G	
1997-07-27	10	2-1-1	Deletion	598745	598745	A	
1997-07-27	10	2-1-1	Substitution	601831	601831	A	G
2001-06-27	10	20-1-1	Insertion	399914	399914		GG
2001-06-27	10	20-1-1	Insertion	399923	399923		GG
2003-01-02	10	22-1-1	Insertion	404443	404443		G
2003-09-29	10	26-1-1	Insertion	406238	406238		G
2004-02-12	10	37-1-1	Insertion	89893	89893		G
2004-02-12	10	37-1-1	Deletion	460195	460195	T	
2004-02-17	10	38-1-1	Insertion	411268	411268		C
2004-02-18	10	38-1-1	Insertion	121258	121258		CTACTTCCGCTTCTGCAGCCGCTACCTCCACTGACCCAGTCGATGCTGTCTCCTGTAAGACTTCTGGTACCTTAGAAATGAACTTAAAGGGCGGTATCTTAACTGACGGTAAGGGTAGAATTGGTTCTATTGTTGCTAACAGACAATTCCAATTTGACGGTCCACCACCACAAGCTGGTGCCATCTACGCTGCTGGTTGGTCTATAACTCCAGACGGTAA
2004-02-19	10	38-1-1	Deletion	118303	118303	T	
2006-01-18	10	52-1-1	Substitution	114177	114177	T	A
2006-01-18	10	52-1-1	Substitution	114328	114328	G	C
2006-01-18	10	52-1-1	Insertion	101726	101726		G
2006-10-04	10	54-1-1	Substitution	120806	120909	GTGATGGTCAAATTCAAGCTACCACCAAGACTACCTCTGCTAAGACTACCGCCGCTGCCGTTTCTCAAATCAGTGATGGTCAAATCCAAGCTACCACCACTACT	AAATTGGTGATGGTCAAATTCAAGCTACCACCAAGACTACCTCTGCTAAGACTACCGCCGCTGCCGTTTCTCAAATCAGTGATGGTCAAATCCAAGCTACCACCACTACTTTAGCCCCAAAGAGCACCGCTGCTGCCGTTTCTCAAATCGGTGATGGTCAAGTTCAAGCTACCACCACTACT
2008-06-04	10	60-1-1	Deletion	599597	599597	A	
2008-06-04	10	60-1-1	Deletion	599640	599640	A	
2008-06-04	10	60-1-1	Deletion	599715	599715	A	
2008-06-04	10	60-1-1	Substitution	599750	599750	A	T
2009-02-18	10	62-1-1	Deletion	126896	126896	T	
2011-02-03	10	64-1-1	Insertion	59471	59471	 	C
2011-02-03	10	64-1-1	Substitution	76241	76241	T	C
2011-02-03	10	64-1-1	Insertion	79350	79350	 	T
2011-02-03	10	64-1-1	Substitution	81335	81335	T	G
2011-02-03	10	64-1-1	Substitution	81927	81927	A	T
2011-02-03	10	64-1-1	Substitution	84958	84958	G	A
2011-02-03	10	64-1-1	Substitution	89005	89005	C	A
2011-02-03	10	64-1-1	Substitution	90365	90365	A	C
2011-02-03	10	64-1-1	Substitution	96057	96057	G	C
2011-02-03	10	64-1-1	Insertion	97250	97250	 	T
2011-02-03	10	64-1-1	Insertion	97253	97253	 	G
2011-02-03	10	64-1-1	Substitution	97474	97474	A	G
2011-02-03	10	64-1-1	Substitution	97489	97489	C	G
2011-02-03	10	64-1-1	Insertion	97583	97583	 	C
2011-02-03	10	64-1-1	Insertion	97650	97650	 	G
2011-02-03	10	64-1-1	Substitution	99469	99469	C	G
2011-02-03	10	64-1-1	Insertion	99525	99525	 	TT
2011-02-03	10	64-1-1	Insertion	99531	99531	 	A
2011-02-03	10	64-1-1	Insertion	99532	99532	 	T
2011-02-03	10	64-1-1	Deletion	99573	99574	TA	
2011-02-03	10	64-1-1	Deletion	99634	99634	T	
2011-02-03	10	64-1-1	Deletion	99643	99643	A	
2011-02-03	10	64-1-1	Substitution	99767	99767	G	C
2011-02-03	10	64-1-1	Substitution	99777	99778	CG	GC
2011-02-03	10	64-1-1	Substitution	99792	99793	AA	TT
2011-02-03	10	64-1-1	Substitution	102276	102276	C	G
2011-02-03	10	64-1-1	Substitution	102610	102610	A	C
2011-02-03	10	64-1-1	Substitution	102642	102643	AA	GC
2011-02-03	10	64-1-1	Deletion	110898	110898	T	
2011-02-03	10	64-1-1	Insertion	110920	110920	 	T
2011-02-03	10	64-1-1	Deletion	111288	111288	G	
2011-02-03	10	64-1-1	Deletion	111646	111646	C	
2011-02-03	10	64-1-1	Substitution	113842	113842	G	A
2011-02-03	10	64-1-1	Substitution	123309	123309	T	C
2011-02-03	10	64-1-1	Substitution	123314	123314	T	C
2011-02-03	10	64-1-1	Substitution	129110	129110	T	C
2011-02-03	10	64-1-1	Substitution	171996	171997	CG	GC
2011-02-03	10	64-1-1	Substitution	179433	179433	C	G
2011-02-03	10	64-1-1	Substitution	179435	179435	G	C
2011-02-03	10	64-1-1	Deletion	180996	180996	C	
2011-02-03	10	64-1-1	Deletion	187027	187027	A	
2011-02-03	10	64-1-1	Insertion	195502	195502	 	C
2011-02-03	10	64-1-1	Deletion	198588	198588	A	
2011-02-03	10	64-1-1	Deletion	198632	198632	G	
2011-02-03	10	64-1-1	Insertion	204519	204519	 	T
2011-02-03	10	64-1-1	Substitution	204533	204533	A	T
2011-02-03	10	64-1-1	Insertion	204535	204535	 	AAT
2011-02-03	10	64-1-1	Substitution	204550	204551	GT	TG
2011-02-03	10	64-1-1	Substitution	205347	205347	C	A
2011-02-03	10	64-1-1	Insertion	247045	247045	 	G
2011-02-03	10	64-1-1	Insertion	407437	407437	 	A
2011-02-03	10	64-1-1	Substitution	414287	414288	CG	GC
2011-02-03	10	64-1-1	Substitution	421510	421510	G	A
2011-02-03	10	64-1-1	Deletion	422266	422266	C	
2011-02-03	10	64-1-1	Substitution	422448	422448	G	C
2011-02-03	10	64-1-1	Insertion	422450	422450	 	C
2011-02-03	10	64-1-1	Insertion	438633	438633	 	A
2011-02-03	10	64-1-1	Insertion	613904	613904	 	T
2011-02-03	10	64-1-1	Insertion	613905	613905	 	T
2011-02-03	10	64-1-1	Insertion	613918	613918	 	T
2011-02-03	10	64-1-1	Insertion	622414	622414	 	C
2011-02-03	10	64-1-1	Substitution	625480	625480	G	A
2011-02-03	10	64-1-1	Deletion	627314	627314	T	
2011-02-03	10	64-1-1	Substitution	627367	627369	CCT	TCC
2011-02-03	10	64-1-1	Substitution	627524	627525	CC	GG
2011-02-03	10	64-1-1	Deletion	628634	628634	T	
2011-02-03	10	64-1-1	Substitution	629480	629480	T	A
2011-02-03	10	64-1-1	Substitution	664657	664657	G	T
2011-02-03	10	64-1-1	Substitution	670283	670283	T	G
2011-02-03	10	64-1-1	Substitution	676910	676910	G	A
2011-02-03	10	64-1-1	Substitution	687982	687982	A	G
2011-02-03	10	64-1-1	Substitution	708354	708354	T	A
2011-02-03	10	64-1-1	Substitution	708438	708438	A	T
2011-02-03	10	64-1-1	Substitution	709354	709354	C	T
2011-02-03	10	64-1-1	Substitution	713832	713832	C	G
2011-02-03	10	64-1-1	Substitution	716149	716149	A	T
2011-02-03	10	64-1-1	Substitution	716502	716502	C	A
2011-02-03	10	64-1-1	Substitution	717671	717671	C	A
2011-02-03	10	64-1-1	Substitution	717775	717775	G	A
2011-02-03	10	64-1-1	Substitution	722285	722285	G	T
2011-02-03	10	64-1-1	Substitution	724284	724284	T	G
2011-02-03	10	64-1-1	Substitution	724992	724992	G	T
2011-02-03	10	64-1-1	Substitution	727112	727112	C	G
1999-03-12	11	10-1-1	Substitution	64287	64287	C	T
1999-03-12	11	10-1-1	Deletion	65689	65689	A	
1999-03-12	11	10-1-1	Deletion	65761	65761	T	
1999-03-12	11	10-1-1	Deletion	65922	65922	A	
1999-03-12	11	10-1-1	Deletion	66278	66278	T	
1999-03-12	11	10-1-1	Insertion	66298	66298		G
1999-03-12	11	10-1-1	Deletion	66685	66685	T	
1999-03-12	11	10-1-1	Deletion	66715	66715	T	
1999-03-12	11	10-1-1	Deletion	66725	66725	T	
1999-03-12	11	10-1-1	Insertion	67457	67457		T
1999-03-12	11	10-1-1	Insertion	68863	68863		C
1999-03-12	11	10-1-1	Insertion	69101	69101		G
2001-05-31	11	18-1-1	Substitution	64287	64287	T	C
2003-01-07	11	23-1-1	Insertion	346324	346324		G
2003-01-08	11	23-1-1	Deletion	69156	69156	G	
2003-01-10	11	24-1-1	Substitution	346324	346324	G	C
2004-02-11	11	37-1-1	Insertion	550828	550828		A
2004-02-11	11	37-1-1	Insertion	638899	638899		G
2004-02-12	11	37-1-1	Insertion	374308	374308		G
2004-02-13	11	37-1-1	Insertion	48828	48828		G
2004-02-13	11	37-1-1	Insertion	58941	58941		CCG
2004-07-23	11	42-1-1	Insertion	603776	603776		T
2004-07-23	11	42-1-1	Insertion	611279	611279		G
2005-12-01	11	48-1-1	Insertion	552426	552426		G
2005-12-01	11	48-1-1	Deletion	552522	552522	A	
2005-12-14	11	49-1-1	Insertion	363802	363802		G
2005-12-15	11	49-1-1	Insertion	255410	255410		A
2005-12-15	11	49-1-1	Deletion	185979	185979	A	
2005-12-15	11	49-1-1	Deletion	185988	185988	A	
2008-06-03	11	59-1-1	Substitution	340150	340150	A	T
2011-02-03	11	64-1-1	Deletion	395	395	A	
2011-02-03	11	64-1-1	Substitution	7131	7132	CG	GC
2011-02-03	11	64-1-1	Deletion	12941	12941	G	
2011-02-03	11	64-1-1	Insertion	14462	14462	 	GG
2011-02-03	11	64-1-1	Deletion	24801	24801	G	
2011-02-03	11	64-1-1	Deletion	67956	67956	A	
2011-02-03	11	64-1-1	Deletion	68315	68315	C	
2011-02-03	11	64-1-1	Substitution	69325	69326	TG	CT
2011-02-03	11	64-1-1	Deletion	69494	69494	G	
2011-02-03	11	64-1-1	Insertion	69501	69501	 	C
2011-02-03	11	64-1-1	Deletion	70487	70487	A	
2011-02-03	11	64-1-1	Deletion	70683	70683	A	
2011-02-03	11	64-1-1	Deletion	158179	158179	G	
2011-02-03	11	64-1-1	Insertion	158690	158690	 	A
2011-02-03	11	64-1-1	Deletion	189339	189339	A	
2011-02-03	11	64-1-1	Insertion	189367	189367	 	T
2011-02-03	11	64-1-1	Insertion	190397	190397	 	A
2011-02-03	11	64-1-1	Insertion	190404	190404	 	T
2011-02-03	11	64-1-1	Insertion	190405	190405	 	G
2011-02-03	11	64-1-1	Insertion	190408	190408	 	T
2011-02-03	11	64-1-1	Insertion	190409	190409	 	T
2011-02-03	11	64-1-1	Insertion	190415	190415	 	T
2011-02-03	11	64-1-1	Substitution	192315	192316	AT	TA
2011-02-03	11	64-1-1	Substitution	197105	197106	CG	GC
2011-02-03	11	64-1-1	Insertion	199353	199353	 	T
2011-02-03	11	64-1-1	Insertion	199359	199359	 	T
2011-02-03	11	64-1-1	Insertion	199368	199368	 	T
2011-02-03	11	64-1-1	Substitution	199377	199378	AT	TA
2011-02-03	11	64-1-1	Insertion	200382	200382	 	GTTTACCTTTAGTTAGAAAAGCGATGGAGCTAGCATCTTGCTACTATATAATAGTTGTTCAAGATCGTAGGTCTGCCTGCCGAGTGATTAGGGGAGGCTACTGAAGTTTGTTTTAATGTACCGGTTACATTTTCTTGTACGAAAGTATATGAAGGGGGCTTATTACTTCCAAGCCTATATTTTCTGTGGCATCGATTAGTATAGTATAAAAGAGGGAGTGGACATAGCGGTGAAAACTATACAAGAATAAAAAAGGAACTAAGAACCCTTTGCATTCATATAATTTCACATATGCATTTTTTATTTTATACTCAAATGTATGTTCTCACCTAGCTTGAGAAAGCGATGATCA
2011-02-03	11	64-1-1	Substitution	242811	242811	T	A
2011-02-03	11	64-1-1	Substitution	253006	253007	AT	TA
2011-02-03	11	64-1-1	Substitution	316656	316656	C	T
2011-02-03	11	64-1-1	Substitution	335190	335190	C	T
2011-02-03	11	64-1-1	Substitution	357929	357929	T	C
2011-02-03	11	64-1-1	Insertion	359604	359604	 	G
2011-02-03	11	64-1-1	Substitution	393438	393439	CG	GC
2011-02-03	11	64-1-1	Substitution	453012	453012	T	A
2011-02-03	11	64-1-1	Substitution	457775	457775	C	T
2011-02-03	11	64-1-1	Substitution	463435	463435	G	T
2011-02-03	11	64-1-1	Substitution	463468	463468	G	T
2011-02-03	11	64-1-1	Substitution	479596	479596	C	T
2011-02-03	11	64-1-1	Insertion	496923	496923	 	G
2011-02-03	11	64-1-1	Substitution	509993	509994	CG	GC
2011-02-03	11	64-1-1	Substitution	610650	610650	C	G
2011-02-03	11	64-1-1	Substitution	618236	618237	GA	AG
2011-02-03	11	64-1-1	Insertion	630159	630159	 	C
2011-02-03	11	64-1-1	Insertion	630168	630168	 	G
2011-02-03	11	64-1-1	Insertion	630274	630274	 	T
2011-02-03	11	64-1-1	Insertion	630275	630275	 	T
1997-07-30	12	3-1-1	Insertion	199680	199680		T
2001-06-12	12	19-1-1	Insertion	759511	759511		C
2004-02-04	12	36-1-1	Deletion	760763	760764	CC	
2004-02-04	12	36-1-1	Insertion	899751	899751		T
2004-02-05	12	36-1-1	Insertion	553548	553548		G
2004-02-05	12	36-1-1	Insertion	553633	553633		C
2006-01-09	12	51-1-1	Insertion	922648	922648		G
2011-02-03	12	64-1-1	Insertion	32902	32902	 	A
2011-02-03	12	64-1-1	Substitution	185062	185062	G	A
2011-02-03	12	64-1-1	Deletion	187394	187394	A	
2011-02-03	12	64-1-1	Deletion	187423	187423	A	
2011-02-03	12	64-1-1	Substitution	192416	192416	C	T
2011-02-03	12	64-1-1	Substitution	193483	193483	A	C
2011-02-03	12	64-1-1	Substitution	210771	210771	A	T
2011-02-03	12	64-1-1	Deletion	491154	491154	C	
2011-02-03	12	64-1-1	Substitution	699963	699963	G	A
2011-02-03	12	64-1-1	Substitution	750224	750224	C	T
2011-02-03	12	64-1-1	Insertion	760764	760764	 	CC
2011-02-03	12	64-1-1	Substitution	762846	762846	A	T
2011-02-03	12	64-1-1	Substitution	767026	767027	TC	CT
2011-02-03	12	64-1-1	Insertion	822958	822958	 	G
2011-02-03	12	64-1-1	Deletion	878171	878171	G	
2011-02-03	12	64-1-1	Insertion	924691	924691	 	G
2011-02-03	12	64-1-1	Insertion	933639	933639	 	G
2011-02-03	12	64-1-1	Insertion	949230	949230	 	C
2011-02-03	12	64-1-1	Insertion	1028607	1028607	 	G
2011-02-03	12	64-1-1	Deletion	1032533	1032533	G	
2011-02-03	12	64-1-1	Deletion	1038769	1038769	C	
2004-02-27	13	39-1-1	Deletion	804684	804684	C	
2011-02-03	13	64-1-1	Deletion	9542	9542	T	
2011-02-03	13	64-1-1	Insertion	26602	26602	 	T
2011-02-03	13	64-1-1	Insertion	283468	283468	 	G
2011-02-03	13	64-1-1	Substitution	794225	794225	G	C
2011-02-03	13	64-1-1	Substitution	808976	808976	A	T
2011-02-03	13	64-1-1	Substitution	851734	851734	G	A
2011-02-03	13	64-1-1	Substitution	851740	851740	G	A
2011-02-03	13	64-1-1	Substitution	864682	864682	G	T
2011-02-03	13	64-1-1	Insertion	904639	904639	 	G
2011-02-03	13	64-1-1	Substitution	908172	908183	TCAGTGAGTTCG	GTAATTAGTTCA
2011-02-03	13	64-1-1	Substitution	908194	908201	CGTCAACA	GGGCAACG
2011-02-03	13	64-1-1	Substitution	908216	908216	T	C
1997-07-27	14	2-1-1	Insertion	512412	512412		G
1997-07-27	14	2-1-1	Insertion	532300	532300		G
1999-01-25	14	7-1-1	Deletion	299726	299727	AT	
2004-02-18	14	38-1-1	Insertion	271649	271649		G
2004-02-18	14	38-1-1	Substitution	471764	471764	G	A
2004-02-18	14	38-1-1	Substitution	472576	472576	G	T
2004-02-18	14	38-1-1	Substitution	472580	472580	G	C
2004-02-18	14	38-1-1	Deletion	472581	472581	G	
2004-02-19	14	38-1-1	Insertion	254767	254767		G
2004-02-19	14	38-1-1	Insertion	254927	254927		G
2004-07-22	14	42-1-1	Insertion	505515	505515		C
2005-11-03	14	44-1-1	Insertion	68349	68349		C
2005-11-07	14	45-1-1	Insertion	60402	60402		C
2006-11-09	14	55-1-1	Substitution	429057	429058	CG	GC
2006-11-09	14	55-1-1	Substitution	429061	429061	G	C
2010-01-05	14	63-1-1	Substitution	472581	472581	T	G
2010-01-05	14	63-1-1	Substitution	472585	472585	C	GG
2011-02-03	14	64-1-1	Insertion	23471	23471	 	C
2011-02-03	14	64-1-1	Substitution	25775	25775	G	A
2011-02-03	14	64-1-1	Deletion	56227	56227	A	
2011-02-03	14	64-1-1	Deletion	129279	129279	A	
2011-02-03	14	64-1-1	Substitution	132573	132573	T	C
2011-02-03	14	64-1-1	Substitution	189081	189082	CG	GC
2011-02-03	14	64-1-1	Substitution	274732	274732	G	C
2011-02-03	14	64-1-1	Substitution	276356	276356	A	G
2011-02-03	14	64-1-1	Substitution	278945	278945	T	G
2011-02-03	14	64-1-1	Deletion	287983	287983	A	
2011-02-03	14	64-1-1	Substitution	290429	290429	T	G
2011-02-03	14	64-1-1	Substitution	299120	299120	C	G
2011-02-03	14	64-1-1	Substitution	304165	304165	G	T
2011-02-03	14	64-1-1	Substitution	306231	306231	C	A
2011-02-03	14	64-1-1	Substitution	307728	307728	T	G
2011-02-03	14	64-1-1	Substitution	308753	308753	G	C
2011-02-03	14	64-1-1	Substitution	315278	315278	T	G
2011-02-03	14	64-1-1	Substitution	359024	359024	C	T
2011-02-03	14	64-1-1	Substitution	374744	374744	T	C
2011-02-03	14	64-1-1	Substitution	374768	374768	A	C
2011-02-03	14	64-1-1	Substitution	374810	374810	A	C
2011-02-03	14	64-1-1	Substitution	383566	383566	A	G
2011-02-03	14	64-1-1	Deletion	618198	618198	G	
2011-02-03	14	64-1-1	Insertion	721794	721794	 	A
2011-02-03	14	64-1-1	Insertion	731363	731363	 	C
2011-02-03	14	64-1-1	Substitution	766524	766524	C	T
1997-08-11	15	4-1-1	Substitution	276609	276609	G	A
2001-05-31	15	18-1-1	Insertion	453804	453804		G
2003-01-09	15	23-1-1	Insertion	488439	488439		T
2004-02-12	15	37-1-1	Insertion	877622	877622		GC
2006-01-05	15	50-1-1	Insertion	803745	803745		G
2006-01-05	15	50-1-1	Insertion	42535	42535		G
2011-02-03	15	64-1-1	Insertion	8476	8476	 	T
2011-02-03	15	64-1-1	Substitution	35765	35765	G	C
2011-02-03	15	64-1-1	Substitution	36013	36013	T	A
2011-02-03	15	64-1-1	Substitution	36056	36056	G	A
2011-02-03	15	64-1-1	Substitution	36119	36119	G	C
2011-02-03	15	64-1-1	Substitution	36149	36149	G	A
2011-02-03	15	64-1-1	Substitution	49829	49829	G	T
2011-02-03	15	64-1-1	Substitution	49912	49912	A	T
2011-02-03	15	64-1-1	Substitution	49919	49919	A	T
2011-02-03	15	64-1-1	Substitution	49922	49922	T	A
2011-02-03	15	64-1-1	Substitution	49941	49941	G	T
2011-02-03	15	64-1-1	Substitution	50069	50069	G	T
2011-02-03	15	64-1-1	Substitution	50081	50081	T	C
2011-02-03	15	64-1-1	Substitution	50430	50431	GG	CC
2011-02-03	15	64-1-1	Substitution	50767	50767	C	T
2011-02-03	15	64-1-1	Substitution	52199	52199	C	T
2011-02-03	15	64-1-1	Substitution	56036	56036	C	G
2011-02-03	15	64-1-1	Substitution	57699	57699	A	T
2011-02-03	15	64-1-1	Deletion	58558	58558	T	
2011-02-03	15	64-1-1	Substitution	58601	58601	C	G
2011-02-03	15	64-1-1	Substitution	60173	60173	A	G
2011-02-03	15	64-1-1	Substitution	61985	61985	A	T
2011-02-03	15	64-1-1	Substitution	63708	63708	C	T
2011-02-03	15	64-1-1	Substitution	64173	64173	G	C
2011-02-03	15	64-1-1	Substitution	69084	69084	C	T
2011-02-03	15	64-1-1	Substitution	84121	84121	T	C
2011-02-03	15	64-1-1	Substitution	186243	186243	A	C
2011-02-03	15	64-1-1	Substitution	186978	186979	CG	GC
2011-02-03	15	64-1-1	Substitution	190052	190053	CG	GC
2011-02-03	15	64-1-1	Substitution	210453	210454	AC	CA
2011-02-03	15	64-1-1	Substitution	210486	210487	AC	CA
2011-02-03	15	64-1-1	Insertion	219000	219000	 	G
2011-02-03	15	64-1-1	Deletion	220195	220195	T	
2011-02-03	15	64-1-1	Insertion	220207	220207	 	C
2011-02-03	15	64-1-1	Deletion	259230	259230	T	
2011-02-03	15	64-1-1	Deletion	259235	259235	A	
2011-02-03	15	64-1-1	Substitution	280393	280393	A	G
2011-02-03	15	64-1-1	Insertion	343142	343142	 	A
2011-02-03	15	64-1-1	Deletion	414326	414326	T	
2011-02-03	15	64-1-1	Deletion	423752	423752	T	
2011-02-03	15	64-1-1	Insertion	492979	492979	 	T
2011-02-03	15	64-1-1	Insertion	521071	521071	 	A
2011-02-03	15	64-1-1	Deletion	521099	521099	C	
2011-02-03	15	64-1-1	Substitution	570495	570495	A	G
2011-02-03	15	64-1-1	Insertion	588318	588318	 	T
2011-02-03	15	64-1-1	Deletion	588344	588344	C	
2011-02-03	15	64-1-1	Substitution	588363	588365	GCG	AGC
2011-02-03	15	64-1-1	Substitution	611023	611024	GC	TG
2011-02-03	15	64-1-1	Substitution	611036	611036	A	G
2011-02-03	15	64-1-1	Insertion	808197	808197	 	A
2011-02-03	15	64-1-1	Substitution	809751	809751	C	T
2011-02-03	15	64-1-1	Insertion	816959	816959	 	T
2011-02-03	15	64-1-1	Substitution	874911	874911	C	T
2011-02-03	15	64-1-1	Insertion	877795	877795	 	G
2011-02-03	15	64-1-1	Substitution	889947	889947	G	C
2011-02-03	15	64-1-1	Insertion	892173	892173	 	C
2011-02-03	15	64-1-1	Deletion	1004737	1004737	T	
2003-09-29	16	26-1-1	Deletion	713683	713683	T	
2004-07-21	16	42-1-1	Deletion	347265	347265	T	
2004-07-21	16	42-1-1	Insertion	347273	347273		T
2004-07-21	16	42-1-1	Insertion	347285	347285		A
2004-07-21	16	42-1-1	Insertion	347375	347375		T
2011-02-03	16	64-1-1	Insertion	126768	126768	 	C
2011-02-03	16	64-1-1	Substitution	128039	128039	T	G
2011-02-03	16	64-1-1	Insertion	347528	347528	 	G
2011-02-03	16	64-1-1	Insertion	347759	347759	 	C
2011-02-03	16	64-1-1	Deletion	482773	482773	T	
2011-02-03	16	64-1-1	Insertion	520375	520375	 	C
2011-02-03	16	64-1-1	Substitution	520378	520378	C	G
2011-02-03	16	64-1-1	Insertion	520646	520646	 	C
2011-02-03	16	64-1-1	Deletion	520818	520818	T	
2011-02-03	16	64-1-1	Substitution	523639	523639	C	T
2011-02-03	16	64-1-1	Substitution	642955	642955	G	A
2011-02-03	16	64-1-1	Substitution	642995	642995	C	T
2011-02-03	16	64-1-1	Substitution	643579	643579	T	C
2011-02-03	16	64-1-1	Deletion	698524	698524	A	
2011-02-03	16	64-1-1	Substitution	727933	727933	G	A
2011-02-03	16	64-1-1	Insertion	778302	778302	 	G
2011-02-03	16	64-1-1	Insertion	778376	778376	 	C
2011-02-03	16	64-1-1	Substitution	778863	778863	T	A
