[+] Read Newman YEPD abundances
[+] Read Newman SD abundances
[+] Read Ghaemmaghami abundances
[+] Read Siwiak initiation rates
[+] Read Siwiak production rates x mRNA
[+] Read Siwiak production rates
[+] Read Shah initiation rates
[+] Read Shah production rates
[+] Read Ciandrini initiation rates
[+] Read Ciandrini production rates
[+] Read Bell half lives.
[+] Read 5- and 3-prime UTR lengths
[i] Simulation: 3795
[i] mRNA: 3795
[i] Time: 2400000.00
[i] Occupancy: 3795
[i] Forest: 4892
[i] Common: 3668
[+] Individual: 147477.29
[+] Global:     -345188.94
[i] Scale: 5.06418
[-] Skipped: 20
[+] Read Shah density
[+] Obtained mRNA levels
[+] Read Young transcriptome (mRNA levels)

[i] Initiation cross-correlation.
a or b too big, or ITMAX too small in Betacf for  1  elements
a or b too big, or ITMAX too small in Betacf for  1  elements
a or b too big, or ITMAX too small in Betacf for  1  elements
a or b too big, or ITMAX too small in Betacf for  1  elements
a or b too big, or ITMAX too small in Betacf for  1  elements
a or b too big, or ITMAX too small in Betacf for  1  elements
a or b too big, or ITMAX too small in Betacf for  1  elements
a or b too big, or ITMAX too small in Betacf for  1  elements
a or b too big, or ITMAX too small in Betacf for  1  elements
a or b too big, or ITMAX too small in Betacf for  1  elements
a or b too big, or ITMAX too small in Betacf for  1  elements
a or b too big, or ITMAX too small in Betacf for  1  elements
a or b too big, or ITMAX too small in Betacf for  1  elements
a or b too big, or ITMAX too small in Betacf for  1  elements
a or b too big, or ITMAX too small in Betacf for  1  elements
a or b too big, or ITMAX too small in Betacf for  1  elements
a or b too big, or ITMAX too small in Betacf for  1  elements
a or b too big, or ITMAX too small in Betacf for  1  elements
a or b too big, or ITMAX too small in Betacf for  1  elements
a or b too big, or ITMAX too small in Betacf for  1  elements
a or b too big, or ITMAX too small in Betacf for  1  elements
a or b too big, or ITMAX too small in Betacf for  1  elements
a or b too big, or ITMAX too small in Betacf for  1  elements
a or b too big, or ITMAX too small in Betacf for  1  elements
a or b too big, or ITMAX too small in Betacf for  1  elements
a or b too big, or ITMAX too small in Betacf for  1  elements
a or b too big, or ITMAX too small in Betacf for  1  elements
a or b too big, or ITMAX too small in Betacf for  1  elements
a or b too big, or ITMAX too small in Betacf for  1  elements
[i] Cross-correlation (Pearson)
            Initiation      Other       Shah  Ciandrini     Siwiak             Initiation      Other       Shah  Ciandrini     Siwiak 
Initiation           1  0.00521523   0.0027673  0.00191057   0.0119358                       0    0.753866    0.867864    0.909489    0.474347  
     Other  0.00521523           1   0.0655998  0.00433467    0.272098                0.753866           0  7.87543e-05    0.796466  4.71117e-62  
      Shah   0.0027673   0.0655998           1    0.454995    0.661775                0.867864  7.87543e-05           0  7.22911e-187           0  
 Ciandrini  0.00191057  0.00433467    0.454995           1    0.250578                0.909489    0.796466  7.22911e-187           0  2.93347e-64  
    Siwiak   0.0119358    0.272098    0.661775    0.250578           1                0.474347  4.71117e-62           0  2.93347e-64           0  

[i] Cross-correlation (Spearman)
            Initiation      Other       Shah  Ciandrini     Siwiak             Initiation      Other       Shah  Ciandrini     Siwiak 
Initiation           1    0.936362    0.652185    0.457393    0.729221                       0           0           0  9.66625e-183           0  
     Other    0.936362           1    0.673349    0.474081    0.741177                       0           0           0  5.06976e-198           0  
      Shah    0.652185    0.673349           1    0.663436    0.815025                       0           0           0           0           0  
 Ciandrini    0.457393    0.474081    0.663436           1     0.36252              9.66625e-183  5.06976e-198           0           0  2.23685e-137  
    Siwiak    0.729221    0.741177    0.815025     0.36252           1                       0           0           0  2.23685e-137           0  

[i] Cross-correlation (Pearson Log)
            Initiation      Other       Shah  Ciandrini     Siwiak             Initiation      Other       Shah  Ciandrini     Siwiak 
Initiation           1    0.879649    0.633759    0.384732    0.714544                       0           0           0  2.33139e-125           0  
     Other    0.879649           1    0.669324    0.413379    0.748992                       0           0           0  2.63075e-146           0  
      Shah    0.633759    0.669324           1    0.648148    0.842309                       0           0           0           0           0  
 Ciandrini    0.384732    0.413379    0.648148           1    0.335187              2.33139e-125  2.63075e-146           0           0  1.65488e-116  
    Siwiak    0.714544    0.748992    0.842309    0.335187           1                       0           0           0  1.65488e-116           0  

[i] Cross-correlation (Spearman Log)
            Initiation      Other       Shah  Ciandrini     Siwiak             Initiation      Other       Shah  Ciandrini     Siwiak 
Initiation           1    0.936362    0.652185    0.457393    0.729221                       0           0           0  9.66625e-183           0  
     Other    0.936362           1    0.673349    0.474081    0.741177                       0           0           0  5.06976e-198           0  
      Shah    0.652185    0.673349           1    0.663436    0.815025                       0           0           0           0           0  
 Ciandrini    0.457393    0.474081    0.663436           1     0.36252              9.66625e-183  5.06976e-198           0           0  2.23685e-137  
    Siwiak    0.729221    0.741177    0.815025     0.36252           1                       0           0           0  2.23685e-137           0  

[i] J cross-correlation.
a or b too big, or ITMAX too small in Betacf for  1  elements
a or b too big, or ITMAX too small in Betacf for  1  elements
a or b too big, or ITMAX too small in Betacf for  1  elements
a or b too big, or ITMAX too small in Betacf for  1  elements
a or b too big, or ITMAX too small in Betacf for  1  elements
a or b too big, or ITMAX too small in Betacf for  1  elements
a or b too big, or ITMAX too small in Betacf for  1  elements
a or b too big, or ITMAX too small in Betacf for  1  elements
a or b too big, or ITMAX too small in Betacf for  1  elements
a or b too big, or ITMAX too small in Betacf for  1  elements
a or b too big, or ITMAX too small in Betacf for  1  elements
a or b too big, or ITMAX too small in Betacf for  1  elements
a or b too big, or ITMAX too small in Betacf for  1  elements
a or b too big, or ITMAX too small in Betacf for  1  elements
a or b too big, or ITMAX too small in Betacf for  1  elements
a or b too big, or ITMAX too small in Betacf for  1  elements
a or b too big, or ITMAX too small in Betacf for  1  elements
a or b too big, or ITMAX too small in Betacf for  1  elements
a or b too big, or ITMAX too small in Betacf for  1  elements
a or b too big, or ITMAX too small in Betacf for  1  elements
[i] Cross-correlation (Pearson)
                     J      Other       Shah  Ciandrini                      J      Other       Shah  Ciandrini 
         J           1    0.858716    0.189431    0.334045                       0           0  1.56969e-30  4.22625e-93  
     Other    0.858716           1    0.233522    0.378197                       0           0  6.23501e-46  7.27149e-121  
      Shah    0.189431    0.233522           1    0.728287              1.56969e-30  6.23501e-46           0           0  
 Ciandrini    0.334045    0.378197    0.728287           1              4.22625e-93  7.27149e-121           0           0  

[i] Cross-correlation (Spearman)
                     J      Other       Shah  Ciandrini                      J      Other       Shah  Ciandrini 
         J           1    0.937543    0.190483    0.468189                       0           0  7.38433e-31  1.57342e-192  
     Other    0.937543           1    0.209915    0.481213                       0           0  2.96734e-37  8.15718e-205  
      Shah    0.190483    0.209915           1     0.72652              7.38433e-31  2.96734e-37           0           0  
 Ciandrini    0.468189    0.481213     0.72652           1              1.57342e-192  8.15718e-205           0           0  

[i] Cross-correlation (Pearson Log)
                     J      Other       Shah  Ciandrini                      J      Other       Shah  Ciandrini 
         J           1    0.921037    0.193865    0.417903                       0           0  6.35314e-32  8.32629e-150  
     Other    0.921037           1    0.223771    0.439015                       0           0  3.17344e-42  7.20452e-167  
      Shah    0.193865    0.223771           1    0.748768              6.35314e-32  3.17344e-42           0           0  
 Ciandrini    0.417903    0.439015    0.748768           1              8.32629e-150  7.20452e-167           0           0  

[i] Cross-correlation (Spearman Log)
                     J      Other       Shah  Ciandrini                      J      Other       Shah  Ciandrini 
         J           1    0.937543    0.190483    0.468189                       0           0  7.38433e-31  1.57342e-192  
     Other    0.937543           1    0.209915    0.481213                       0           0  2.96734e-37  8.15718e-205  
      Shah    0.190483    0.209915           1     0.72652              7.38433e-31  2.96734e-37           0           0  
 Ciandrini    0.468189    0.481213     0.72652           1              1.57342e-192  8.15718e-205           0           0  

[i] Initiation vs. Length (3617)
    [+] Pearson:  0.01 (p-value 0.683305)
    [+] Spearman: -0.05 (p-value 0.00195713)

[i] Log(Initiation) vs. Log(Length) (3617)
    [+] Pearson:  -0.04 (p-value 0.0122816)
    [+] Spearman: -0.05 (p-value 0.00195713)

[i] Initiation vs. Density (3617)
    [+] Pearson:  0.33 (p-value 1.82276e-95)
a or b too big, or ITMAX too small in Betacf for  1  elements
    [+] Spearman: 0.99 (p-value 0)

[i] Log(Initiation) vs. Log(Density) (3617)
a or b too big, or ITMAX too small in Betacf for  1  elements
    [+] Pearson:  0.98 (p-value 0)
a or b too big, or ITMAX too small in Betacf for  1  elements
    [+] Spearman: 0.99 (p-value 0)

[i] Initiation vs. J (3617)
    [+] Pearson:  0.29 (p-value 1.59244e-70)
a or b too big, or ITMAX too small in Betacf for  1  elements
    [+] Spearman: 1.00 (p-value 0)

[i] Log(Initiation) vs. Log(J) (3617)
a or b too big, or ITMAX too small in Betacf for  1  elements
    [+] Pearson:  0.98 (p-value 0)
a or b too big, or ITMAX too small in Betacf for  1  elements
    [+] Spearman: 1.00 (p-value 0)

[i] Initiation vs. J (3617)
    [+] Pearson:  0.29 (p-value 1.59244e-70)
a or b too big, or ITMAX too small in Betacf for  1  elements
    [+] Spearman: 1.00 (p-value 0)

[i] Log(Initiation) vs. Log(J) (3617)
a or b too big, or ITMAX too small in Betacf for  1  elements
    [+] Pearson:  0.98 (p-value 0)
a or b too big, or ITMAX too small in Betacf for  1  elements
    [+] Spearman: 1.00 (p-value 0)

[i] J vs. Length (3617)
    [+] Pearson:  0.08 (p-value 3.79225e-07)
    [+] Spearman: -0.06 (p-value 0.00034558)

[i] Log(J) vs. Log(Length) (3617)
    [+] Pearson:  -0.06 (p-value 0.000485301)
    [+] Spearman: -0.06 (p-value 0.00034558)

[i] J vs. Density (3617)
a or b too big, or ITMAX too small in Betacf for  1  elements
    [+] Pearson:  0.93 (p-value 0)
a or b too big, or ITMAX too small in Betacf for  1  elements
    [+] Spearman: 0.99 (p-value 0)

[i] Log(J) vs. Log(Density) (3617)
a or b too big, or ITMAX too small in Betacf for  1  elements
    [+] Pearson:  0.99 (p-value 0)
a or b too big, or ITMAX too small in Betacf for  1  elements
    [+] Spearman: 0.99 (p-value 0)

[i] Density vs. Length (3617)
    [+] Pearson:  0.09 (p-value 1.06224e-07)
    [+] Spearman: -0.07 (p-value 7.14083e-05)

[i] Log(Density) vs. Log(Length) (3617)
    [+] Pearson:  -0.05 (p-value 0.00106417)
    [+] Spearman: -0.07 (p-value 7.14083e-05)

[i] Forest Density vs. Length (3600)
    [+] Pearson:  0.13 (p-value 4.46497e-15)
    [+] Spearman: -0.08 (p-value 6.24834e-06)

[i] Log(Forest Density) vs. Log(Length) (3600)
    [+] Pearson:  -0.07 (p-value 6.76375e-05)
    [+] Spearman: -0.08 (p-value 6.24834e-06)

---------------------------

[i] mRNA vs. Length (4762)
    [+] Pearson:  -0.15 (p-value 2.9755e-25)
    [+] Spearman: -0.53 (p-value 0)

[i] Log(mRNA) vs. Log(Length) (4762)
    [+] Pearson:  -0.52 (p-value 0)
    [+] Spearman: -0.53 (p-value 0)

---------------------------

[i] 5-prime UTR vs. Initiation (3524)
a or b too big, or ITMAX too small in Betacf for  1  elements
    [+] Pearson:  0.00 (p-value 0.999925)
    [+] Spearman: -0.02 (p-value 0.297072)

[i] Log(5-prime UTR) vs. Log(Initiation) (3524)
    [+] Pearson:  0.01 (p-value 0.629658)
    [+] Spearman: -0.02 (p-value 0.297072)

[i] 5-prime UTR vs. Initiation given Length (3524)
    [+] Pearson:  -0.00 (p-value 0.948852)
    [+] Spearman: -0.01 (p-value 0.526797)

[i] Log(5-prime UTR) vs. Log(Initiation) given Log(Length) (3524)
    [+] Pearson:  0.01 (p-value 0.434559)
    [+] Spearman: -0.01 (p-value 0.526797)

[i] 5-prime UTR vs. J (3524)
    [+] Pearson:  -0.02 (p-value 0.335969)
    [+] Spearman: -0.02 (p-value 0.288629)

[i] Log(5-prime UTR) vs. Log(J) (3524)
    [+] Pearson:  0.01 (p-value 0.66372)
    [+] Spearman: -0.02 (p-value 0.288629)

[i] 5-prime UTR vs. Density (3524)
a or b too big, or ITMAX too small in Betacf for  1  elements
    [+] Pearson:  -0.00 (p-value 0.767737)
    [+] Spearman: -0.02 (p-value 0.228814)

[i] Log(5-prime UTR) vs. Log(Density) (3524)
    [+] Pearson:  0.01 (p-value 0.704806)
    [+] Spearman: -0.02 (p-value 0.228814)

[i] 5-prime UTR vs. Length (4740)
    [+] Pearson:  0.13 (p-value 5.9543e-19)
    [+] Spearman: 0.14 (p-value 1.40111e-21)

[i] Log(5-prime UTR) vs. Log(Length) (4740)
    [+] Pearson:  0.12 (p-value 1.58408e-15)
    [+] Spearman: 0.14 (p-value 1.40111e-21)

---------------------------

[i] 3-prime UTR vs. Initiation (3543)
    [+] Pearson:  0.02 (p-value 0.236693)
    [+] Spearman: 0.04 (p-value 0.0218047)

[i] Log(3-prime UTR) vs. Log(Initiation) (3543)
    [+] Pearson:  0.05 (p-value 0.00185245)
    [+] Spearman: 0.04 (p-value 0.0218047)

[i] 3-prime UTR vs. Initiation given Length (3543)
    [+] Pearson:  0.02 (p-value 0.233536)
    [+] Spearman: 0.04 (p-value 0.0256747)

[i] Log(3-prime UTR) vs. Log(Initiation) given Log(Length) (3543)
    [+] Pearson:  0.05 (p-value 0.00243083)
    [+] Spearman: 0.04 (p-value 0.0256747)

[i] 3-prime UTR vs. J (3543)
    [+] Pearson:  0.04 (p-value 0.0166533)
    [+] Spearman: 0.04 (p-value 0.0254104)

[i] Log(3-prime UTR) vs. Log(J) (3543)
    [+] Pearson:  0.05 (p-value 0.00641274)
    [+] Spearman: 0.04 (p-value 0.0254104)

[i] 3-prime UTR vs. Density (3543)
    [+] Pearson:  0.05 (p-value 0.0024036)
    [+] Spearman: 0.04 (p-value 0.0141407)

[i] Log(3-prime UTR) vs. Log(Density) (3543)
    [+] Pearson:  0.05 (p-value 0.00282983)
    [+] Spearman: 0.04 (p-value 0.0141407)

[i] 3-prime UTR vs. Length (4770)
    [+] Pearson:  -0.02 (p-value 0.192101)
    [+] Spearman: -0.03 (p-value 0.0163781)

[i] Log(3-prime UTR) vs. Log(Length) (4770)
    [+] Pearson:  -0.05 (p-value 0.000885776)
    [+] Spearman: -0.03 (p-value 0.0163781)

---------------------------

[i] Initiation vs. Initiation other (3617)
    [+] Pearson:  0.01 (p-value 0.753866)
a or b too big, or ITMAX too small in Betacf for  1  elements
    [+] Spearman: 0.94 (p-value 0)

[i] Log(Initiation) vs. Log(Initiation other) (3617)
a or b too big, or ITMAX too small in Betacf for  1  elements
    [+] Pearson:  0.88 (p-value 0)
a or b too big, or ITMAX too small in Betacf for  1  elements
    [+] Spearman: 0.94 (p-value 0)

[i] J vs. J other (3617)
a or b too big, or ITMAX too small in Betacf for  1  elements
    [+] Pearson:  0.86 (p-value 0)
a or b too big, or ITMAX too small in Betacf for  1  elements
    [+] Spearman: 0.94 (p-value 0)

[i] Log(J) vs. Log(J other) (3617)
a or b too big, or ITMAX too small in Betacf for  1  elements
    [+] Pearson:  0.92 (p-value 0)
a or b too big, or ITMAX too small in Betacf for  1  elements
    [+] Spearman: 0.94 (p-value 0)

[i] Density other vs. Density (3617)
    [+] Pearson:  0.73 (p-value 0)
a or b too big, or ITMAX too small in Betacf for  1  elements
    [+] Spearman: 0.93 (p-value 0)

[i] Log(Density other) vs. Log(Density) (3617)
a or b too big, or ITMAX too small in Betacf for  1  elements
    [+] Pearson:  0.91 (p-value 0)
a or b too big, or ITMAX too small in Betacf for  1  elements
    [+] Spearman: 0.93 (p-value 0)

[i] Density other vs. Length (3617)
    [+] Pearson:  0.14 (p-value 7.93626e-17)
    [+] Spearman: -0.07 (p-value 2.82832e-05)

[i] Log(Density other) vs. Log(Length) (3617)
    [+] Pearson:  -0.06 (p-value 0.000398709)
    [+] Spearman: -0.07 (p-value 2.82832e-05)

---------------------------

[i] Shah Density vs. Density (3617)
    [+] Pearson:  0.32 (p-value 1.32379e-86)
    [+] Spearman: 0.62 (p-value 0)

[i] Log(Shah Density) vs. Log(Density) (3617)
    [+] Pearson:  0.62 (p-value 0)
    [+] Spearman: 0.62 (p-value 0)

[i] Shah Density vs. Length (3648)
    [+] Pearson:  -0.36 (p-value 2.41558e-109)
    [+] Spearman: -0.56 (p-value 5.39348e-294)

[i] Log(Shah Density) vs. Log(Length) (3648)
    [+] Pearson:  -0.58 (p-value 1.28457e-322)
    [+] Spearman: -0.56 (p-value 5.39348e-294)

---------------------------

[i] Shah Initiation vs. Shah Density (3648)
a or b too big, or ITMAX too small in Betacf for  1  elements
    [+] Pearson:  0.85 (p-value 0)
a or b too big, or ITMAX too small in Betacf for  1  elements
    [+] Spearman: 0.99 (p-value 0)

[i] Log(Shah Initiation) vs. Log(Shah Density) (3648)
a or b too big, or ITMAX too small in Betacf for  1  elements
    [+] Pearson:  0.99 (p-value 0)
a or b too big, or ITMAX too small in Betacf for  1  elements
    [+] Spearman: 0.99 (p-value 0)

---------------------------

[i] Initiation vs. mRNA (3600)
a or b too big, or ITMAX too small in Betacf for  1  elements
    [+] Pearson:  0.00 (p-value 0.951652)
    [+] Spearman: 0.33 (p-value 2.25344e-94)

[i] Log(Initiation) vs. Log(mRNA) (3600)
    [+] Pearson:  0.31 (p-value 1.83571e-82)
    [+] Spearman: 0.33 (p-value 2.25344e-94)

[i] J vs. mRNA (3600)
    [+] Pearson:  0.17 (p-value 7.40953e-24)
    [+] Spearman: 0.34 (p-value 1.49476e-98)

[i] Log(J) vs. Log(mRNA) (3600)
    [+] Pearson:  0.33 (p-value 8.26666e-94)
    [+] Spearman: 0.34 (p-value 1.49476e-98)

[i] J vs. Length (3617)
    [+] Pearson:  0.08 (p-value 3.79225e-07)
    [+] Spearman: -0.06 (p-value 0.00034558)

[i] Log(J) vs. Log(Length) (3617)
    [+] Pearson:  -0.06 (p-value 0.000485301)
    [+] Spearman: -0.06 (p-value 0.00034558)

---------------------------

[i] Initiation other vs. mRNA (3600)
a or b too big, or ITMAX too small in Betacf for  1  elements
    [+] Pearson:  -0.00 (p-value 0.886027)
    [+] Spearman: 0.36 (p-value 8.66375e-112)

[i] Log(Initiation other) vs. Log(mRNA) (3600)
    [+] Pearson:  0.36 (p-value 1.89998e-109)
    [+] Spearman: 0.36 (p-value 8.66375e-112)

[i] J other vs. mRNA (3600)
    [+] Pearson:  0.26 (p-value 1.44764e-58)
    [+] Spearman: 0.37 (p-value 7.34806e-116)

[i] Log(J other) vs. Log(mRNA) (3600)
    [+] Pearson:  0.38 (p-value 7.74493e-125)
    [+] Spearman: 0.37 (p-value 7.34806e-116)

[i] J other vs. Length (3617)
    [+] Pearson:  0.07 (p-value 1.22054e-05)
    [+] Spearman: -0.08 (p-value 4.01266e-06)

[i] Log(J other) vs. Log(Length) (3617)
    [+] Pearson:  -0.08 (p-value 1.45674e-06)
    [+] Spearman: -0.08 (p-value 4.01266e-06)

---------------------------

[i] Shah Initiation vs. mRNA (3651)
    [+] Pearson:  0.43 (p-value 4.89722e-161)
    [+] Spearman: 0.58 (p-value 0)

[i] Log(Shah Initiation) vs. Log(mRNA) (3651)
    [+] Pearson:  0.61 (p-value 0)
    [+] Spearman: 0.58 (p-value 0)

[i] Shah J vs. mRNA (3645)
    [+] Pearson:  0.40 (p-value 1.02104e-140)
    [+] Spearman: 0.65 (p-value 0)

[i] Log(Shah J) vs. Log(mRNA) (3645)
    [+] Pearson:  0.66 (p-value 0)
    [+] Spearman: 0.65 (p-value 0)

[i] Shah J vs. Length (3662)
    [+] Pearson:  -0.56 (p-value 1.7601e-304)
a or b too big, or ITMAX too small in Betacf for  1  elements
    [+] Spearman: -0.97 (p-value 0)

[i] Log(Shah J) vs. Log(Length) (3662)
a or b too big, or ITMAX too small in Betacf for  1  elements
    [+] Pearson:  -0.97 (p-value 0)
a or b too big, or ITMAX too small in Betacf for  1  elements
    [+] Spearman: -0.97 (p-value 0)

---------------------------

[i] Ciandrini Initiation vs. mRNA (4531)
    [+] Pearson:  0.22 (p-value 6.34083e-53)
    [+] Spearman: 0.62 (p-value 0)

[i] Log(Ciandrini Initiation) vs. Log(mRNA) (4531)
    [+] Pearson:  0.59 (p-value 0)
    [+] Spearman: 0.62 (p-value 0)

[i] Ciandrini J vs. mRNA (4531)
    [+] Pearson:  0.34 (p-value 4.82103e-126)
    [+] Spearman: 0.63 (p-value 0)

[i] Log(Ciandrini J) vs. Log(mRNA) (4531)
    [+] Pearson:  0.62 (p-value 0)
    [+] Spearman: 0.63 (p-value 0)

[i] Ciandrini J vs. Length (4645)
    [+] Pearson:  -0.53 (p-value 0)
    [+] Spearman: -0.65 (p-value 0)

[i] Log(Ciandrini J) vs. Log(Length) (4645)
    [+] Pearson:  -0.69 (p-value 0)
    [+] Spearman: -0.65 (p-value 0)

---------------------------

[i] Siwiak Initiation vs. mRNA (4487)
    [+] Pearson:  0.36 (p-value 6.50007e-139)
    [+] Spearman: 0.33 (p-value 6.27844e-118)

[i] Log(Siwiak Initiation) vs. Log(mRNA) (4487)
    [+] Pearson:  0.39 (p-value 1.07142e-164)
    [+] Spearman: 0.33 (p-value 6.27844e-118)

[i] Siwiak J vs. mRNA (4487)
    [+] Pearson:  0.53 (p-value 5.03374e-318)
    [+] Spearman: 0.69 (p-value 0)

[i] Log(Siwiak J) vs. Log(mRNA) (4487)
a or b too big, or ITMAX too small in Betacf for  1  elements
    [+] Pearson:  0.72 (p-value 0)
    [+] Spearman: 0.69 (p-value 0)

[i] Siwiak J vs. Length (4510)
    [+] Pearson:  -0.49 (p-value 5.03593e-271)
a or b too big, or ITMAX too small in Betacf for  1  elements
    [+] Spearman: -0.84 (p-value 0)

[i] Log(Siwiak J) vs. Log(Length) (4510)
a or b too big, or ITMAX too small in Betacf for  1  elements
    [+] Pearson:  -0.85 (p-value 0)
a or b too big, or ITMAX too small in Betacf for  1  elements
    [+] Spearman: -0.84 (p-value 0)

---------------------------

[i] Initiation vs. Shah Initiation (3617)
a or b too big, or ITMAX too small in Betacf for  1  elements
    [+] Pearson:  0.00 (p-value 0.867864)
    [+] Spearman: 0.65 (p-value 0)

[i] Log(Initiation) vs. Log(Shah Initiation) (3617)
    [+] Pearson:  0.63 (p-value 0)
    [+] Spearman: 0.65 (p-value 0)

[i] Shah Initiation vs. Length (3668)
    [+] Pearson:  -0.25 (p-value 2.54079e-55)
    [+] Spearman: -0.52 (p-value 1.02756e-258)

[i] Log(Shah Initiation) vs. Log(Length) (3668)
    [+] Pearson:  -0.55 (p-value 5.06087e-290)
    [+] Spearman: -0.52 (p-value 1.02756e-258)

---------------------------

[i] 5-prime UTR vs. Shah Initiation (3636)
    [+] Pearson:  -0.05 (p-value 0.00270569)
    [+] Spearman: -0.06 (p-value 0.000177506)

[i] Log(5-prime UTR) vs. Log(Shah Initiation) (3636)
    [+] Pearson:  -0.04 (p-value 0.0289813)
    [+] Spearman: -0.06 (p-value 0.000177506)

[i] 5-prime UTR vs. Shah Initiation given Length (3568)
    [+] Pearson:  -0.01 (p-value 0.666675)
    [+] Spearman: 0.03 (p-value 0.103148)

[i] Log(5-prime UTR) vs. Log(Shah Initiation) given Log(Length) (3568)
    [+] Pearson:  0.05 (p-value 0.0010605)
    [+] Spearman: 0.03 (p-value 0.103148)

---------------------------

[i] 3-prime UTR vs. Shah Initiation (3672)
    [+] Pearson:  0.04 (p-value 0.0108521)
    [+] Spearman: 0.06 (p-value 0.000245242)

[i] Log(3-prime UTR) vs. Log(Shah Initiation) (3672)
    [+] Pearson:  0.06 (p-value 0.000429268)
    [+] Spearman: 0.06 (p-value 0.000245242)

[i] 3-prime UTR vs. Shah Initiation given Length (3594)
    [+] Pearson:  0.04 (p-value 0.0221502)
    [+] Spearman: 0.07 (p-value 8.6732e-05)

[i] Log(3-prime UTR) vs. Log(Shah Initiation) given Log(Length) (3594)
    [+] Pearson:  0.06 (p-value 0.000782273)
    [+] Spearman: 0.07 (p-value 8.6732e-05)

---------------------------

[i] Initiation vs. Ciandrini Initiation (3543)
a or b too big, or ITMAX too small in Betacf for  1  elements
    [+] Pearson:  0.00 (p-value 0.909489)
    [+] Spearman: 0.46 (p-value 9.66625e-183)

[i] Log(Initiation) vs. Log(Ciandrini Initiation) (3543)
    [+] Pearson:  0.38 (p-value 2.33139e-125)
    [+] Spearman: 0.46 (p-value 9.66625e-183)

[i] Ciandrini Initiation vs. Length (4645)
    [+] Pearson:  -0.40 (p-value 9.27314e-180)
    [+] Spearman: -0.65 (p-value 0)

[i] Log(Ciandrini Initiation) vs. Log(Length) (4645)
    [+] Pearson:  -0.69 (p-value 0)
    [+] Spearman: -0.65 (p-value 0)

---------------------------

[i] 5-prime UTR vs. Ciandrini Initiation (5088)
    [+] Pearson:  -0.03 (p-value 0.0152121)
    [+] Spearman: -0.09 (p-value 3.24865e-11)

[i] Log(5-prime UTR) vs. Log(Ciandrini Initiation) (5088)
    [+] Pearson:  -0.07 (p-value 5.25723e-07)
    [+] Spearman: -0.09 (p-value 3.24865e-11)

[i] 5-prime UTR vs. Ciandrini Initiation given Length (4501)
    [+] Pearson:  -0.05 (p-value 0.000273762)
    [+] Spearman: -0.06 (p-value 0.00017255)

[i] Log(5-prime UTR) vs. Log(Ciandrini Initiation) given Log(Length) (4501)
    [+] Pearson:  -0.02 (p-value 0.10673)
    [+] Spearman: -0.06 (p-value 0.00017255)

---------------------------

[i] 3-prime UTR vs. Ciandrini Initiation (5220)
    [+] Pearson:  0.05 (p-value 0.00063419)
    [+] Spearman: 0.03 (p-value 0.0202446)

[i] Log(3-prime UTR) vs. Log(Ciandrini Initiation) (5220)
    [+] Pearson:  0.02 (p-value 0.108235)
    [+] Spearman: 0.03 (p-value 0.0202446)

[i] 3-prime UTR vs. Ciandrini Initiation given Length (4531)
    [+] Pearson:  0.01 (p-value 0.599431)
    [+] Spearman: 0.02 (p-value 0.191811)

[i] Log(3-prime UTR) vs. Log(Ciandrini Initiation) given Log(Length) (4531)
    [+] Pearson:  0.01 (p-value 0.46964)
    [+] Spearman: 0.02 (p-value 0.191811)

---------------------------

[i] Initiation vs. Siwiak Initiation (3595)
    [+] Pearson:  0.01 (p-value 0.474347)
    [+] Spearman: 0.73 (p-value 0)

[i] Log(Initiation) vs. Log(Siwiak Initiation) (3595)
    [+] Pearson:  0.71 (p-value 0)
    [+] Spearman: 0.73 (p-value 0)

[i] Siwiak Initiation vs. Length (4510)
    [+] Pearson:  0.02 (p-value 0.120877)
    [+] Spearman: -0.02 (p-value 0.133351)

[i] Log(Siwiak Initiation) vs. Log(Length) (4510)
    [+] Pearson:  -0.05 (p-value 0.000449263)
    [+] Spearman: -0.02 (p-value 0.133351)

---------------------------

[i] 5-prime UTR vs. Siwiak Initiation (4477)
    [+] Pearson:  0.01 (p-value 0.567993)
a or b too big, or ITMAX too small in Betacf for  1  elements
    [+] Spearman: 0.00 (p-value 0.777786)

[i] Log(5-prime UTR) vs. Log(Siwiak Initiation) (4477)
a or b too big, or ITMAX too small in Betacf for  1  elements
    [+] Pearson:  0.00 (p-value 0.856314)
a or b too big, or ITMAX too small in Betacf for  1  elements
    [+] Spearman: 0.00 (p-value 0.777786)

[i] 5-prime UTR vs. Siwiak Initiation given Length (4385)
    [+] Pearson:  0.02 (p-value 0.204222)
    [+] Spearman: 0.03 (p-value 0.0736876)

[i] Log(5-prime UTR) vs. Log(Siwiak Initiation) given Log(Length) (4385)
    [+] Pearson:  0.04 (p-value 0.00457065)
    [+] Spearman: 0.03 (p-value 0.0736876)

---------------------------

[i] 3-prime UTR vs. Siwiak Initiation (4527)
    [+] Pearson:  0.03 (p-value 0.0337914)
    [+] Spearman: 0.07 (p-value 8.18358e-06)

[i] Log(3-prime UTR) vs. Log(Siwiak Initiation) (4527)
    [+] Pearson:  0.05 (p-value 0.000607266)
    [+] Spearman: 0.07 (p-value 8.18358e-06)

[i] 3-prime UTR vs. Siwiak Initiation given Length (4422)
    [+] Pearson:  0.04 (p-value 0.0183196)
    [+] Spearman: 0.08 (p-value 4.97335e-07)

[i] Log(3-prime UTR) vs. Log(Siwiak Initiation) given Log(Length) (4422)
    [+] Pearson:  0.06 (p-value 4.62032e-05)
    [+] Spearman: 0.08 (p-value 4.97335e-07)

---------------------------

[i] Newman YEPD abundance vs. Length (2454)
    [+] Pearson:  -0.04 (p-value 0.0338321)
    [+] Spearman: -0.13 (p-value 3.53205e-11)

[i] Log(Newman YEPD abundance) vs. Log(Length) (2454)
    [+] Pearson:  -0.15 (p-value 5.44041e-14)
    [+] Spearman: -0.13 (p-value 3.53205e-11)

[i] Newman YEPD abundance vs. mRNA (2353)
    [+] Pearson:  0.61 (p-value 8.7884e-240)
    [+] Spearman: 0.58 (p-value 4.71164e-210)

[i] Log(Newman YEPD abundance) vs. Log(mRNA) (2353)
    [+] Pearson:  0.64 (p-value 2.05631e-274)
    [+] Spearman: 0.58 (p-value 4.71164e-210)

[i] Newman YEPD abundance vs. Forest Density (1904)
    [+] Pearson:  0.28 (p-value 8.04705e-37)
    [+] Spearman: 0.53 (p-value 3.17213e-138)

[i] Log(Newman YEPD abundance) vs. Log(Forest Density) (1904)
    [+] Pearson:  0.55 (p-value 2.68606e-148)
    [+] Spearman: 0.53 (p-value 3.17213e-138)

[i] Newman YEPD abundance vs. Forest Density given mRNA (1904)
    [+] Pearson:  0.30 (p-value 4.72132e-42)
    [+] Spearman: 0.52 (p-value 1.65975e-154)

[i] Log(Newman YEPD abundance) vs. Log(Forest Density) given Log(mRNA) (1904)
    [+] Pearson:  0.58 (p-value 2.32501e-216)
    [+] Spearman: 0.52 (p-value 1.65975e-154)

[i] Newman YEPD abundance vs. Length given mRNA (2353)
    [+] Pearson:  0.08 (p-value 4.93412e-05)
    [+] Spearman: 0.32 (p-value 8.60564e-61)

[i] Log(Newman YEPD abundance) vs. Log(Length) given Log(mRNA) (2353)
    [+] Pearson:  0.37 (p-value 1.42079e-85)
    [+] Spearman: 0.32 (p-value 8.60564e-61)

[i] Newman YEPD abundance Corrected vs. Length (2063)
    [+] Pearson:  -0.03 (p-value 0.124908)
    [+] Spearman: -0.11 (p-value 3.46284e-07)

[i] Log(Newman YEPD abundance Corrected) vs. Log(Length) (2063)
    [+] Pearson:  -0.13 (p-value 1.91046e-09)
    [+] Spearman: -0.11 (p-value 3.46284e-07)

[i] Newman YEPD abundance Corrected vs. Length (2063)
    [+] Pearson:  -0.03 (p-value 0.124908)
    [+] Spearman: -0.11 (p-value 3.46284e-07)

[i] Log(Newman YEPD abundance Corrected) vs. Log(Length) (2063)
    [+] Pearson:  -0.13 (p-value 1.91046e-09)
    [+] Spearman: -0.11 (p-value 3.46284e-07)

[i] Newman YEPD abundance Corrected vs. Forest Density (1619)
    [+] Pearson:  0.26 (p-value 2.52765e-27)
    [+] Spearman: 0.53 (p-value 9.22862e-117)

[i] Log(Newman YEPD abundance Corrected) vs. Log(Forest Density) (1619)
    [+] Pearson:  0.54 (p-value 3.10907e-123)
    [+] Spearman: 0.53 (p-value 9.22862e-117)

[i] Newman YEPD abundance Corrected vs. Forest Density given mRNA (1619)
    [+] Pearson:  0.27 (p-value 1.51573e-30)
    [+] Spearman: 0.53 (p-value 6.29912e-137)

[i] Log(Newman YEPD abundance Corrected) vs. Log(Forest Density) given Log(mRNA) (1619)
    [+] Pearson:  0.59 (p-value 1.86641e-189)
    [+] Spearman: 0.53 (p-value 6.29912e-137)

[i] Newman YEPD abundance Corrected vs. Length given mRNA (1984)
    [+] Pearson:  0.10 (p-value 1.00451e-05)
    [+] Spearman: 0.32 (p-value 2.11037e-52)

[i] Log(Newman YEPD abundance Corrected) vs. Log(Length) given Log(mRNA) (1984)
    [+] Pearson:  0.38 (p-value 2.21461e-75)
    [+] Spearman: 0.32 (p-value 2.11037e-52)

---------------------------

[i] Newman SD abundance vs. Length (2381)
    [+] Pearson:  -0.04 (p-value 0.05852)
    [+] Spearman: -0.14 (p-value 3.27155e-12)

[i] Log(Newman SD abundance) vs. Log(Length) (2381)
    [+] Pearson:  -0.15 (p-value 3.92067e-13)
    [+] Spearman: -0.14 (p-value 3.27155e-12)

[i] Newman SD abundance vs. mRNA (2285)
    [+] Pearson:  0.59 (p-value 3.48533e-210)
    [+] Spearman: 0.57 (p-value 1.45265e-195)

[i] Log(Newman SD abundance) vs. Log(mRNA) (2285)
    [+] Pearson:  0.62 (p-value 1.94474e-240)
    [+] Spearman: 0.57 (p-value 1.45265e-195)

[i] Newman SD abundance vs. Forest Density (1845)
    [+] Pearson:  0.26 (p-value 5.07594e-31)
    [+] Spearman: 0.51 (p-value 3.99855e-121)

[i] Log(Newman SD abundance) vs. Log(Forest Density) (1845)
    [+] Pearson:  0.50 (p-value 3.31987e-117)
    [+] Spearman: 0.51 (p-value 3.99855e-121)

[i] Newman SD abundance vs. Forest Density given mRNA (1845)
    [+] Pearson:  0.27 (p-value 1.03915e-33)
    [+] Spearman: 0.48 (p-value 1.62754e-120)

[i] Log(Newman SD abundance) vs. Log(Forest Density) given Log(mRNA) (1845)
    [+] Pearson:  0.51 (p-value 3.25761e-139)
    [+] Spearman: 0.48 (p-value 1.62754e-120)

[i] Newman SD abundance vs. Length given mRNA (2285)
    [+] Pearson:  0.08 (p-value 5.28278e-05)
    [+] Spearman: 0.28 (p-value 5.93431e-43)

[i] Log(Newman SD abundance) vs. Log(Length) given Log(mRNA) (2285)
    [+] Pearson:  0.32 (p-value 8.63463e-60)
    [+] Spearman: 0.28 (p-value 5.93431e-43)

[i] Newman SD abundance Corrected vs. Length (2005)
    [+] Pearson:  -0.03 (p-value 0.171993)
    [+] Spearman: -0.12 (p-value 2.00765e-07)

[i] Log(Newman SD abundance Corrected) vs. Log(Length) (2005)
    [+] Pearson:  -0.13 (p-value 1.39945e-08)
    [+] Spearman: -0.12 (p-value 2.00765e-07)

[i] Newman SD abundance Corrected vs. Length (2005)
    [+] Pearson:  -0.03 (p-value 0.171993)
    [+] Spearman: -0.12 (p-value 2.00765e-07)

[i] Log(Newman SD abundance Corrected) vs. Log(Length) (2005)
    [+] Pearson:  -0.13 (p-value 1.39945e-08)
    [+] Spearman: -0.12 (p-value 2.00765e-07)

[i] Newman SD abundance Corrected vs. Forest Density (1566)
    [+] Pearson:  0.25 (p-value 1.76826e-23)
    [+] Spearman: 0.50 (p-value 9.0357e-101)

[i] Log(Newman SD abundance Corrected) vs. Log(Forest Density) (1566)
    [+] Pearson:  0.49 (p-value 1.10462e-96)
    [+] Spearman: 0.50 (p-value 9.0357e-101)

[i] Newman SD abundance Corrected vs. Forest Density given mRNA (1566)
    [+] Pearson:  0.26 (p-value 1.65513e-25)
    [+] Spearman: 0.48 (p-value 7.82842e-106)

[i] Log(Newman SD abundance Corrected) vs. Log(Forest Density) given Log(mRNA) (1566)
    [+] Pearson:  0.51 (p-value 5.88316e-123)
    [+] Spearman: 0.48 (p-value 7.82842e-106)

[i] Newman SD abundance Corrected vs. Length given mRNA (1930)
    [+] Pearson:  0.10 (p-value 1.46044e-05)
    [+] Spearman: 0.28 (p-value 7.39997e-37)

[i] Log(Newman SD abundance Corrected) vs. Log(Length) given Log(mRNA) (1930)
    [+] Pearson:  0.33 (p-value 1.62425e-54)
    [+] Spearman: 0.28 (p-value 7.39997e-37)

---------------------------

[i] Ghaemmaghami abundance vs. Length (3702)
    [+] Pearson:  -0.03 (p-value 0.033433)
    [+] Spearman: -0.16 (p-value 2.24385e-23)

[i] Log(Ghaemmaghami abundance) vs. Log(Length) (3702)
    [+] Pearson:  -0.17 (p-value 3.7471e-25)
    [+] Spearman: -0.16 (p-value 2.24385e-23)

[i] Ghaemmaghami abundance vs. mRNA (3603)
    [+] Pearson:  0.43 (p-value 3.28679e-163)
    [+] Spearman: 0.54 (p-value 1.1641e-274)

[i] Log(Ghaemmaghami abundance) vs. Log(mRNA) (3603)
    [+] Pearson:  0.59 (p-value 0)
    [+] Spearman: 0.54 (p-value 1.1641e-274)

[i] Ghaemmaghami abundance vs. Forest Density (2832)
    [+] Pearson:  0.28 (p-value 1.27215e-53)
    [+] Spearman: 0.46 (p-value 1.33268e-151)

[i] Log(Ghaemmaghami abundance) vs. Log(Forest Density) (2832)
    [+] Pearson:  0.48 (p-value 9.5702e-163)
    [+] Spearman: 0.46 (p-value 1.33268e-151)

[i] Ghaemmaghami abundance vs. Forest Density given mRNA (2832)
    [+] Pearson:  0.26 (p-value 9.62524e-48)
    [+] Spearman: 0.37 (p-value 1.41965e-102)

[i] Log(Ghaemmaghami abundance) vs. Log(Forest Density) given Log(mRNA) (2832)
    [+] Pearson:  0.42 (p-value 1.0582e-130)
    [+] Spearman: 0.37 (p-value 1.41965e-102)

[i] Ghaemmaghami abundance vs. Length given mRNA (3603)
    [+] Pearson:  0.04 (p-value 0.011927)
    [+] Spearman: 0.21 (p-value 6.04035e-37)

[i] Log(Ghaemmaghami abundance) vs. Log(Length) given Log(mRNA) (3603)
    [+] Pearson:  0.24 (p-value 2.0288e-50)
    [+] Spearman: 0.21 (p-value 6.04035e-37)

[i] Ghaemmaghami abundance Corrected vs. Length (3286)
    [+] Pearson:  -0.03 (p-value 0.0810524)
    [+] Spearman: -0.14 (p-value 3.25961e-16)

[i] Log(Ghaemmaghami abundance Corrected) vs. Log(Length) (3286)
    [+] Pearson:  -0.15 (p-value 4.48134e-18)
    [+] Spearman: -0.14 (p-value 3.25961e-16)

[i] Ghaemmaghami abundance Corrected vs. Length (3286)
    [+] Pearson:  -0.03 (p-value 0.0810524)
    [+] Spearman: -0.14 (p-value 3.25961e-16)

[i] Log(Ghaemmaghami abundance Corrected) vs. Log(Length) (3286)
    [+] Pearson:  -0.15 (p-value 4.48134e-18)
    [+] Spearman: -0.14 (p-value 3.25961e-16)

[i] Ghaemmaghami abundance Corrected vs. Forest Density (2529)
    [+] Pearson:  0.29 (p-value 3.87174e-51)
    [+] Spearman: 0.46 (p-value 1.43702e-131)

[i] Log(Ghaemmaghami abundance Corrected) vs. Log(Forest Density) (2529)
    [+] Pearson:  0.47 (p-value 8.26953e-142)
    [+] Spearman: 0.46 (p-value 1.43702e-131)

[i] Ghaemmaghami abundance Corrected vs. Forest Density given mRNA (2529)
    [+] Pearson:  0.27 (p-value 4.87376e-46)
    [+] Spearman: 0.38 (p-value 2.72673e-94)

[i] Log(Ghaemmaghami abundance Corrected) vs. Log(Forest Density) given Log(mRNA) (2529)
    [+] Pearson:  0.42 (p-value 2.15022e-120)
    [+] Spearman: 0.38 (p-value 2.72673e-94)

[i] Ghaemmaghami abundance Corrected vs. Length given mRNA (3205)
    [+] Pearson:  0.05 (p-value 0.00696884)
    [+] Spearman: 0.21 (p-value 8.19027e-34)

[i] Log(Ghaemmaghami abundance Corrected) vs. Log(Length) given Log(mRNA) (3205)
    [+] Pearson:  0.24 (p-value 3.78895e-46)
    [+] Spearman: 0.21 (p-value 8.19027e-34)

---------------------------

[i] Initiation vs. Newman YEPD abundances (1917)
a or b too big, or ITMAX too small in Betacf for  1  elements
    [+] Pearson:  0.00 (p-value 0.946609)
    [+] Spearman: 0.55 (p-value 1.04408e-152)

[i] Log(Initiation) vs. Log(Newman YEPD abundances) (1917)
    [+] Pearson:  0.54 (p-value 6.07751e-146)
    [+] Spearman: 0.55 (p-value 1.04408e-152)

[i] J vs. Newman YEPD abundances (1917)
    [+] Pearson:  0.34 (p-value 7.31286e-54)
    [+] Spearman: 0.56 (p-value 2.15888e-155)

[i] Log(J) vs. Log(Newman YEPD abundances) (1917)
    [+] Pearson:  0.59 (p-value 2.73292e-177)
    [+] Spearman: 0.56 (p-value 2.15888e-155)

[i] J * mRNA vs. Newman YEPD abundances (1904)
    [+] Pearson:  0.72 (p-value 5.75154e-303)
    [+] Spearman: 0.72 (p-value 2.16124e-302)

[i] Log(J * mRNA) vs. Log(Newman YEPD abundances) (1904)
    [+] Pearson:  0.76 (p-value 0)
    [+] Spearman: 0.72 (p-value 2.16124e-302)

[i] J vs. Newman YEPD abundances given mRNA (1904)
    [+] Pearson:  0.33 (p-value 5.23992e-53)
    [+] Spearman: 0.52 (p-value 1.94362e-151)

[i] Log(J) vs. Log(Newman YEPD abundances) given Log(mRNA) (1904)
    [+] Pearson:  0.57 (p-value 3.27159e-201)
    [+] Spearman: 0.52 (p-value 1.94362e-151)

[i] Initiation vs. Newman YEPD abundances Corrected (1628)
a or b too big, or ITMAX too small in Betacf for  1  elements
    [+] Pearson:  0.00 (p-value 0.968367)
    [+] Spearman: 0.54 (p-value 8.04937e-123)

[i] Log(Initiation) vs. Log(Newman YEPD abundances Corrected) (1628)
    [+] Pearson:  0.52 (p-value 7.19015e-113)
    [+] Spearman: 0.54 (p-value 8.04937e-123)

[i] J vs. Newman YEPD abundances Corrected (1628)
    [+] Pearson:  0.31 (p-value 1.83613e-36)
    [+] Spearman: 0.54 (p-value 6.93002e-125)

[i] Log(J) vs. Log(Newman YEPD abundances Corrected) (1628)
    [+] Pearson:  0.57 (p-value 5.41047e-141)
    [+] Spearman: 0.54 (p-value 6.93002e-125)

[i] J * mRNA vs. Newman YEPD abundances Corrected (1619)
    [+] Pearson:  0.76 (p-value 2.72412e-304)
    [+] Spearman: 0.71 (p-value 1.69348e-248)

[i] Log(J * mRNA) vs. Log(Newman YEPD abundances Corrected) (1619)
    [+] Pearson:  0.75 (p-value 3.69352e-295)
    [+] Spearman: 0.71 (p-value 1.69348e-248)

[i] J vs. Newman YEPD abundances Corrected given mRNA (1619)
    [+] Pearson:  0.29 (p-value 1.51792e-33)
    [+] Spearman: 0.51 (p-value 5.36964e-128)

[i] Log(J) vs. Log(Newman YEPD abundances Corrected) given Log(mRNA) (1619)
    [+] Pearson:  0.56 (p-value 2.0547e-164)
    [+] Spearman: 0.51 (p-value 5.36964e-128)

---------------------------

[i] Initiation vs. Newman SD abundances (1856)
a or b too big, or ITMAX too small in Betacf for  1  elements
    [+] Pearson:  0.00 (p-value 0.996163)
    [+] Spearman: 0.53 (p-value 5.62784e-134)

[i] Log(Initiation) vs. Log(Newman SD abundances) (1856)
    [+] Pearson:  0.50 (p-value 1.35037e-118)
    [+] Spearman: 0.53 (p-value 5.62784e-134)

[i] J vs. Newman SD abundances (1856)
    [+] Pearson:  0.32 (p-value 1.85469e-44)
    [+] Spearman: 0.53 (p-value 6.91326e-137)

[i] Log(J) vs. Log(Newman SD abundances) (1856)
    [+] Pearson:  0.55 (p-value 4.56493e-145)
    [+] Spearman: 0.53 (p-value 6.91326e-137)

[i] J * mRNA vs. Newman SD abundances (1845)
    [+] Pearson:  0.71 (p-value 1.7292e-281)
    [+] Spearman: 0.70 (p-value 1.13827e-266)

[i] Log(J * mRNA) vs. Log(Newman SD abundances) (1845)
    [+] Pearson:  0.72 (p-value 1.6474e-295)
    [+] Spearman: 0.70 (p-value 1.13827e-266)

[i] J vs. Newman SD abundances given mRNA (1845)
    [+] Pearson:  0.30 (p-value 3.15854e-41)
    [+] Spearman: 0.48 (p-value 1.72638e-120)

[i] Log(J) vs. Log(Newman SD abundances) given Log(mRNA) (1845)
    [+] Pearson:  0.51 (p-value 1.66957e-139)
    [+] Spearman: 0.48 (p-value 1.72638e-120)

[i] Initiation vs. Newman SD abundances Corrected (1573)
a or b too big, or ITMAX too small in Betacf for  1  elements
    [+] Pearson:  -0.00 (p-value 0.990758)
    [+] Spearman: 0.52 (p-value 9.60919e-108)

[i] Log(Initiation) vs. Log(Newman SD abundances Corrected) (1573)
    [+] Pearson:  0.48 (p-value 8.92042e-92)
    [+] Spearman: 0.52 (p-value 9.60919e-108)

[i] J vs. Newman SD abundances Corrected (1573)
    [+] Pearson:  0.28 (p-value 1.03555e-29)
    [+] Spearman: 0.52 (p-value 1.2406e-109)

[i] Log(J) vs. Log(Newman SD abundances Corrected) (1573)
    [+] Pearson:  0.53 (p-value 2.87366e-115)
    [+] Spearman: 0.52 (p-value 1.2406e-109)

[i] J * mRNA vs. Newman SD abundances Corrected (1566)
    [+] Pearson:  0.77 (p-value 4.17104e-303)
    [+] Spearman: 0.68 (p-value 2.05453e-213)

[i] Log(J * mRNA) vs. Log(Newman SD abundances Corrected) (1566)
    [+] Pearson:  0.71 (p-value 2.77889e-243)
    [+] Spearman: 0.68 (p-value 2.05453e-213)

[i] J vs. Newman SD abundances Corrected given mRNA (1566)
    [+] Pearson:  0.26 (p-value 7.71404e-26)
    [+] Spearman: 0.48 (p-value 7.66638e-102)

[i] Log(J) vs. Log(Newman SD abundances Corrected) given Log(mRNA) (1566)
    [+] Pearson:  0.50 (p-value 1.35309e-115)
    [+] Spearman: 0.48 (p-value 7.66638e-102)

---------------------------

[i] Initiation vs. Ghaemmaghami abundances (2843)
a or b too big, or ITMAX too small in Betacf for  1  elements
    [+] Pearson:  0.00 (p-value 0.958922)
    [+] Spearman: 0.49 (p-value 8.86006e-170)

[i] Log(Initiation) vs. Log(Ghaemmaghami abundances) (2843)
    [+] Pearson:  0.48 (p-value 3.2984e-162)
    [+] Spearman: 0.49 (p-value 8.86006e-170)

[i] J vs. Ghaemmaghami abundances (2843)
    [+] Pearson:  0.34 (p-value 5.25712e-78)
    [+] Spearman: 0.49 (p-value 2.77653e-172)

[i] Log(J) vs. Log(Ghaemmaghami abundances) (2843)
    [+] Pearson:  0.51 (p-value 1.39745e-187)
    [+] Spearman: 0.49 (p-value 2.77653e-172)

[i] J * mRNA vs. Ghaemmaghami abundances (2832)
    [+] Pearson:  0.45 (p-value 2.09813e-142)
    [+] Spearman: 0.63 (p-value 1.5748e-316)

[i] Log(J * mRNA) vs. Log(Ghaemmaghami abundances) (2832)
    [+] Pearson:  0.67 (p-value 0)
    [+] Spearman: 0.63 (p-value 1.5748e-316)

[i] J vs. Ghaemmaghami abundances given mRNA (2832)
    [+] Pearson:  0.30 (p-value 1.11474e-64)
    [+] Spearman: 0.39 (p-value 1.64271e-115)

[i] Log(J) vs. Log(Ghaemmaghami abundances) given Log(mRNA) (2832)
    [+] Pearson:  0.42 (p-value 6.23216e-132)
    [+] Spearman: 0.39 (p-value 1.64271e-115)

[i] Initiation vs. Ghaemmaghami abundances Corrected (2537)
a or b too big, or ITMAX too small in Betacf for  1  elements
    [+] Pearson:  0.00 (p-value 0.979891)
    [+] Spearman: 0.48 (p-value 5.58872e-146)

[i] Log(Initiation) vs. Log(Ghaemmaghami abundances Corrected) (2537)
    [+] Pearson:  0.47 (p-value 4.63627e-137)
    [+] Spearman: 0.48 (p-value 5.58872e-146)

[i] J vs. Ghaemmaghami abundances Corrected (2537)
    [+] Pearson:  0.34 (p-value 6.04926e-70)
    [+] Spearman: 0.48 (p-value 6.02405e-148)

[i] Log(J) vs. Log(Ghaemmaghami abundances Corrected) (2537)
    [+] Pearson:  0.50 (p-value 3.12236e-161)
    [+] Spearman: 0.48 (p-value 6.02405e-148)

[i] J * mRNA vs. Ghaemmaghami abundances Corrected (2529)
    [+] Pearson:  0.44 (p-value 4.36168e-123)
    [+] Spearman: 0.61 (p-value 1.11387e-262)

[i] Log(J * mRNA) vs. Log(Ghaemmaghami abundances Corrected) (2529)
    [+] Pearson:  0.66 (p-value 4.82159e-314)
    [+] Spearman: 0.61 (p-value 1.11387e-262)

[i] J vs. Ghaemmaghami abundances Corrected given mRNA (2529)
    [+] Pearson:  0.31 (p-value 1.15329e-58)
    [+] Spearman: 0.40 (p-value 7.82906e-106)

[i] Log(J) vs. Log(Ghaemmaghami abundances Corrected) given Log(mRNA) (2529)
    [+] Pearson:  0.42 (p-value 3.09426e-120)
    [+] Spearman: 0.40 (p-value 7.82906e-106)

---------------------------

[i] Initiation other vs. Newman YEPD abundances (1917)
    [+] Pearson:  0.02 (p-value 0.290742)
    [+] Spearman: 0.56 (p-value 2.02753e-161)

[i] Log(Initiation other) vs. Log(Newman YEPD abundances) (1917)
    [+] Pearson:  0.59 (p-value 4.70538e-177)
    [+] Spearman: 0.56 (p-value 2.02753e-161)

[i] J other vs. Newman YEPD abundances (1917)
    [+] Pearson:  0.46 (p-value 3.59254e-100)
    [+] Spearman: 0.57 (p-value 6.3449e-166)

[i] Log(J other) vs. Log(Newman YEPD abundances) (1917)
    [+] Pearson:  0.61 (p-value 7.85279e-200)
    [+] Spearman: 0.57 (p-value 6.3449e-166)

[i] J other * mRNA vs. Newman YEPD abundances (1904)
    [+] Pearson:  0.73 (p-value 3.54443e-320)
    [+] Spearman: 0.72 (p-value 2.17867e-306)

[i] Log(J other * mRNA) vs. Log(Newman YEPD abundances) (1904)
    [+] Pearson:  0.76 (p-value 0)
    [+] Spearman: 0.72 (p-value 2.17867e-306)

[i] J other vs. Newman YEPD abundances given mRNA (1904)
    [+] Pearson:  0.41 (p-value 1.23516e-86)
    [+] Spearman: 0.52 (p-value 8.2051e-154)

[i] Log(J other) vs. Log(Newman YEPD abundances) given Log(mRNA) (1904)
    [+] Pearson:  0.57 (p-value 1.29214e-205)
    [+] Spearman: 0.52 (p-value 8.2051e-154)

[i] Initiation other vs. Newman YEPD abundances Corrected (1628)
    [+] Pearson:  0.13 (p-value 3.44291e-07)
    [+] Spearman: 0.56 (p-value 3.7579e-133)

[i] Log(Initiation other) vs. Log(Newman YEPD abundances Corrected) (1628)
    [+] Pearson:  0.58 (p-value 2.41091e-148)
    [+] Spearman: 0.56 (p-value 3.7579e-133)

[i] J other vs. Newman YEPD abundances Corrected (1628)
    [+] Pearson:  0.44 (p-value 3.61653e-78)
    [+] Spearman: 0.56 (p-value 3.09791e-137)

[i] Log(J other) vs. Log(Newman YEPD abundances Corrected) (1628)
    [+] Pearson:  0.60 (p-value 1.94882e-160)
    [+] Spearman: 0.56 (p-value 3.09791e-137)

[i] J other * mRNA vs. Newman YEPD abundances Corrected (1619)
    [+] Pearson:  0.80 (p-value 0)
    [+] Spearman: 0.72 (p-value 3.63612e-255)

[i] Log(J other * mRNA) vs. Log(Newman YEPD abundances Corrected) (1619)
    [+] Pearson:  0.76 (p-value 2.38623e-303)
    [+] Spearman: 0.72 (p-value 3.63612e-255)

[i] J other vs. Newman YEPD abundances Corrected given mRNA (1619)
    [+] Pearson:  0.39 (p-value 2.13985e-66)
    [+] Spearman: 0.52 (p-value 2.29622e-135)

[i] Log(J other) vs. Log(Newman YEPD abundances Corrected) given Log(mRNA) (1619)
    [+] Pearson:  0.57 (p-value 5.67768e-174)
    [+] Spearman: 0.52 (p-value 2.29622e-135)

---------------------------

[i] Initiation other vs. Newman SD abundances (1856)
    [+] Pearson:  0.02 (p-value 0.50901)
    [+] Spearman: 0.55 (p-value 7.07764e-147)

[i] Log(Initiation other) vs. Log(Newman SD abundances) (1856)
    [+] Pearson:  0.56 (p-value 2.36102e-152)
    [+] Spearman: 0.55 (p-value 7.07764e-147)

[i] J other vs. Newman SD abundances (1856)
    [+] Pearson:  0.43 (p-value 2.79565e-86)
    [+] Spearman: 0.56 (p-value 3.72484e-151)

[i] Log(J other) vs. Log(Newman SD abundances) (1856)
    [+] Pearson:  0.59 (p-value 2.56449e-172)
    [+] Spearman: 0.56 (p-value 3.72484e-151)

[i] J other * mRNA vs. Newman SD abundances (1845)
    [+] Pearson:  0.71 (p-value 2.01396e-288)
    [+] Spearman: 0.70 (p-value 1.78598e-274)

[i] Log(J other * mRNA) vs. Log(Newman SD abundances) (1845)
    [+] Pearson:  0.73 (p-value 4.89377e-307)
    [+] Spearman: 0.70 (p-value 1.78598e-274)

[i] J other vs. Newman SD abundances given mRNA (1845)
    [+] Pearson:  0.38 (p-value 2.02618e-70)
    [+] Spearman: 0.49 (p-value 1.18589e-128)

[i] Log(J other) vs. Log(Newman SD abundances) given Log(mRNA) (1845)
    [+] Pearson:  0.53 (p-value 4.49464e-155)
    [+] Spearman: 0.49 (p-value 1.18589e-128)

[i] Initiation other vs. Newman SD abundances Corrected (1573)
    [+] Pearson:  0.12 (p-value 1.54744e-06)
    [+] Spearman: 0.54 (p-value 4.42223e-118)

[i] Log(Initiation other) vs. Log(Newman SD abundances Corrected) (1573)
    [+] Pearson:  0.55 (p-value 6.5784e-127)
    [+] Spearman: 0.54 (p-value 4.42223e-118)

[i] J other vs. Newman SD abundances Corrected (1573)
    [+] Pearson:  0.42 (p-value 4.19601e-69)
    [+] Spearman: 0.54 (p-value 1.11693e-121)

[i] Log(J other) vs. Log(Newman SD abundances Corrected) (1573)
    [+] Pearson:  0.57 (p-value 8.13164e-137)
    [+] Spearman: 0.54 (p-value 1.11693e-121)

[i] J other * mRNA vs. Newman SD abundances Corrected (1566)
    [+] Pearson:  0.80 (p-value 0)
    [+] Spearman: 0.69 (p-value 6.65348e-221)

[i] Log(J other * mRNA) vs. Log(Newman SD abundances Corrected) (1566)
    [+] Pearson:  0.72 (p-value 4.52524e-254)
    [+] Spearman: 0.69 (p-value 6.65348e-221)

[i] J other vs. Newman SD abundances Corrected given mRNA (1566)
    [+] Pearson:  0.37 (p-value 2.17574e-56)
    [+] Spearman: 0.49 (p-value 8.82458e-110)

[i] Log(J other) vs. Log(Newman SD abundances Corrected) given Log(mRNA) (1566)
    [+] Pearson:  0.52 (p-value 2.40801e-130)
    [+] Spearman: 0.49 (p-value 8.82458e-110)

---------------------------

[i] Initiation other vs. Ghaemmaghami abundances (2843)
a or b too big, or ITMAX too small in Betacf for  1  elements
    [+] Pearson:  0.00 (p-value 0.9691)
    [+] Spearman: 0.49 (p-value 7.65855e-173)

[i] Log(Initiation other) vs. Log(Ghaemmaghami abundances) (2843)
    [+] Pearson:  0.51 (p-value 7.46191e-187)
    [+] Spearman: 0.49 (p-value 7.65855e-173)

[i] J other vs. Ghaemmaghami abundances (2843)
    [+] Pearson:  0.45 (p-value 2.99128e-139)
    [+] Spearman: 0.50 (p-value 3.21897e-176)

[i] Log(J other) vs. Log(Ghaemmaghami abundances) (2843)
    [+] Pearson:  0.53 (p-value 2.69527e-205)
    [+] Spearman: 0.50 (p-value 3.21897e-176)

[i] J other * mRNA vs. Ghaemmaghami abundances (2832)
    [+] Pearson:  0.46 (p-value 1.80395e-145)
    [+] Spearman: 0.63 (p-value 1.24066e-312)

[i] Log(J other * mRNA) vs. Log(Ghaemmaghami abundances) (2832)
    [+] Pearson:  0.67 (p-value 0)
    [+] Spearman: 0.63 (p-value 1.24066e-312)

[i] J other vs. Ghaemmaghami abundances given mRNA (2832)
    [+] Pearson:  0.39 (p-value 8.82092e-111)
    [+] Spearman: 0.39 (p-value 4.08998e-109)

[i] Log(J other) vs. Log(Ghaemmaghami abundances) given Log(mRNA) (2832)
    [+] Pearson:  0.42 (p-value 5.54109e-131)
    [+] Spearman: 0.39 (p-value 4.08998e-109)

[i] Initiation other vs. Ghaemmaghami abundances Corrected (2537)
    [+] Pearson:  0.14 (p-value 3.88268e-12)
    [+] Spearman: 0.48 (p-value 1.21286e-146)

[i] Log(Initiation other) vs. Log(Ghaemmaghami abundances Corrected) (2537)
    [+] Pearson:  0.51 (p-value 5.66187e-167)
    [+] Spearman: 0.48 (p-value 1.21286e-146)

[i] J other vs. Ghaemmaghami abundances Corrected (2537)
    [+] Pearson:  0.46 (p-value 1.48413e-135)
    [+] Spearman: 0.48 (p-value 3.30089e-149)

[i] Log(J other) vs. Log(Ghaemmaghami abundances Corrected) (2537)
    [+] Pearson:  0.52 (p-value 4.05334e-176)
    [+] Spearman: 0.48 (p-value 3.30089e-149)

[i] J other * mRNA vs. Ghaemmaghami abundances Corrected (2529)
    [+] Pearson:  0.46 (p-value 1.48565e-130)
    [+] Spearman: 0.61 (p-value 5.8635e-259)

[i] Log(J other * mRNA) vs. Log(Ghaemmaghami abundances Corrected) (2529)
    [+] Pearson:  0.66 (p-value 4.21778e-315)
    [+] Spearman: 0.61 (p-value 5.8635e-259)

[i] J other vs. Ghaemmaghami abundances Corrected given mRNA (2529)
    [+] Pearson:  0.41 (p-value 6.15142e-112)
    [+] Spearman: 0.39 (p-value 1.64559e-98)

[i] Log(J other) vs. Log(Ghaemmaghami abundances Corrected) given Log(mRNA) (2529)
    [+] Pearson:  0.42 (p-value 4.0423e-120)
    [+] Spearman: 0.39 (p-value 1.64559e-98)

---------------------------

[i] Ciandrini Initiation vs. Newman YEPD abundances (2385)
    [+] Pearson:  0.18 (p-value 2.32786e-18)
    [+] Spearman: 0.44 (p-value 1.58347e-112)

[i] Log(Ciandrini Initiation) vs. Log(Newman YEPD abundances) (2385)
    [+] Pearson:  0.42 (p-value 7.24529e-101)
    [+] Spearman: 0.44 (p-value 1.58347e-112)

[i] Ciandrini J vs. Newman YEPD abundances (2385)
    [+] Pearson:  0.25 (p-value 1.15204e-35)
    [+] Spearman: 0.45 (p-value 2.38469e-121)

[i] Log(Ciandrini J) vs. Log(Newman YEPD abundances) (2385)
    [+] Pearson:  0.45 (p-value 5.10071e-117)
    [+] Spearman: 0.45 (p-value 2.38469e-121)

[i] Ciandrini J * mRNA vs. Newman YEPD abundances (2245)
    [+] Pearson:  0.54 (p-value 1.8442e-172)
    [+] Spearman: 0.57 (p-value 1.00315e-194)

[i] Log(Ciandrini J * mRNA) vs. Log(Newman YEPD abundances) (2245)
    [+] Pearson:  0.62 (p-value 4.01731e-239)
    [+] Spearman: 0.57 (p-value 1.00315e-194)

[i] Ciandrini J vs. Newman YEPD abundances given mRNA (2245)
    [+] Pearson:  0.05 (p-value 0.00929698)
    [+] Spearman: 0.10 (p-value 1.09619e-06)

[i] Log(Ciandrini J) vs. Log(Newman YEPD abundances) given Log(mRNA) (2245)
    [+] Pearson:  0.02 (p-value 0.366918)
    [+] Spearman: 0.10 (p-value 1.09619e-06)

[i] Ciandrini Initiation vs. Newman YEPD abundances Corrected (2008)
    [+] Pearson:  0.18 (p-value 2.73967e-16)
    [+] Spearman: 0.43 (p-value 2.9401e-91)

[i] Log(Ciandrini Initiation) vs. Log(Newman YEPD abundances Corrected) (2008)
    [+] Pearson:  0.42 (p-value 6.16872e-86)
    [+] Spearman: 0.43 (p-value 2.9401e-91)

[i] Ciandrini J vs. Newman YEPD abundances Corrected (2008)
    [+] Pearson:  0.25 (p-value 1.87398e-29)
    [+] Spearman: 0.44 (p-value 1.15549e-97)

[i] Log(Ciandrini J) vs. Log(Newman YEPD abundances Corrected) (2008)
    [+] Pearson:  0.44 (p-value 3.16529e-97)
    [+] Spearman: 0.44 (p-value 1.15549e-97)

[i] Ciandrini J * mRNA vs. Newman YEPD abundances Corrected (1903)
    [+] Pearson:  0.56 (p-value 7.37931e-161)
    [+] Spearman: 0.56 (p-value 1.64382e-154)

[i] Log(Ciandrini J * mRNA) vs. Log(Newman YEPD abundances Corrected) (1903)
    [+] Pearson:  0.61 (p-value 4.07354e-194)
    [+] Spearman: 0.56 (p-value 1.64382e-154)

[i] Ciandrini J vs. Newman YEPD abundances Corrected given mRNA (1903)
    [+] Pearson:  0.04 (p-value 0.104705)
    [+] Spearman: 0.09 (p-value 5.33359e-05)

[i] Log(Ciandrini J) vs. Log(Newman YEPD abundances Corrected) given Log(mRNA) (1903)
    [+] Pearson:  0.01 (p-value 0.796786)
    [+] Spearman: 0.09 (p-value 5.33359e-05)

---------------------------

[i] Ciandrini Initiation vs. Newman SD abundances (2319)
    [+] Pearson:  0.18 (p-value 4.2983e-18)
    [+] Spearman: 0.43 (p-value 9.6414e-103)

[i] Log(Ciandrini Initiation) vs. Log(Newman SD abundances) (2319)
    [+] Pearson:  0.40 (p-value 1.57042e-87)
    [+] Spearman: 0.43 (p-value 9.6414e-103)

[i] Ciandrini J vs. Newman SD abundances (2319)
    [+] Pearson:  0.26 (p-value 1.00617e-37)
    [+] Spearman: 0.44 (p-value 8.97856e-113)

[i] Log(Ciandrini J) vs. Log(Newman SD abundances) (2319)
    [+] Pearson:  0.43 (p-value 3.41773e-105)
    [+] Spearman: 0.44 (p-value 8.97856e-113)

[i] Ciandrini J * mRNA vs. Newman SD abundances (2185)
    [+] Pearson:  0.53 (p-value 6.06582e-160)
    [+] Spearman: 0.56 (p-value 7.47468e-180)

[i] Log(Ciandrini J * mRNA) vs. Log(Newman SD abundances) (2185)
    [+] Pearson:  0.60 (p-value 5.65517e-211)
    [+] Spearman: 0.56 (p-value 7.47468e-180)

[i] Ciandrini J vs. Newman SD abundances given mRNA (2185)
    [+] Pearson:  0.06 (p-value 0.00771892)
    [+] Spearman: 0.10 (p-value 2.47392e-06)

[i] Log(Ciandrini J) vs. Log(Newman SD abundances) given Log(mRNA) (2185)
    [+] Pearson:  0.03 (p-value 0.177105)
    [+] Spearman: 0.10 (p-value 2.47392e-06)

[i] Ciandrini Initiation vs. Newman SD abundances Corrected (1954)
    [+] Pearson:  0.18 (p-value 1.01974e-15)
    [+] Spearman: 0.41 (p-value 3.54407e-78)

[i] Log(Ciandrini Initiation) vs. Log(Newman SD abundances Corrected) (1954)
    [+] Pearson:  0.39 (p-value 1.11192e-70)
    [+] Spearman: 0.41 (p-value 3.54407e-78)

[i] Ciandrini J vs. Newman SD abundances Corrected (1954)
    [+] Pearson:  0.25 (p-value 8.26746e-30)
    [+] Spearman: 0.42 (p-value 4.04771e-85)

[i] Log(Ciandrini J) vs. Log(Newman SD abundances Corrected) (1954)
    [+] Pearson:  0.42 (p-value 1.09934e-83)
    [+] Spearman: 0.42 (p-value 4.04771e-85)

[i] Ciandrini J * mRNA vs. Newman SD abundances Corrected (1854)
    [+] Pearson:  0.57 (p-value 3.59406e-158)
    [+] Spearman: 0.53 (p-value 5.99115e-134)

[i] Log(Ciandrini J * mRNA) vs. Log(Newman SD abundances Corrected) (1854)
    [+] Pearson:  0.58 (p-value 5.65383e-166)
    [+] Spearman: 0.53 (p-value 5.99115e-134)

[i] Ciandrini J vs. Newman SD abundances Corrected given mRNA (1854)
    [+] Pearson:  0.03 (p-value 0.146068)
    [+] Spearman: 0.08 (p-value 0.000419751)

[i] Log(Ciandrini J) vs. Log(Newman SD abundances Corrected) given Log(mRNA) (1854)
    [+] Pearson:  0.01 (p-value 0.723955)
    [+] Spearman: 0.08 (p-value 0.000419751)

---------------------------

[i] Ciandrini Initiation vs. Ghaemmaghami abundances (3689)
    [+] Pearson:  0.15 (p-value 5.19396e-21)
    [+] Spearman: 0.43 (p-value 7.27391e-168)

[i] Log(Ciandrini Initiation) vs. Log(Ghaemmaghami abundances) (3689)
    [+] Pearson:  0.42 (p-value 2.22953e-155)
    [+] Spearman: 0.43 (p-value 7.27391e-168)

[i] Ciandrini J vs. Ghaemmaghami abundances (3689)
    [+] Pearson:  0.26 (p-value 1.91913e-56)
    [+] Spearman: 0.44 (p-value 7.13338e-177)

[i] Log(Ciandrini J) vs. Log(Ghaemmaghami abundances) (3689)
    [+] Pearson:  0.45 (p-value 2.33401e-182)
    [+] Spearman: 0.44 (p-value 7.13338e-177)

[i] Ciandrini J * mRNA vs. Ghaemmaghami abundances (3464)
    [+] Pearson:  0.40 (p-value 1.87815e-130)
    [+] Spearman: 0.55 (p-value 1.75282e-271)

[i] Log(Ciandrini J * mRNA) vs. Log(Ghaemmaghami abundances) (3464)
    [+] Pearson:  0.59 (p-value 0)
    [+] Spearman: 0.55 (p-value 1.75282e-271)

[i] Ciandrini J vs. Ghaemmaghami abundances given mRNA (3464)
    [+] Pearson:  0.10 (p-value 7.80701e-10)
    [+] Spearman: 0.14 (p-value 2.15044e-16)

[i] Log(Ciandrini J) vs. Log(Ghaemmaghami abundances) given Log(mRNA) (3464)
    [+] Pearson:  0.11 (p-value 3.05237e-10)
    [+] Spearman: 0.14 (p-value 2.15044e-16)

[i] Ciandrini Initiation vs. Ghaemmaghami abundances Corrected (3279)
    [+] Pearson:  0.15 (p-value 3.66097e-17)
    [+] Spearman: 0.42 (p-value 2.31042e-137)

[i] Log(Ciandrini Initiation) vs. Log(Ghaemmaghami abundances Corrected) (3279)
    [+] Pearson:  0.40 (p-value 2.23762e-126)
    [+] Spearman: 0.42 (p-value 2.31042e-137)

[i] Ciandrini J vs. Ghaemmaghami abundances Corrected (3279)
    [+] Pearson:  0.25 (p-value 4.93155e-47)
    [+] Spearman: 0.42 (p-value 1.06641e-143)

[i] Log(Ciandrini J) vs. Log(Ghaemmaghami abundances Corrected) (3279)
    [+] Pearson:  0.43 (p-value 2.16087e-148)
    [+] Spearman: 0.42 (p-value 1.06641e-143)

[i] Ciandrini J * mRNA vs. Ghaemmaghami abundances Corrected (3094)
    [+] Pearson:  0.39 (p-value 1.13232e-113)
    [+] Spearman: 0.53 (p-value 1.86462e-219)

[i] Log(Ciandrini J * mRNA) vs. Log(Ghaemmaghami abundances Corrected) (3094)
    [+] Pearson:  0.57 (p-value 2.555e-270)
    [+] Spearman: 0.53 (p-value 1.86462e-219)

[i] Ciandrini J vs. Ghaemmaghami abundances Corrected given mRNA (3094)
    [+] Pearson:  0.10 (p-value 2.35163e-08)
    [+] Spearman: 0.13 (p-value 3.64108e-14)

[i] Log(Ciandrini J) vs. Log(Ghaemmaghami abundances Corrected) given Log(mRNA) (3094)
    [+] Pearson:  0.10 (p-value 4.56836e-08)
    [+] Spearman: 0.13 (p-value 3.64108e-14)

---------------------------

[i] Siwiak Initiation vs. Newman YEPD abundances (2298)
    [+] Pearson:  0.42 (p-value 5.30563e-100)
    [+] Spearman: 0.46 (p-value 1.19472e-118)

[i] Log(Siwiak Initiation) vs. Log(Newman YEPD abundances) (2298)
    [+] Pearson:  0.52 (p-value 6.52446e-163)
    [+] Spearman: 0.46 (p-value 1.19472e-118)

[i] Siwiak Initiation vs. Newman YEPD abundances Corrected (1941)
    [+] Pearson:  0.39 (p-value 1.39305e-72)
    [+] Spearman: 0.45 (p-value 3.87979e-95)

[i] Log(Siwiak Initiation) vs. Log(Newman YEPD abundances Corrected) (1941)
    [+] Pearson:  0.51 (p-value 2.08998e-130)
    [+] Spearman: 0.45 (p-value 3.87979e-95)

[i] Siwiak J vs. Newman YEPD abundances (2298)
    [+] Pearson:  0.27 (p-value 4.56791e-40)
    [+] Spearman: 0.33 (p-value 5.78009e-61)

[i] Log(Siwiak J) vs. Log(Newman YEPD abundances) (2298)
    [+] Pearson:  0.39 (p-value 1.04655e-82)
    [+] Spearman: 0.33 (p-value 5.78009e-61)

[i] Siwiak J * mRNA vs. Newman YEPD abundances (2194)
    [+] Pearson:  0.31 (p-value 3.41563e-49)
    [+] Spearman: 0.58 (p-value 2.47333e-201)

[i] Log(Siwiak J * mRNA) vs. Log(Newman YEPD abundances) (2194)
    [+] Pearson:  0.65 (p-value 1.89111e-267)
    [+] Spearman: 0.58 (p-value 2.47333e-201)

[i] Siwiak J vs. Newman YEPD abundances given mRNA (2272)
    [+] Pearson:  -0.06 (p-value 0.00730997)
    [+] Spearman: -0.12 (p-value 5.99267e-09)

[i] Log(Siwiak J) vs. Log(Newman YEPD abundances) given Log(mRNA) (2272)
    [+] Pearson:  -0.16 (p-value 2.34382e-15)
    [+] Spearman: -0.12 (p-value 5.99267e-09)

---------------------------

[i] Siwiak Initiation vs. Newman SD abundances (2224)
    [+] Pearson:  0.39 (p-value 6.10014e-84)
    [+] Spearman: 0.48 (p-value 3.46007e-128)

[i] Log(Siwiak Initiation) vs. Log(Newman SD abundances) (2224)
    [+] Pearson:  0.53 (p-value 3.51226e-159)
    [+] Spearman: 0.48 (p-value 3.46007e-128)

[i] Siwiak Initiation vs. Newman SD abundances Corrected (1881)
    [+] Pearson:  0.37 (p-value 2.74664e-63)
    [+] Spearman: 0.47 (p-value 4.70735e-102)

[i] Log(Siwiak Initiation) vs. Log(Newman SD abundances Corrected) (1881)
    [+] Pearson:  0.52 (p-value 2.76162e-128)
    [+] Spearman: 0.47 (p-value 4.70735e-102)

[i] Siwiak J vs. Newman SD abundances (2224)
    [+] Pearson:  0.26 (p-value 1.2276e-34)
    [+] Spearman: 0.36 (p-value 1.01321e-67)

[i] Log(Siwiak J) vs. Log(Newman SD abundances) (2224)
    [+] Pearson:  0.39 (p-value 5.16114e-81)
    [+] Spearman: 0.36 (p-value 1.01321e-67)

[i] Siwiak J * mRNA vs. Newman SD abundances (2132)
    [+] Pearson:  0.29 (p-value 3.90127e-41)
    [+] Spearman: 0.54 (p-value 1.47804e-159)

[i] Log(Siwiak J * mRNA) vs. Log(Newman SD abundances) (2132)
    [+] Pearson:  0.61 (p-value 1.99093e-214)
    [+] Spearman: 0.54 (p-value 1.47804e-159)

[i] Siwiak J vs. Newman SD abundances given mRNA (2198)
    [+] Pearson:  -0.06 (p-value 0.00747614)
    [+] Spearman: -0.07 (p-value 0.000730605)

[i] Log(Siwiak J) vs. Log(Newman SD abundances) given Log(mRNA) (2198)
    [+] Pearson:  -0.12 (p-value 4.63207e-08)
    [+] Spearman: -0.07 (p-value 0.000730605)

---------------------------

[i] Siwiak Initiation vs. Ghaemmaghami abundances (3490)
    [+] Pearson:  0.40 (p-value 7.15762e-134)
    [+] Spearman: 0.40 (p-value 7.78742e-134)

[i] Log(Siwiak Initiation) vs. Log(Ghaemmaghami abundances) (3490)
    [+] Pearson:  0.45 (p-value 6.36794e-177)
    [+] Spearman: 0.40 (p-value 7.78742e-134)

[i] Siwiak Initiation vs. Ghaemmaghami abundances Corrected (3111)
    [+] Pearson:  0.39 (p-value 7.61164e-113)
    [+] Spearman: 0.39 (p-value 5.4421e-116)

[i] Log(Siwiak Initiation) vs. Log(Ghaemmaghami abundances Corrected) (3111)
    [+] Pearson:  0.45 (p-value 9.96036e-156)
    [+] Spearman: 0.39 (p-value 5.4421e-116)

[i] Siwiak J vs. Ghaemmaghami abundances (3490)
    [+] Pearson:  0.22 (p-value 9.27966e-41)
    [+] Spearman: 0.37 (p-value 3.62239e-115)

[i] Log(Siwiak J) vs. Log(Ghaemmaghami abundances) (3490)
    [+] Pearson:  0.40 (p-value 1.91162e-132)
    [+] Spearman: 0.37 (p-value 3.62239e-115)

[i] Siwiak J * mRNA vs. Ghaemmaghami abundances (3308)
    [+] Pearson:  0.26 (p-value 1.29667e-50)
    [+] Spearman: 0.50 (p-value 1.6918e-212)

[i] Log(Siwiak J * mRNA) vs. Log(Ghaemmaghami abundances) (3308)
    [+] Pearson:  0.56 (p-value 8.54547e-271)
    [+] Spearman: 0.50 (p-value 1.6918e-212)

[i] Siwiak J vs. Ghaemmaghami abundances given mRNA (3448)
    [+] Pearson:  0.01 (p-value 0.647325)
    [+] Spearman: -0.01 (p-value 0.463687)

[i] Log(Siwiak J) vs. Log(Ghaemmaghami abundances) given Log(mRNA) (3448)
    [+] Pearson:  -0.05 (p-value 0.00255631)
    [+] Spearman: -0.01 (p-value 0.463687)

---------------------------

[i] Shah Initiation vs. Newman YEPD abundances (1950)
    [+] Pearson:  0.32 (p-value 2.61318e-48)
    [+] Spearman: 0.45 (p-value 5.54068e-98)

[i] Log(Shah Initiation) vs. Log(Newman YEPD abundances) (1950)
    [+] Pearson:  0.49 (p-value 7.15739e-121)
    [+] Spearman: 0.45 (p-value 5.54068e-98)

[i] Shah J vs. Newman YEPD abundances (1950)
    [+] Pearson:  0.14 (p-value 2.07798e-09)
    [+] Spearman: 0.21 (p-value 4.95882e-21)

[i] Log(Shah J) vs. Log(Newman YEPD abundances) (1950)
    [+] Pearson:  0.23 (p-value 8.83898e-26)
    [+] Spearman: 0.21 (p-value 4.95882e-21)

[i] Shah J * mRNA vs. Newman YEPD abundances (1928)
    [+] Pearson:  0.35 (p-value 4.17974e-58)
    [+] Spearman: 0.45 (p-value 1.87946e-96)

[i] Log(Shah J * mRNA) vs. Log(Newman YEPD abundances) (1928)
    [+] Pearson:  0.50 (p-value 9.65229e-125)
    [+] Spearman: 0.45 (p-value 1.87946e-96)

[i] Shah J vs. Newman YEPD abundances given mRNA (1928)
    [+] Pearson:  -0.13 (p-value 6.59394e-09)
    [+] Spearman: -0.26 (p-value 4.38662e-32)

[i] Log(Shah J) vs. Log(Newman YEPD abundances) given Log(mRNA) (1928)
    [+] Pearson:  -0.31 (p-value 4.71487e-47)
    [+] Spearman: -0.26 (p-value 4.38662e-32)

[i] Shah Initiation vs. Newman YEPD abundances Corrected (1654)
    [+] Pearson:  0.33 (p-value 1.23675e-44)
    [+] Spearman: 0.44 (p-value 2.56347e-78)

[i] Log(Shah Initiation) vs. Log(Newman YEPD abundances Corrected) (1654)
    [+] Pearson:  0.48 (p-value 1.63504e-97)
    [+] Spearman: 0.44 (p-value 2.56347e-78)

[i] Shah J vs. Newman YEPD abundances Corrected (1654)
    [+] Pearson:  0.14 (p-value 2.42932e-08)
    [+] Spearman: 0.19 (p-value 2.30885e-14)

[i] Log(Shah J) vs. Log(Newman YEPD abundances Corrected) (1654)
    [+] Pearson:  0.21 (p-value 9.727e-19)
    [+] Spearman: 0.19 (p-value 2.30885e-14)

[i] Shah J * mRNA vs. Newman YEPD abundances Corrected (1638)
    [+] Pearson:  0.38 (p-value 2.34799e-56)
    [+] Spearman: 0.43 (p-value 4.22036e-74)

[i] Log(Shah J * mRNA) vs. Log(Newman YEPD abundances Corrected) (1638)
    [+] Pearson:  0.49 (p-value 4.52101e-100)
    [+] Spearman: 0.43 (p-value 4.22036e-74)

[i] Shah J vs. Newman YEPD abundances Corrected given mRNA (1638)
    [+] Pearson:  -0.16 (p-value 1.5549e-10)
    [+] Spearman: -0.27 (p-value 3.86044e-29)

[i] Log(Shah J) vs. Log(Newman YEPD abundances Corrected) given Log(mRNA) (1638)
    [+] Pearson:  -0.32 (p-value 3.19188e-43)
    [+] Spearman: -0.27 (p-value 3.86044e-29)

---------------------------

[i] Shah Initiation vs. Newman SD abundances (1885)
    [+] Pearson:  0.32 (p-value 1.11844e-46)
    [+] Spearman: 0.49 (p-value 9.86496e-113)

[i] Log(Shah Initiation) vs. Log(Newman SD abundances) (1885)
    [+] Pearson:  0.50 (p-value 5.59249e-120)
    [+] Spearman: 0.49 (p-value 9.86496e-113)

[i] Shah J vs. Newman SD abundances (1885)
    [+] Pearson:  0.14 (p-value 1.81872e-09)
    [+] Spearman: 0.23 (p-value 7.47043e-25)

[i] Log(Shah J) vs. Log(Newman SD abundances) (1885)
    [+] Pearson:  0.25 (p-value 1.50765e-27)
    [+] Spearman: 0.23 (p-value 7.47043e-25)

[i] Shah J * mRNA vs. Newman SD abundances (1865)
    [+] Pearson:  0.36 (p-value 3.22016e-59)
    [+] Spearman: 0.46 (p-value 7.36621e-98)

[i] Log(Shah J * mRNA) vs. Log(Newman SD abundances) (1865)
    [+] Pearson:  0.50 (p-value 1.65574e-117)
    [+] Spearman: 0.46 (p-value 7.36621e-98)

[i] Shah J vs. Newman SD abundances given mRNA (1865)
    [+] Pearson:  -0.12 (p-value 1.25282e-07)
    [+] Spearman: -0.21 (p-value 2.55211e-20)

[i] Log(Shah J) vs. Log(Newman SD abundances) given Log(mRNA) (1865)
    [+] Pearson:  -0.25 (p-value 3.40838e-29)
    [+] Spearman: -0.21 (p-value 2.55211e-20)

[i] Shah Initiation vs. Newman SD abundances Corrected (1595)
    [+] Pearson:  0.35 (p-value 1.48e-47)
    [+] Spearman: 0.47 (p-value 1.10191e-88)

[i] Log(Shah Initiation) vs. Log(Newman SD abundances Corrected) (1595)
    [+] Pearson:  0.49 (p-value 2.40244e-97)
    [+] Spearman: 0.47 (p-value 1.10191e-88)

[i] Shah J vs. Newman SD abundances Corrected (1595)
    [+] Pearson:  0.15 (p-value 2.81338e-09)
    [+] Spearman: 0.20 (p-value 3.3906e-16)

[i] Log(Shah J) vs. Log(Newman SD abundances Corrected) (1595)
    [+] Pearson:  0.22 (p-value 3.03258e-19)
    [+] Spearman: 0.20 (p-value 3.3906e-16)

[i] Shah J * mRNA vs. Newman SD abundances Corrected (1582)
    [+] Pearson:  0.40 (p-value 7.66693e-62)
    [+] Spearman: 0.43 (p-value 2.59601e-71)

[i] Log(Shah J * mRNA) vs. Log(Newman SD abundances Corrected) (1582)
    [+] Pearson:  0.48 (p-value 2.07341e-92)
    [+] Spearman: 0.43 (p-value 2.59601e-71)

[i] Shah J vs. Newman SD abundances Corrected given mRNA (1582)
    [+] Pearson:  -0.15 (p-value 3.05275e-09)
    [+] Spearman: -0.22 (p-value 2.79298e-19)

[i] Log(Shah J) vs. Log(Newman SD abundances Corrected) given Log(mRNA) (1582)
    [+] Pearson:  -0.27 (p-value 2.28367e-29)
    [+] Spearman: -0.22 (p-value 2.79298e-19)

---------------------------

[i] Shah Initiation vs. Ghaemmaghami abundances (2898)
    [+] Pearson:  0.28 (p-value 3.58784e-52)
    [+] Spearman: 0.44 (p-value 8.37765e-136)

[i] Log(Shah Initiation) vs. Log(Ghaemmaghami abundances) (2898)
    [+] Pearson:  0.47 (p-value 5.98522e-160)
    [+] Spearman: 0.44 (p-value 8.37765e-136)

[i] Shah J vs. Ghaemmaghami abundances (2893)
    [+] Pearson:  0.17 (p-value 2.28931e-19)
    [+] Spearman: 0.26 (p-value 1.82013e-47)

[i] Log(Shah J) vs. Log(Ghaemmaghami abundances) (2893)
    [+] Pearson:  0.28 (p-value 1.71791e-54)
    [+] Spearman: 0.26 (p-value 1.82013e-47)

[i] Shah J * mRNA vs. Ghaemmaghami abundances (2860)
    [+] Pearson:  0.33 (p-value 1.49626e-72)
    [+] Spearman: 0.46 (p-value 5.01631e-149)

[i] Log(Shah J * mRNA) vs. Log(Ghaemmaghami abundances) (2860)
    [+] Pearson:  0.51 (p-value 1.10312e-186)
    [+] Spearman: 0.46 (p-value 5.01631e-149)

[i] Shah J vs. Ghaemmaghami abundances given mRNA (2860)
    [+] Pearson:  0.01 (p-value 0.600883)
    [+] Spearman: -0.13 (p-value 3.52687e-12)

[i] Log(Shah J) vs. Log(Ghaemmaghami abundances) given Log(mRNA) (2860)
    [+] Pearson:  -0.16 (p-value 3.79897e-17)
    [+] Spearman: -0.13 (p-value 3.52687e-12)

[i] Shah Initiation vs. Ghaemmaghami abundances Corrected (2583)
    [+] Pearson:  0.29 (p-value 3.37716e-51)
    [+] Spearman: 0.41 (p-value 5.99267e-108)

[i] Log(Shah Initiation) vs. Log(Ghaemmaghami abundances Corrected) (2583)
    [+] Pearson:  0.46 (p-value 3.0029e-133)
    [+] Spearman: 0.41 (p-value 5.99267e-108)

[i] Shah J vs. Ghaemmaghami abundances Corrected (2579)
    [+] Pearson:  0.18 (p-value 5.4919e-21)
    [+] Spearman: 0.24 (p-value 6.8202e-34)

[i] Log(Shah J) vs. Log(Ghaemmaghami abundances Corrected) (2579)
    [+] Pearson:  0.26 (p-value 5.78849e-41)
    [+] Spearman: 0.24 (p-value 6.8202e-34)

[i] Shah J * mRNA vs. Ghaemmaghami abundances Corrected (2552)
    [+] Pearson:  0.34 (p-value 2.52506e-70)
    [+] Spearman: 0.43 (p-value 1.49197e-114)

[i] Log(Shah J * mRNA) vs. Log(Ghaemmaghami abundances Corrected) (2552)
    [+] Pearson:  0.48 (p-value 1.76009e-150)
    [+] Spearman: 0.43 (p-value 1.49197e-114)

[i] Shah J vs. Ghaemmaghami abundances Corrected given mRNA (2552)
    [+] Pearson:  0.03 (p-value 0.126727)
    [+] Spearman: -0.13 (p-value 9.61005e-12)

[i] Log(Shah J) vs. Log(Ghaemmaghami abundances Corrected) given Log(mRNA) (2552)
    [+] Pearson:  -0.16 (p-value 3.4533e-16)
    [+] Spearman: -0.13 (p-value 9.61005e-12)

